0.04988281 0.7458093
0.04988281 0.7458093
0.05985937 0.7458093
0.04988281 0.7326995
0.05487109 0.7785838
0.05487109 0.7785838
0.06484766 0.7785838
0.05487109 0.7753064
0.05487109 0.7392544
0.05487109 0.7392544
0.07482421 0.7392544
0.05487109 0.7261446
0.06484766 0.8769075
0.06484766 0.8769075
0.06983593 0.8769075
0.06484766 0.8736301
0.05985937 0.7523642
0.05985937 0.7523642
0.0798125 0.7523642
0.05985937 0.7392544
0.05985937 0.7851387
0.05985937 0.7851387
0.0798125 0.7851387
0.05985937 0.7720289
0.06983593 0.7195896
0.06983593 0.7195896
0.0798125 0.7195896
0.06983593 0.7130347
0.0798125 0.6835376
0.0798125 0.6835376
0.08978906 0.6835376
0.0798125 0.6769826
0.06983593 0.7359769
0.06983593 0.7359769
0.08480078 0.7359769
0.06983593 0.7228671
0.06983593 0.7949711
0.06983593 0.7949711
0.08978906 0.7949711
0.06983593 0.7818613
0.0798125 0.8211908
0.0798125 0.8211908
0.08978906 0.8211908
0.0798125 0.8113584
0.08480078 0.7064798
0.08480078 0.7064798
0.09477734 0.7064798
0.08480078 0.6966474
0.07482421 0.7523642
0.07482421 0.7523642
0.09477734 0.7523642
0.07482421 0.7392544
0.08480078 0.8637977
0.08480078 0.8637977
0.09477734 0.8637977
0.08480078 0.8506879
0.08978906 0.7720289
0.08978906 0.7720289
0.09976562 0.7720289
0.08978906 0.7621965
0.08978906 0.8474104
0.08978906 0.8474104
0.09976562 0.8474104
0.08978906 0.8375781
0.09477734 0.6638728
0.09477734 0.6638728
0.1047539 0.6638728
0.09477734 0.6573179
0.08480078 0.6933699
0.08480078 0.6933699
0.1047539 0.6933699
0.08480078 0.6802601
0.09477734 0.7261446
0.09477734 0.7261446
0.1047539 0.7261446
0.09477734 0.7130347
0.08480078 0.7621965
0.08480078 0.7621965
0.09976562 0.7621965
0.08480078 0.7556416
0.08480078 0.7851387
0.08480078 0.7851387
0.1047539 0.7851387
0.08480078 0.7720289
0.08480078 0.7949711
0.08480078 0.7949711
0.1047539 0.7949711
0.08480078 0.7818613
0.08480078 0.8211908
0.08480078 0.8211908
0.1047539 0.8211908
0.08480078 0.808081
0.08480078 0.8310232
0.08480078 0.8310232
0.1047539 0.8310232
0.08480078 0.8179133
0.08978906 0.7032023
0.08978906 0.7032023
0.1097422 0.7032023
0.08978906 0.6900925
0.08978906 0.7130347
0.08978906 0.7130347
0.1097422 0.7130347
0.08978906 0.6999249
0.09976562 0.7359769
0.09976562 0.7359769
0.1097422 0.7359769
0.09976562 0.729422
0.08978906 0.8605202
0.08978906 0.8605202
0.1097422 0.8605202
0.08978906 0.8474104
0.08978906 0.8703526
0.08978906 0.8703526
0.1097422 0.8703526
0.08978906 0.8572428
0.09477734 0.6802601
0.09477734 0.6802601
0.1147305 0.6802601
0.09477734 0.6671503
0.09477734 0.7523642
0.09477734 0.7523642
0.1147305 0.7523642
0.09477734 0.7392544
0.09477734 0.7720289
0.09477734 0.7720289
0.1147305 0.7720289
0.09477734 0.7589191
0.09976562 0.8113584
0.09976562 0.8113584
0.1147305 0.8113584
0.09976562 0.7982486
0.09477734 0.8474104
0.09477734 0.8474104
0.1097422 0.8474104
0.09477734 0.8375781
0.09976562 0.6605954
0.09976562 0.6605954
0.1197187 0.6605954
0.09976562 0.6540405
0.09976562 0.6900925
0.09976562 0.6900925
0.1197187 0.6900925
0.09976562 0.6769826
0.09976562 0.7228671
0.09976562 0.7228671
0.1197187 0.7228671
0.09976562 0.7097573
0.09976562 0.7818613
0.09976562 0.7818613
0.1197187 0.7818613
0.09976562 0.7687514
0.09976562 0.7916937
0.09976562 0.7916937
0.1197187 0.7916937
0.09976562 0.7785838
0.09976562 0.801526
0.09976562 0.801526
0.1197187 0.801526
0.09976562 0.7884162
0.09976562 0.8211908
0.09976562 0.8211908
0.1197187 0.8211908
0.09976562 0.808081
0.09976562 0.8310232
0.09976562 0.8310232
0.1197187 0.8310232
0.09976562 0.8179133
0.09976562 0.8408555
0.09976562 0.8408555
0.1197187 0.8408555
0.09976562 0.8277457
0.1047539 0.6999249
0.1047539 0.6999249
0.124707 0.6999249
0.1047539 0.686815
0.1047539 0.7425318
0.1047539 0.7425318
0.124707 0.7425318
0.1047539 0.729422
0.1097422 0.7621965
0.1097422 0.7621965
0.124707 0.7621965
0.1097422 0.7490867
0.1047539 0.8605202
0.1047539 0.8605202
0.124707 0.8605202
0.1047539 0.8474104
0.1047539 0.8703526
0.1047539 0.8703526
0.124707 0.8703526
0.1047539 0.8572428
0.1097422 0.6769826
0.1097422 0.6769826
0.124707 0.6769826
0.1097422 0.6638728
0.1097422 0.7523642
0.1097422 0.7523642
0.1296953 0.7523642
0.1097422 0.7392544
0.1097422 0.7720289
0.1097422 0.7720289
0.1296953 0.7720289
0.1097422 0.7589191
0.1097422 0.8113584
0.1097422 0.8113584
0.1296953 0.8113584
0.1097422 0.7982486
0.1147305 0.6605954
0.1147305 0.6605954
0.1346836 0.6605954
0.1147305 0.6540405
0.1147305 0.686815
0.1147305 0.686815
0.1346836 0.686815
0.1147305 0.6737052
0.1147305 0.7163122
0.1147305 0.7163122
0.1346836 0.7163122
0.1147305 0.7097573
0.1147305 0.7326995
0.1147305 0.7326995
0.1346836 0.7326995
0.1147305 0.7195896
0.1147305 0.7851387
0.1147305 0.7851387
0.1346836 0.7851387
0.1147305 0.7720289
0.1147305 0.7949711
0.1147305 0.7949711
0.1346836 0.7949711
0.1147305 0.7818613
0.1147305 0.8211908
0.1147305 0.8211908
0.1346836 0.8211908
0.1147305 0.808081
0.1147305 0.8375781
0.1147305 0.8375781
0.1346836 0.8375781
0.1147305 0.8244683
0.1197187 0.6966474
0.1197187 0.6966474
0.1396719 0.6966474
0.1197187 0.6835376
0.1197187 0.7064798
0.1197187 0.7064798
0.1396719 0.7064798
0.1197187 0.6933699
0.1197187 0.7621965
0.1197187 0.7621965
0.1396719 0.7621965
0.1197187 0.7490867
0.1197187 0.8474104
0.1197187 0.8474104
0.1396719 0.8474104
0.1197187 0.8408555
0.1197187 0.8539653
0.1197187 0.8539653
0.1396719 0.8539653
0.1197187 0.8474104
0.124707 0.7490867
0.124707 0.7490867
0.1446601 0.7490867
0.124707 0.7359769
0.124707 0.7720289
0.124707 0.7720289
0.1446601 0.7720289
0.124707 0.7589191
0.124707 0.8048035
0.124707 0.8048035
0.1446601 0.8048035
0.124707 0.7916937
0.1346836 0.6573179
0.1346836 0.6573179
0.1496484 0.6573179
0.1346836 0.6474856
0.1346836 0.6704277
0.1346836 0.6704277
0.1496484 0.6704277
0.1346836 0.6638728
0.1296953 0.7195896
0.1296953 0.7195896
0.1446601 0.7195896
0.1296953 0.7064798
0.1296953 0.729422
0.1296953 0.729422
0.1446601 0.729422
0.1296953 0.7163122
0.1296953 0.7949711
0.1296953 0.7949711
0.1446601 0.7949711
0.1296953 0.7818613
0.1296953 0.8211908
0.1296953 0.8211908
0.1396719 0.8211908
0.1296953 0.8113584
0.1296953 0.8277457
0.1296953 0.8277457
0.1446601 0.8277457
0.1296953 0.8211908
0.1346836 0.686815
0.1346836 0.686815
0.1546367 0.686815
0.1346836 0.6802601
0.1346836 0.7032023
0.1346836 0.7032023
0.1546367 0.7032023
0.1346836 0.6900925
0.1346836 0.7589191
0.1346836 0.7589191
0.1546367 0.7589191
0.1346836 0.7458093
0.1346836 0.8506879
0.1346836 0.8506879
0.1546367 0.8506879
0.1346836 0.844133
0.1396719 0.7359769
0.1396719 0.7359769
0.1546367 0.7359769
0.1396719 0.729422
0.1396719 0.7687514
0.1396719 0.7687514
0.159625 0.7687514
0.1396719 0.7589191
0.1446601 0.6540405
0.1446601 0.6540405
0.1646133 0.6540405
0.1446601 0.6409307
0.1446601 0.6638728
0.1446601 0.6638728
0.1646133 0.6638728
0.1446601 0.650763
0.1446601 0.7261446
0.1446601 0.7261446
0.1646133 0.7261446
0.1446601 0.7130347
0.1546367 0.808081
0.1546367 0.808081
0.1646133 0.808081
0.1546367 0.7982486
0.1446601 0.8670751
0.1446601 0.8670751
0.1646133 0.8670751
0.1446601 0.8539653
0.1496484 0.686815
0.1496484 0.686815
0.1646133 0.686815
0.1496484 0.6802601
0.159625 0.7163122
0.159625 0.7163122
0.1696016 0.7163122
0.159625 0.7064798
0.1496484 0.7556416
0.1496484 0.7556416
0.1696016 0.7556416
0.1496484 0.7425318
0.1496484 0.8506879
0.1496484 0.8506879
0.1696016 0.8506879
0.1496484 0.844133
0.1646133 0.3885665
0.1646133 0.3885665
0.1745898 0.3885665
0.1646133 0.3754566
0.1646133 0.3983988
0.1646133 0.3983988
0.1745898 0.3983988
0.1646133 0.385289
0.1646133 0.4082312
0.1646133 0.4082312
0.1745898 0.4082312
0.1646133 0.3983988
0.1546367 0.765474
0.1546367 0.765474
0.1745898 0.765474
0.1546367 0.7523642
0.1696016 0.3754566
0.1696016 0.3754566
0.1795781 0.3754566
0.1696016 0.3623468
0.1696016 0.4180636
0.1696016 0.4180636
0.1696016 0.4180636
0.1696016 0.4180636
0.159625 0.6442081
0.159625 0.6442081
0.1795781 0.6442081
0.159625 0.6343758
0.159625 0.6573179
0.159625 0.6573179
0.1795781 0.6573179
0.159625 0.6442081
0.159625 0.6671503
0.159625 0.6671503
0.1795781 0.6671503
0.159625 0.6540405
0.159625 0.8670751
0.159625 0.8670751
0.1745898 0.8670751
0.159625 0.8539653
0.1696016 0.6999249
0.1696016 0.6999249
0.1845664 0.6999249
0.1696016 0.6900925
0.1646133 0.7130347
0.1646133 0.7130347
0.1795781 0.7130347
0.1646133 0.6999249
0.1696016 0.7359769
0.1696016 0.7359769
0.1845664 0.7359769
0.1696016 0.729422
0.1646133 0.7523642
0.1646133 0.7523642
0.1845664 0.7523642
0.1646133 0.7392544
0.1795781 0.3590693
0.1795781 0.3590693
0.1895547 0.3590693
0.1795781 0.3459595
0.1696016 0.385289
0.1696016 0.385289
0.1895547 0.385289
0.1696016 0.3721792
0.1696016 0.3951214
0.1696016 0.3951214
0.1895547 0.3951214
0.1696016 0.3820116
0.1696016 0.4082312
0.1696016 0.4082312
0.1795781 0.4082312
0.1696016 0.3983988
0.1696016 0.765474
0.1696016 0.765474
0.1895547 0.765474
0.1696016 0.7523642
0.1745898 0.3689017
0.1745898 0.3689017
0.194543 0.3689017
0.1745898 0.3557919
0.1745898 0.6376532
0.1745898 0.6376532
0.194543 0.6376532
0.1745898 0.6310983
0.1745898 0.6540405
0.1745898 0.6540405
0.194543 0.6540405
0.1745898 0.6409307
0.1745898 0.6638728
0.1745898 0.6638728
0.194543 0.6638728
0.1745898 0.650763
0.1795781 0.7753064
0.1795781 0.7753064
0.194543 0.7753064
0.1795781 0.7687514
0.1745898 0.8506879
0.1745898 0.8506879
0.194543 0.8506879
0.1745898 0.844133
0.1895547 0.3033526
0.1895547 0.3033526
0.1995312 0.3033526
0.1895547 0.2902428
0.1895547 0.3361272
0.1895547 0.3361272
0.1995312 0.3361272
0.1895547 0.3230173
0.1895547 0.3459595
0.1895547 0.3459595
0.1995312 0.3459595
0.1895547 0.3328497
0.1795781 0.6933699
0.1795781 0.6933699
0.1895547 0.6933699
0.1795781 0.686815
0.194543 0.2804104
0.194543 0.2804104
0.2045195 0.2804104
0.194543 0.2673005
0.194543 0.2902428
0.194543 0.2902428
0.2045195 0.2902428
0.194543 0.2771329
0.194543 0.3197399
0.194543 0.3197399
0.2045195 0.3197399
0.194543 0.30663
0.1845664 0.3557919
0.1845664 0.3557919
0.1995312 0.3557919
0.1845664 0.3426821
0.1845664 0.6737052
0.1845664 0.6737052
0.2045195 0.6737052
0.1845664 0.6605954
0.1845664 0.7621965
0.1845664 0.7621965
0.2045195 0.7621965
0.1845664 0.7490867
0.1845664 0.8670751
0.1845664 0.8670751
0.2045195 0.8670751
0.1845664 0.8572428
0.1995312 0.270578
0.1995312 0.270578
0.2095078 0.270578
0.1995312 0.2574682
0.1895547 0.650763
0.1895547 0.650763
0.2095078 0.650763
0.1895547 0.6376532
0.1895547 0.6605954
0.1895547 0.6605954
0.2095078 0.6605954
0.1895547 0.650763
0.1895547 0.7130347
0.1895547 0.7130347
0.2095078 0.7130347
0.1895547 0.7032023
0.1895547 0.7720289
0.1895547 0.7720289
0.2095078 0.7720289
0.1895547 0.765474
0.2045195 0.2509133
0.2045195 0.2509133
0.2144961 0.2509133
0.2045195 0.2378035
0.194543 0.3000751
0.194543 0.3000751
0.2144961 0.3000751
0.194543 0.2869653
0.194543 0.3099075
0.194543 0.3099075
0.2144961 0.3099075
0.194543 0.2967977
0.194543 0.3295723
0.194543 0.3295723
0.2095078 0.3295723
0.194543 0.3164624
0.194543 0.3394046
0.194543 0.3394046
0.2095078 0.3394046
0.194543 0.3262948
0.194543 0.6835376
0.194543 0.6835376
0.2144961 0.6835376
0.194543 0.6704277
0.2045195 0.7425318
0.2045195 0.7425318
0.2095078 0.7425318
0.2045195 0.7359769
0.194543 0.8539653
0.194543 0.8539653
0.2144961 0.8539653
0.194543 0.844133
0.2095078 0.2115838
0.2095078 0.2115838
0.2194844 0.2115838
0.2095078 0.198474
0.2095078 0.2214162
0.2095078 0.2214162
0.2194844 0.2214162
0.2095078 0.2083063
0.2095078 0.2312485
0.2095078 0.2312485
0.2194844 0.2312485
0.2095078 0.2181387
0.1995312 0.2869653
0.1995312 0.2869653
0.2194844 0.2869653
0.1995312 0.2738555
0.1995312 0.6704277
0.1995312 0.6704277
0.2194844 0.6704277
0.1995312 0.6573179
0.1995312 0.7589191
0.1995312 0.7589191
0.2095078 0.7589191
0.1995312 0.7458093
0.2144961 0.198474
0.2144961 0.198474
0.2244726 0.198474
0.2144961 0.1886416
0.2095078 0.2410809
0.2095078 0.2410809
0.2244726 0.2410809
0.2095078 0.2279711
0.2045195 0.2607456
0.2045195 0.2607456
0.2244726 0.2607456
0.2045195 0.2476358
0.2045195 0.270578
0.2045195 0.270578
0.2244726 0.270578
0.2045195 0.2574682
0.2045195 0.6409307
0.2045195 0.6409307
0.2144961 0.6409307
0.2045195 0.6343758
0.2144961 0.6933699
0.2144961 0.6933699
0.2244726 0.6933699
0.2144961 0.6802601
0.2095078 0.7032023
0.2095078 0.7032023
0.2244726 0.7032023
0.2095078 0.6900925
0.2045195 0.7130347
0.2045195 0.7130347
0.2244726 0.7130347
0.2045195 0.6999249
0.2095078 0.2509133
0.2095078 0.2509133
0.2294609 0.2509133
0.2095078 0.2378035
0.2095078 0.2967977
0.2095078 0.2967977
0.2294609 0.2967977
0.2095078 0.2836878
0.2095078 0.30663
0.2095078 0.30663
0.2244726 0.30663
0.2095078 0.2935202
0.2095078 0.6802601
0.2095078 0.6802601
0.2294609 0.6802601
0.2095078 0.6671503
0.2095078 0.8474104
0.2095078 0.8474104
0.2294609 0.8474104
0.2095078 0.8408555
0.2244726 0.155867
0.2244726 0.155867
0.2344492 0.155867
0.2244726 0.1427572
0.2244726 0.1656994
0.2244726 0.1656994
0.2344492 0.1656994
0.2244726 0.1525896
0.2244726 0.1820867
0.2244726 0.1820867
0.2344492 0.1820867
0.2244726 0.1722543
0.2194844 0.1919191
0.2194844 0.1919191
0.2294609 0.1919191
0.2194844 0.1788092
0.2144961 0.2115838
0.2144961 0.2115838
0.2344492 0.2115838
0.2144961 0.198474
0.2144961 0.2214162
0.2144961 0.2214162
0.2344492 0.2214162
0.2144961 0.2083063
0.2144961 0.2312485
0.2144961 0.2312485
0.2344492 0.2312485
0.2144961 0.2181387
0.2144961 0.2804104
0.2144961 0.2804104
0.2344492 0.2804104
0.2144961 0.2673005
0.2244726 0.4573931
0.2244726 0.4573931
0.2344492 0.4573931
0.2244726 0.4541156
0.2144961 0.6704277
0.2144961 0.6704277
0.2244726 0.6704277
0.2144961 0.6573179
0.2194844 0.2410809
0.2194844 0.2410809
0.2294609 0.2410809
0.2194844 0.2279711
0.2194844 0.2607456
0.2194844 0.2607456
0.2344492 0.2607456
0.2194844 0.2476358
0.2194844 0.6900925
0.2194844 0.6900925
0.2394375 0.6900925
0.2194844 0.6769826
0.2194844 0.6999249
0.2194844 0.6999249
0.2394375 0.6999249
0.2194844 0.686815
0.2194844 0.7097573
0.2194844 0.7097573
0.2394375 0.7097573
0.2194844 0.6966474
0.2194844 0.7195896
0.2194844 0.7195896
0.2394375 0.7195896
0.2194844 0.7064798
0.2294609 0.7621965
0.2294609 0.7621965
0.2394375 0.7621965
0.2294609 0.7490867
0.2294609 0.1460347
0.2294609 0.1460347
0.2444258 0.1460347
0.2294609 0.1329248
0.2244726 0.2509133
0.2244726 0.2509133
0.2344492 0.2509133
0.2244726 0.2378035
0.2344492 0.7458093
0.2344492 0.7458093
0.2394375 0.7458093
0.2344492 0.7392544
0.2244726 0.8506879
0.2244726 0.8506879
0.2444258 0.8506879
0.2244726 0.8408555
0.2244726 0.8637977
0.2244726 0.8637977
0.2394375 0.8637977
0.2244726 0.8572428
0.2294609 0.155867
0.2294609 0.155867
0.2494141 0.155867
0.2294609 0.1427572
0.2294609 0.2214162
0.2294609 0.2214162
0.2494141 0.2214162
0.2294609 0.2083063
0.2294609 0.2836878
0.2294609 0.2836878
0.2494141 0.2836878
0.2294609 0.270578
0.2294609 0.4573931
0.2294609 0.4573931
0.2394375 0.4573931
0.2294609 0.4541156
0.2294609 0.729422
0.2294609 0.729422
0.2494141 0.729422
0.2294609 0.7163122
0.2344492 0.6835376
0.2344492 0.6835376
0.2494141 0.6835376
0.2344492 0.6737052
0.2344492 0.6966474
0.2344492 0.6966474
0.2494141 0.6966474
0.2344492 0.6835376
0.2344492 0.7064798
0.2344492 0.7064798
0.2494141 0.7064798
0.2344492 0.6933699
0.2344492 0.7163122
0.2344492 0.7163122
0.2494141 0.7163122
0.2344492 0.7032023
0.2444258 0.8113584
0.2444258 0.8113584
0.2544023 0.8113584
0.2444258 0.808081
0.2394375 0.1427572
0.2394375 0.1427572
0.2593906 0.1427572
0.2394375 0.1296474
0.2444258 0.1525896
0.2444258 0.1525896
0.2643789 0.1525896
0.2444258 0.1394797
0.2444258 0.2771329
0.2444258 0.2771329
0.2544023 0.2771329
0.2444258 0.270578
0.2444258 0.729422
0.2444258 0.729422
0.2544023 0.729422
0.2444258 0.7163122
0.2494141 0.1624219
0.2494141 0.1624219
0.2693672 0.1624219
0.2494141 0.155867
0.2593906 0.2574682
0.2593906 0.2574682
0.2593906 0.2574682
0.2593906 0.2509133
0.2593906 0.2738555
0.2593906 0.2738555
0.2593906 0.2738555
0.2593906 0.2673005
0.2494141 0.7392544
0.2494141 0.7392544
0.2643789 0.7392544
0.2494141 0.7326995
0.2544023 0.1362023
0.2544023 0.1362023
0.2743555 0.1362023
0.2544023 0.1263699
0.2643789 0.6638728
0.2643789 0.6638728
0.2693672 0.6638728
0.2643789 0.6573179
0.2593906 0.1493121
0.2593906 0.1493121
0.2793437 0.1493121
0.2593906 0.1362023
0.2643789 0.1591445
0.2643789 0.1591445
0.284332 0.1591445
0.2643789 0.1460347
0.2743555 0.2115838
0.2743555 0.2115838
0.284332 0.2115838
0.2743555 0.198474
0.2693672 0.1689769
0.2693672 0.1689769
0.2893203 0.1689769
0.2693672 0.155867
0.284332 0.119815
0.284332 0.119815
0.2943086 0.119815
0.284332 0.1067052
0.2793437 0.1919191
0.2793437 0.1919191
0.284332 0.1919191
0.2793437 0.1853641
0.2743555 0.2214162
0.2743555 0.2214162
0.2943086 0.2214162
0.2743555 0.2148613
0.284332 0.1296474
0.284332 0.1296474
0.2992969 0.1296474
0.284332 0.1165375
0.2793437 0.1591445
0.2793437 0.1591445
0.2992969 0.1591445
0.2793437 0.1460347
0.2793437 0.2050289
0.2793437 0.2050289
0.2992969 0.2050289
0.2793437 0.1951965
0.2893203 0.2378035
0.2893203 0.2378035
0.2992969 0.2378035
0.2893203 0.234526
0.2943086 0.5065549
0.2943086 0.5065549
0.3042851 0.5065549
0.2943086 0.5
0.2893203 0.1099826
0.2893203 0.1099826
0.3092734 0.1099826
0.2893203 0.1001503
0.2893203 0.2181387
0.2893203 0.2181387
0.3092734 0.2181387
0.2893203 0.2050289
0.2893203 0.2279711
0.2893203 0.2279711
0.3092734 0.2279711
0.2893203 0.2148613
0.2943086 0.1230925
0.2943086 0.1230925
0.3142617 0.1230925
0.2943086 0.1099826
0.2943086 0.1329248
0.2943086 0.1329248
0.3142617 0.1329248
0.2943086 0.1230925
0.2943086 0.155867
0.2943086 0.155867
0.3142617 0.155867
0.2943086 0.1427572
0.3042851 0.198474
0.3042851 0.198474
0.3142617 0.198474
0.3042851 0.1853641
0.2992969 0.1427572
0.2992969 0.1427572
0.31925 0.1427572
0.2992969 0.1296474
0.3042851 0.1034277
0.3042851 0.1034277
0.3242383 0.1034277
0.3042851 0.09687281
0.3142617 0.1722543
0.3142617 0.1722543
0.3242383 0.1722543
0.3142617 0.1624219
0.3092734 0.1853641
0.3092734 0.1853641
0.3242383 0.1853641
0.3092734 0.1722543
0.3092734 0.119815
0.3092734 0.119815
0.3292266 0.119815
0.3092734 0.1067052
0.3092734 0.1296474
0.3092734 0.1296474
0.3292266 0.1296474
0.3092734 0.1165375
0.3092734 0.1525896
0.3092734 0.1525896
0.3292266 0.1525896
0.3092734 0.1394797
0.3092734 0.1951965
0.3092734 0.1951965
0.3292266 0.1951965
0.3092734 0.1820867
0.3092734 0.2050289
0.3092734 0.2050289
0.3292266 0.2050289
0.3092734 0.198474
0.3142617 0.1394797
0.3142617 0.1394797
0.3342148 0.1394797
0.3142617 0.1263699
0.31925 0.1624219
0.31925 0.1624219
0.3342148 0.1624219
0.31925 0.155867
0.31925 0.1788092
0.31925 0.1788092
0.3342148 0.1788092
0.31925 0.1656994
0.3242383 0.1099826
0.3242383 0.1099826
0.3441914 0.1099826
0.3242383 0.09687281
0.3242383 0.119815
0.3242383 0.119815
0.3441914 0.119815
0.3242383 0.1067052
0.3242383 0.1296474
0.3242383 0.1296474
0.3441914 0.1296474
0.3242383 0.1165375
0.3242383 0.1493121
0.3242383 0.1493121
0.3392031 0.1493121
0.3242383 0.1394797
0.3242383 0.1919191
0.3242383 0.1919191
0.3441914 0.1919191
0.3242383 0.1788092
0.3242383 0.2017514
0.3242383 0.2017514
0.3441914 0.2017514
0.3242383 0.1919191
0.3292266 0.1394797
0.3292266 0.1394797
0.3491797 0.1394797
0.3292266 0.1263699
0.3441914 0.09359535
0.3441914 0.09359535
0.354168 0.09359535
0.3441914 0.08376298
0.3392031 0.1067052
0.3392031 0.1067052
0.3591563 0.1067052
0.3392031 0.09359535
0.3392031 0.1165375
0.3392031 0.1165375
0.3591563 0.1165375
0.3392031 0.1034277
0.3392031 0.1263699
0.3392031 0.1263699
0.3591563 0.1263699
0.3392031 0.1132601
0.3392031 0.1820867
0.3392031 0.1820867
0.354168 0.1820867
0.3392031 0.1755318
0.3392031 0.198474
0.3392031 0.198474
0.354168 0.198474
0.3392031 0.1886416
0.3491797 0.4672254
0.3491797 0.4672254
0.3491797 0.4672254
0.3491797 0.4672254
0.3441914 0.1362023
0.3441914 0.1362023
0.3641445 0.1362023
0.3441914 0.1230925
0.3441914 0.1460347
0.3441914 0.1460347
0.3641445 0.1460347
0.3441914 0.1329248
0.354168 0.1591445
0.354168 0.1591445
0.3641445 0.1591445
0.354168 0.1460347
0.3491797 0.08704044
0.3491797 0.08704044
0.3591563 0.08704044
0.3491797 0.08048552
0.354168 0.1099826
0.354168 0.1099826
0.3691328 0.1099826
0.354168 0.09687281
0.354168 0.119815
0.354168 0.119815
0.3741211 0.119815
0.354168 0.1067052
0.354168 0.1689769
0.354168 0.1689769
0.3741211 0.1689769
0.354168 0.1591445
0.3591563 0.1296474
0.3591563 0.1296474
0.3791094 0.1296474
0.3591563 0.1165375
0.3591563 0.1394797
0.3591563 0.1394797
0.3791094 0.1394797
0.3591563 0.1263699
0.3691328 0.1591445
0.3691328 0.1591445
0.3890859 0.1591445
0.3691328 0.1525896
0.3691328 0.1755318
0.3691328 0.1755318
0.3890859 0.1755318
0.3691328 0.1656994
0.3741211 0.1427572
0.3741211 0.1427572
0.3840976 0.1427572
0.3741211 0.1329248
0.3890859 0.09687281
0.3890859 0.09687281
0.3990625 0.09687281
0.3890859 0.08376298
0.3890859 0.1067052
0.3890859 0.1067052
0.3990625 0.1067052
0.3890859 0.09359535
0.3890859 0.1165375
0.3890859 0.1165375
0.3990625 0.1165375
0.3890859 0.1034277
0.3940742 0.08048552
0.3940742 0.08048552
0.4040508 0.08048552
0.3940742 0.07393061
0.3890859 0.1263699
0.3890859 0.1263699
0.4040508 0.1263699
0.3890859 0.1132601
0.3840976 0.1722543
0.3840976 0.1722543
0.3940742 0.1722543
0.3840976 0.1591445
0.3940742 0.3787341
0.3940742 0.3787341
0.4040508 0.3787341
0.3940742 0.3754566
0.3940742 0.1362023
0.3940742 0.1362023
0.4090391 0.1362023
0.3940742 0.1230925
0.3990625 0.3623468
0.3990625 0.3623468
0.4090391 0.3623468
0.3990625 0.3557919
0.3940742 0.09687281
0.3940742 0.09687281
0.4140273 0.09687281
0.3940742 0.08376298
0.3940742 0.1067052
0.3940742 0.1067052
0.4140273 0.1067052
0.3940742 0.09359535
0.3940742 0.1165375
0.3940742 0.1165375
0.4140273 0.1165375
0.3940742 0.1034277
0.3990625 0.08048552
0.3990625 0.08048552
0.4190156 0.08048552
0.3990625 0.07393061
0.3990625 0.1263699
0.3990625 0.1263699
0.4190156 0.1263699
0.3990625 0.1132601
0.3990625 0.3754566
0.3990625 0.3754566
0.4090391 0.3754566
0.3990625 0.3689017
0.4040508 0.1362023
0.4040508 0.1362023
0.4240039 0.1362023
0.4040508 0.1230925
0.4090391 0.09687281
0.4090391 0.09687281
0.4289922 0.09687281
0.4090391 0.08376298
0.4090391 0.1067052
0.4090391 0.1067052
0.4289922 0.1067052
0.4090391 0.09359535
0.4090391 0.1165375
0.4090391 0.1165375
0.4289922 0.1165375
0.4090391 0.1034277
0.4140273 0.08048552
0.4140273 0.08048552
0.4339805 0.08048552
0.4140273 0.07393061
0.4140273 0.1263699
0.4140273 0.1263699
0.4339805 0.1263699
0.4140273 0.1132601
0.4240039 0.1853641
0.4240039 0.1853641
0.4289922 0.1853641
0.4240039 0.1788092
0.4190156 0.1362023
0.4190156 0.1362023
0.4339805 0.1362023
0.4190156 0.1263699
0.4289922 0.1689769
0.4289922 0.1689769
0.4389687 0.1689769
0.4289922 0.1591445
0.4240039 0.09687281
0.4240039 0.09687281
0.443957 0.09687281
0.4240039 0.08376298
0.4240039 0.1165375
0.4240039 0.1165375
0.4339805 0.1165375
0.4240039 0.1034277
0.4289922 0.08048552
0.4289922 0.08048552
0.4489453 0.08048552
0.4289922 0.07393061
0.443957 0.1394797
0.443957 0.1394797
0.4539336 0.1394797
0.443957 0.1329248
0.4339805 0.1624219
0.4339805 0.1624219
0.4489453 0.1624219
0.4339805 0.1591445
0.4389687 0.09687281
0.4389687 0.09687281
0.4589218 0.09687281
0.4389687 0.08376298
0.443957 0.155867
0.443957 0.155867
0.4589218 0.155867
0.443957 0.1493121
0.443957 0.08048552
0.443957 0.08048552
0.4639101 0.08048552
0.443957 0.07393061
0.4489453 0.1067052
0.4489453 0.1067052
0.4688984 0.1067052
0.4489453 0.09359535
0.4589218 0.119815
0.4589218 0.119815
0.4639101 0.119815
0.4589218 0.1165375
0.4489453 0.1460347
0.4489453 0.1460347
0.4688984 0.1460347
0.4489453 0.1329248
0.4589218 0.1820867
0.4589218 0.1820867
0.4688984 0.1820867
0.4589218 0.1689769
0.4589218 0.1919191
0.4589218 0.1919191
0.4688984 0.1919191
0.4589218 0.1820867
0.4539336 0.09687281
0.4539336 0.09687281
0.4738867 0.09687281
0.4539336 0.08376298
0.4589218 0.1165375
0.4589218 0.1165375
0.4738867 0.1165375
0.4589218 0.1099826
0.4589218 0.08048552
0.4589218 0.08048552
0.478875 0.08048552
0.4589218 0.07393061
0.4639101 0.1067052
0.4639101 0.1067052
0.4838633 0.1067052
0.4639101 0.09359535
0.4639101 0.1329248
0.4639101 0.1329248
0.4838633 0.1329248
0.4639101 0.1263699
0.4639101 0.1755318
0.4639101 0.1755318
0.478875 0.1755318
0.4639101 0.1656994
0.4639101 0.1886416
0.4639101 0.1886416
0.4838633 0.1886416
0.4639101 0.1755318
0.4688984 0.1165375
0.4688984 0.1165375
0.4888515 0.1165375
0.4688984 0.1034277
0.4738867 0.08048552
0.4738867 0.08048552
0.4938398 0.08048552
0.4738867 0.07393061
0.4738867 0.09687281
0.4738867 0.09687281
0.4938398 0.09687281
0.4738867 0.08376298
0.4738867 0.1493121
0.4738867 0.1493121
0.4938398 0.1493121
0.4738867 0.1394797
0.4838633 0.1263699
0.4838633 0.1263699
0.4988281 0.1263699
0.4838633 0.1132601
0.4838633 0.1394797
0.4838633 0.1394797
0.4988281 0.1394797
0.4838633 0.1263699
0.478875 0.1886416
0.478875 0.1886416
0.4988281 0.1886416
0.478875 0.1755318
0.4888515 0.3590693
0.4888515 0.3590693
0.4988281 0.3590693
0.4888515 0.3525144
0.4838633 0.1132601
0.4838633 0.1132601
0.5038164 0.1132601
0.4838633 0.1001503
0.4888515 0.08048552
0.4888515 0.08048552
0.5088047 0.08048552
0.4888515 0.07393061
0.4888515 0.198474
0.4888515 0.198474
0.5088047 0.198474
0.4888515 0.1886416
0.4938398 0.1001503
0.4938398 0.1001503
0.5088047 0.1001503
0.4938398 0.08704044
0.4938398 0.1230925
0.4938398 0.1230925
0.5137929 0.1230925
0.4938398 0.1099826
0.4938398 0.1329248
0.4938398 0.1329248
0.5137929 0.1329248
0.4938398 0.119815
0.4938398 0.1427572
0.4938398 0.1427572
0.5137929 0.1427572
0.4938398 0.1296474
0.4938398 0.1525896
0.4938398 0.1525896
0.5137929 0.1525896
0.4938398 0.1427572
0.4938398 0.3590693
0.4938398 0.3590693
0.5038164 0.3590693
0.4938398 0.3525144
0.4988281 0.1099826
0.4988281 0.1099826
0.5088047 0.1099826
0.4988281 0.09687281
0.5137929 0.1656994
0.5137929 0.1656994
0.5237695 0.1656994
0.5137929 0.155867
0.5038164 0.1951965
0.5038164 0.1951965
0.5237695 0.1951965
0.5038164 0.1820867
0.5088047 0.1362023
0.5088047 0.1362023
0.5287578 0.1362023
0.5088047 0.1230925
0.5088047 0.1460347
0.5088047 0.1460347
0.5287578 0.1460347
0.5088047 0.1329248
0.5088047 0.155867
0.5088047 0.155867
0.5287578 0.155867
0.5088047 0.1427572
0.5237695 0.1722543
0.5237695 0.1722543
0.5287578 0.1722543
0.5237695 0.1656994
0.5187812 0.1656994
0.5187812 0.1656994
0.5387344 0.1656994
0.5187812 0.1525896
0.5187812 0.1886416
0.5187812 0.1886416
0.5387344 0.1886416
0.5187812 0.1755318
0.5237695 0.1263699
0.5237695 0.1263699
0.5437226 0.1263699
0.5237695 0.119815
0.5237695 0.1493121
0.5237695 0.1493121
0.5387344 0.1493121
0.5237695 0.1362023
0.5337461 0.1591445
0.5337461 0.1591445
0.5536992 0.1591445
0.5337461 0.1460347
0.5337461 0.1689769
0.5337461 0.1689769
0.5536992 0.1689769
0.5337461 0.155867
0.5387344 0.1329248
0.5387344 0.1329248
0.5586874 0.1329248
0.5387344 0.1263699
0.5536992 0.1788092
0.5536992 0.1788092
0.5636758 0.1788092
0.5536992 0.1722543
0.5487109 0.1591445
0.5487109 0.1591445
0.568664 0.1591445
0.5487109 0.1460347
0.5536992 0.1362023
0.5536992 0.1362023
0.5736523 0.1362023
0.5536992 0.1296474
0.5536992 0.1689769
0.5536992 0.1689769
0.5736523 0.1689769
0.5536992 0.155867
0.5636758 0.1525896
0.5636758 0.1525896
0.5836289 0.1525896
0.5636758 0.1394797
0.568664 0.1329248
0.568664 0.1329248
0.5886171 0.1329248
0.568664 0.1263699
0.568664 0.1624219
0.568664 0.1624219
0.5886171 0.1624219
0.568664 0.1493121
0.568664 0.1722543
0.568664 0.1722543
0.5886171 0.1722543
0.568664 0.1591445
0.5786406 0.1493121
0.5786406 0.1493121
0.5985937 0.1493121
0.5786406 0.1362023
0.5836289 0.1591445
0.5836289 0.1591445
0.603582 0.1591445
0.5836289 0.1493121
0.5836289 0.1656994
0.5836289 0.1656994
0.603582 0.1656994
0.5836289 0.1591445
0.5936055 0.1460347
0.5936055 0.1460347
0.603582 0.1460347
0.5936055 0.1362023
0.5985937 0.1656994
0.5985937 0.1656994
0.6135586 0.1656994
0.5985937 0.1591445
0.6185468 0.1525896
0.6185468 0.1525896
0.6285234 0.1525896
0.6185468 0.1460347
0.6285234 0.1689769
0.6285234 0.1689769
0.6385 0.1689769
0.6285234 0.1624219
0.6285234 0.1853641
0.6285234 0.1853641
0.6385 0.1853641
0.6285234 0.1722543
0.6335117 0.1755318
0.6335117 0.1755318
0.6484765 0.1755318
0.6335117 0.1656994
0.6335117 0.1886416
0.6335117 0.1886416
0.6534648 0.1886416
0.6335117 0.1788092
0.6484765 0.1919191
0.6484765 0.1919191
0.6684297 0.1919191
0.6484765 0.1788092
0.6584531 0.2017514
0.6584531 0.2017514
0.6734179 0.2017514
0.6584531 0.1886416
0.6684297 0.2115838
0.6684297 0.2115838
0.6734179 0.2115838
0.6684297 0.2017514
0.7382656 0.3033526
0.7382656 0.3033526
0.7432539 0.3033526
0.7382656 0.3033526
0.7532305 0.3328497
0.7532305 0.3328497
0.763207 0.3328497
0.7532305 0.3230173
0.7582187 0.3164624
0.7582187 0.3164624
0.7681953 0.3164624
0.7582187 0.30663
0.763207 0.08048552
0.763207 0.08048552
0.7731836 0.08048552
0.763207 0.07393061
0.763207 0.3033526
0.763207 0.3033526
0.7731836 0.3033526
0.763207 0.2902428
0.763207 0.3525144
0.763207 0.3525144
0.763207 0.3525144
0.763207 0.3525144
0.7681953 0.2836878
0.7681953 0.2836878
0.7781718 0.2836878
0.7681953 0.2738555
0.7582187 0.3295723
0.7582187 0.3295723
0.7781718 0.3295723
0.7582187 0.3164624
0.763207 0.313185
0.763207 0.313185
0.7831602 0.313185
0.763207 0.3000751
0.7681953 0.08048552
0.7681953 0.08048552
0.7831602 0.08048552
0.7681953 0.07393061
0.7681953 0.2967977
0.7681953 0.2967977
0.7881484 0.2967977
0.7681953 0.2836878
0.7781718 0.270578
0.7781718 0.270578
0.7931367 0.270578
0.7781718 0.2640231
0.7731836 0.2869653
0.7731836 0.2869653
0.7931367 0.2869653
0.7731836 0.2738555
0.7731836 0.3230173
0.7731836 0.3230173
0.7931367 0.3230173
0.7731836 0.3099075
0.7831602 0.3754566
0.7831602 0.3754566
0.7931367 0.3754566
0.7831602 0.3689017
0.7781718 0.30663
0.7781718 0.30663
0.798125 0.30663
0.7781718 0.2935202
0.7831602 0.2967977
0.7831602 0.2967977
0.8031132 0.2967977
0.7831602 0.2836878
0.7931367 0.4672254
0.7931367 0.4672254
0.798125 0.4672254
0.7931367 0.4606705
0.798125 0.2148613
0.798125 0.2148613
0.8031132 0.2148613
0.798125 0.2083063
0.798125 0.2640231
0.798125 0.2640231
0.8081015 0.2640231
0.798125 0.2509133
0.7931367 0.2738555
0.7931367 0.2738555
0.8081015 0.2738555
0.7931367 0.2607456
0.7881484 0.2836878
0.7881484 0.2836878
0.8081015 0.2836878
0.7881484 0.270578
0.798125 0.4803353
0.798125 0.4803353
0.8031132 0.4803353
0.798125 0.4737803
0.8031132 0.234526
0.8031132 0.234526
0.8130898 0.234526
0.8031132 0.2246936
0.8031132 0.2476358
0.8031132 0.2476358
0.8130898 0.2476358
0.8031132 0.234526
0.7931367 0.30663
0.7931367 0.30663
0.8130898 0.30663
0.7931367 0.2935202
0.7931367 0.385289
0.7931367 0.385289
0.8130898 0.385289
0.7931367 0.3754566
0.798125 0.2935202
0.798125 0.2935202
0.8180781 0.2935202
0.798125 0.2804104
0.8130898 0.2083063
0.8130898 0.2083063
0.8230664 0.2083063
0.8130898 0.198474
0.8031132 0.2214162
0.8031132 0.2214162
0.8230664 0.2214162
0.8031132 0.2083063
0.8031132 0.2574682
0.8031132 0.2574682
0.8230664 0.2574682
0.8031132 0.2443584
0.8031132 0.2673005
0.8031132 0.2673005
0.8230664 0.2673005
0.8031132 0.2541907
0.8031132 0.2771329
0.8031132 0.2771329
0.8230664 0.2771329
0.8031132 0.2640231
0.8031132 0.3983988
0.8031132 0.3983988
0.8230664 0.3983988
0.8031132 0.3918439
0.8081015 0.234526
0.8081015 0.234526
0.8280547 0.234526
0.8081015 0.2214162
0.8081015 0.2443584
0.8081015 0.2443584
0.8280547 0.2443584
0.8081015 0.2312485
0.8081015 0.3033526
0.8081015 0.3033526
0.8230664 0.3033526
0.8081015 0.2935202
0.8081015 0.3787341
0.8081015 0.3787341
0.8280547 0.3787341
0.8081015 0.3689017
0.8130898 0.2869653
0.8130898 0.2869653
0.8280547 0.2869653
0.8130898 0.2738555
0.8180781 0.2541907
0.8180781 0.2541907
0.8330429 0.2541907
0.8180781 0.2410809
0.8180781 0.2640231
0.8180781 0.2640231
0.8330429 0.2640231
0.8180781 0.2509133
0.8180781 0.2738555
0.8180781 0.2738555
0.8280547 0.2738555
0.8180781 0.2607456
0.8280547 0.3689017
0.8280547 0.3689017
0.8380312 0.3689017
0.8280547 0.3557919
0.8180781 0.3918439
0.8180781 0.3918439
0.8380312 0.3918439
0.8180781 0.3787341
0.8230664 0.2279711
0.8230664 0.2279711
0.8430195 0.2279711
0.8230664 0.2181387
0.8230664 0.2410809
0.8230664 0.2410809
0.8430195 0.2410809
0.8230664 0.2279711
0.8330429 0.3590693
0.8330429 0.3590693
0.8430195 0.3590693
0.8330429 0.3459595
0.8230664 0.3787341
0.8230664 0.3787341
0.8430195 0.3787341
0.8230664 0.3656243
0.8430195 0.08048552
0.8430195 0.08048552
0.8529961 0.08048552
0.8430195 0.07393061
0.8430195 0.3394046
0.8430195 0.3394046
0.8529961 0.3394046
0.8430195 0.3262948
0.8380312 0.349237
0.8380312 0.349237
0.8529961 0.349237
0.8380312 0.3361272
0.8330429 0.3689017
0.8330429 0.3689017
0.8529961 0.3689017
0.8330429 0.3557919
0.8330429 0.3885665
0.8330429 0.3885665
0.8529961 0.3885665
0.8330429 0.3754566
0.8430195 0.5131098
0.8430195 0.5131098
0.8430195 0.5131098
0.8430195 0.5131098
0.8430195 0.09687281
0.8430195 0.09687281
0.8579844 0.09687281
0.8430195 0.08376298
0.8480078 0.1067052
0.8480078 0.1067052
0.8579844 0.1067052
0.8480078 0.09359535
0.8480078 0.1329248
0.8480078 0.1329248
0.8579844 0.1329248
0.8480078 0.1263699
0.8480078 0.2017514
0.8480078 0.2017514
0.8579844 0.2017514
0.8480078 0.1886416
0.8380312 0.234526
0.8380312 0.234526
0.8579844 0.234526
0.8380312 0.2214162
0.8480078 0.3295723
0.8480078 0.3295723
0.8579844 0.3295723
0.8480078 0.3164624
0.8380312 0.3590693
0.8380312 0.3590693
0.8579844 0.3590693
0.8380312 0.3459595
0.8380312 0.3787341
0.8380312 0.3787341
0.8579844 0.3787341
0.8380312 0.3656243
0.8480078 0.1165375
0.8480078 0.1165375
0.8629726 0.1165375
0.8480078 0.1034277
0.8529961 0.1755318
0.8529961 0.1755318
0.8629726 0.1755318
0.8529961 0.1624219
0.8529961 0.1886416
0.8529961 0.1886416
0.8629726 0.1886416
0.8529961 0.1755318
0.8529961 0.2115838
0.8529961 0.2115838
0.8629726 0.2115838
0.8529961 0.198474
0.8529961 0.2214162
0.8529961 0.2214162
0.8629726 0.2214162
0.8529961 0.2083063
0.8430195 0.2443584
0.8430195 0.2443584
0.8629726 0.2443584
0.8430195 0.2378035
0.8529961 0.3197399
0.8529961 0.3197399
0.8629726 0.3197399
0.8529961 0.30663
0.8579844 0.155867
0.8579844 0.155867
0.8679609 0.155867
0.8579844 0.1460347
0.8480078 0.3394046
0.8480078 0.3394046
0.8679609 0.3394046
0.8480078 0.3262948
0.8480078 0.349237
0.8480078 0.349237
0.8679609 0.349237
0.8480078 0.3361272
0.8480078 0.3689017
0.8480078 0.3689017
0.8679609 0.3689017
0.8480078 0.3557919
0.8579844 0.5065549
0.8579844 0.5065549
0.8679609 0.5065549
0.8579844 0.5
0.8529961 0.1001503
0.8529961 0.1001503
0.8679609 0.1001503
0.8529961 0.08704044
0.8529961 0.198474
0.8529961 0.198474
0.8729492 0.198474
0.8529961 0.1853641
0.8529961 0.2312485
0.8529961 0.2312485
0.8629726 0.2312485
0.8529961 0.2181387
0.8629726 0.3033526
0.8629726 0.3033526
0.8729492 0.3033526
0.8629726 0.2902428
0.8529961 0.3295723
0.8529961 0.3295723
0.8729492 0.3295723
0.8529961 0.3164624
0.8529961 0.3590693
0.8529961 0.3590693
0.8729492 0.3590693
0.8529961 0.3459595
0.8529961 0.3787341
0.8529961 0.3787341
0.8729492 0.3787341
0.8529961 0.3656243
0.8579844 0.1099826
0.8579844 0.1099826
0.8779374 0.1099826
0.8579844 0.09687281
0.8579844 0.1689769
0.8579844 0.1689769
0.8779374 0.1689769
0.8579844 0.155867
0.8579844 0.1788092
0.8579844 0.1788092
0.8729492 0.1788092
0.8579844 0.1656994
0.8579844 0.1886416
0.8579844 0.1886416
0.8729492 0.1886416
0.8579844 0.1755318
0.8679609 0.2869653
0.8679609 0.2869653
0.8779374 0.2869653
0.8679609 0.2738555
0.8579844 0.313185
0.8579844 0.313185
0.8779374 0.313185
0.8579844 0.3000751
0.8679609 0.1493121
0.8679609 0.1493121
0.8829257 0.1493121
0.8679609 0.1362023
0.8629726 0.1591445
0.8629726 0.1591445
0.8829257 0.1591445
0.8629726 0.1460347
0.8729492 0.2640231
0.8729492 0.2640231
0.8829257 0.2640231
0.8729492 0.2574682
0.8629726 0.3394046
0.8629726 0.3394046
0.8779374 0.3394046
0.8629726 0.3262948
0.8629726 0.349237
0.8629726 0.349237
0.8779374 0.349237
0.8629726 0.3361272
0.8629726 0.3689017
0.8629726 0.3689017
0.8779374 0.3689017
0.8629726 0.3557919
0.8729492 0.686815
0.8729492 0.686815
0.8829257 0.686815
0.8729492 0.6802601
0.8729492 0.7032023
0.8729492 0.7032023
0.8829257 0.7032023
0.8729492 0.6900925
0.8729492 0.7130347
0.8729492 0.7130347
0.8829257 0.7130347
0.8729492 0.6999249
0.8729492 0.7228671
0.8729492 0.7228671
0.8829257 0.7228671
0.8729492 0.7097573
0.8729492 0.7392544
0.8729492 0.7392544
0.8829257 0.7392544
0.8729492 0.729422
0.8679609 0.119815
0.8679609 0.119815
0.887914 0.119815
0.8679609 0.1067052
0.8779374 0.1296474
0.8779374 0.1296474
0.887914 0.1296474
0.8779374 0.1165375
0.8779374 0.1394797
0.8779374 0.1394797
0.887914 0.1394797
0.8779374 0.1263699
0.8679609 0.2967977
0.8679609 0.2967977
0.887914 0.2967977
0.8679609 0.2836878
0.8679609 0.3230173
0.8679609 0.3230173
0.8779374 0.3230173
0.8679609 0.3099075
0.8679609 0.3590693
0.8679609 0.3590693
0.8779374 0.3590693
0.8679609 0.3459595
0.8679609 0.3787341
0.8679609 0.3787341
0.8829257 0.3787341
0.8679609 0.3656243
0.8729492 0.2804104
0.8729492 0.2804104
0.8929023 0.2804104
0.8729492 0.2673005
0.8829257 0.7490867
0.8829257 0.7490867
0.8829257 0.7490867
0.8829257 0.7490867
0.8779374 0.1493121
0.8779374 0.1493121
0.8978906 0.1493121
0.8779374 0.1362023
0.8779374 0.1591445
0.8779374 0.1591445
0.8978906 0.1591445
0.8779374 0.1460347
0.8779374 0.1689769
0.8779374 0.1689769
0.8978906 0.1689769
0.8779374 0.155867
0.8779374 0.7359769
0.8779374 0.7359769
0.887914 0.7359769
0.8779374 0.7228671
0.887914 0.8244683
0.887914 0.8244683
0.887914 0.8244683
0.887914 0.8244683
0.887914 0.9195145
0.887914 0.9195145
0.8978906 0.9195145
0.887914 0.9096821
0.8829257 0.1132601
0.8829257 0.1132601
0.9028789 0.1132601
0.8829257 0.1034277
0.8829257 0.1263699
0.8829257 0.1263699
0.9028789 0.1263699
0.8829257 0.1132601
0.8829257 0.1362023
0.8829257 0.1362023
0.9028789 0.1362023
0.8829257 0.1230925
0.8929023 0.2410809
0.8929023 0.2410809
0.9028789 0.2410809
0.8929023 0.2279711
0.8829257 0.2902428
0.8829257 0.2902428
0.8978906 0.2902428
0.8829257 0.2771329
0.8829257 0.3000751
0.8829257 0.3000751
0.9028789 0.3000751
0.8829257 0.2869653
0.8929023 0.9031272
0.8929023 0.9031272
0.9028789 0.9031272
0.8929023 0.8965723
0.8929023 0.1788092
0.8929023 0.1788092
0.9078671 0.1788092
0.8929023 0.1656994
0.8978906 0.2509133
0.8978906 0.2509133
0.9078671 0.2509133
0.8978906 0.2378035
0.8929023 0.3099075
0.8929023 0.3099075
0.9078671 0.3099075
0.8929023 0.2967977
0.8978906 0.5098324
0.8978906 0.5098324
0.9028789 0.5098324
0.8978906 0.5098324
0.8929023 0.1460347
0.8929023 0.1460347
0.9128554 0.1460347
0.8929023 0.1329248
0.8929023 0.155867
0.8929023 0.155867
0.9128554 0.155867
0.8929023 0.1427572
0.8929023 0.1656994
0.8929023 0.1656994
0.9128554 0.1656994
0.8929023 0.1525896
0.9028789 0.2279711
0.9028789 0.2279711
0.9128554 0.2279711
0.9028789 0.2181387
0.8978906 0.2607456
0.8978906 0.2607456
0.9128554 0.2607456
0.8978906 0.2476358
0.8978906 0.3197399
0.8978906 0.3197399
0.9128554 0.3197399
0.8978906 0.30663
0.8929023 0.9195145
0.8929023 0.9195145
0.9028789 0.9195145
0.8929023 0.9129596
0.8978906 0.119815
0.8978906 0.119815
0.9178437 0.119815
0.8978906 0.1067052
0.8978906 0.1296474
0.8978906 0.1296474
0.9178437 0.1296474
0.8978906 0.1165375
0.9078671 0.1919191
0.9078671 0.1919191
0.9178437 0.1919191
0.9078671 0.1788092
0.8978906 0.2410809
0.8978906 0.2410809
0.9178437 0.2410809
0.8978906 0.2279711
0.9028789 0.270578
0.9028789 0.270578
0.9178437 0.270578
0.9028789 0.2574682
0.9028789 0.3295723
0.9028789 0.3295723
0.9178437 0.3295723
0.9028789 0.3164624
0.9028789 0.1755318
0.9028789 0.1755318
0.922832 0.1755318
0.9028789 0.1624219
0.9078671 0.2017514
0.9078671 0.2017514
0.922832 0.2017514
0.9078671 0.1886416
0.9028789 0.2509133
0.9028789 0.2509133
0.922832 0.2509133
0.9028789 0.2378035
0.9128554 0.2804104
0.9128554 0.2804104
0.922832 0.2804104
0.9128554 0.2673005
0.9078671 0.3394046
0.9078671 0.3394046
0.922832 0.3394046
0.9078671 0.3262948
0.9128554 0.4377283
0.9128554 0.4377283
0.9128554 0.4377283
0.9128554 0.4377283
0.9128554 0.8506879
0.9128554 0.8506879
0.9178437 0.8506879
0.9128554 0.8474104
0.9078671 0.1394797
0.9078671 0.1394797
0.9278203 0.1394797
0.9078671 0.1263699
0.9078671 0.1656994
0.9078671 0.1656994
0.922832 0.1656994
0.9078671 0.1525896
0.9078671 0.2312485
0.9078671 0.2312485
0.9278203 0.2312485
0.9078671 0.2181387
0.9078671 0.2607456
0.9078671 0.2607456
0.9278203 0.2607456
0.9078671 0.2476358
0.9128554 0.349237
0.9128554 0.349237
0.9278203 0.349237
0.9128554 0.3361272
0.9128554 0.1067052
0.9128554 0.1067052
0.922832 0.1067052
0.9128554 0.1001503
0.9128554 0.1230925
0.9128554 0.1230925
0.922832 0.1230925
0.9128554 0.1099826
0.9128554 0.1493121
0.9128554 0.1493121
0.9328086 0.1493121
0.9128554 0.1394797
0.9128554 0.1853641
0.9128554 0.1853641
0.9278203 0.1853641
0.9128554 0.1722543
0.9128554 0.270578
0.9128554 0.270578
0.9328086 0.270578
0.9128554 0.2574682
0.9178437 0.3590693
0.9178437 0.3590693
0.9328086 0.3590693
0.9178437 0.3459595
0.9178437 0.1951965
0.9178437 0.1951965
0.9377968 0.1951965
0.9178437 0.1820867
0.9178437 0.2050289
0.9178437 0.2050289
0.9377968 0.2050289
0.9178437 0.1919191
0.922832 0.2148613
0.922832 0.2148613
0.9377968 0.2148613
0.922832 0.2017514
0.9178437 0.2476358
0.9178437 0.2476358
0.9377968 0.2476358
0.9178437 0.234526
0.9178437 0.2804104
0.9178437 0.2804104
0.9377968 0.2804104
0.9178437 0.2673005
0.9178437 0.2902428
0.9178437 0.2902428
0.9377968 0.2902428
0.9178437 0.2771329
0.9178437 0.3394046
0.9178437 0.3394046
0.9328086 0.3394046
0.9178437 0.3262948
0.922832 0.3689017
0.922832 0.3689017
0.9377968 0.3689017
0.922832 0.3557919
0.9278203 0.8932948
0.9278203 0.8932948
0.9377968 0.8932948
0.9278203 0.8867399
0.9328086 0.1624219
0.9328086 0.1624219
0.9377968 0.1624219
0.9328086 0.155867
0.9278203 0.2246936
0.9278203 0.2246936
0.9427851 0.2246936
0.9278203 0.2115838
0.922832 0.2574682
0.922832 0.2574682
0.9427851 0.2574682
0.922832 0.2443584
0.9328086 0.30663
0.9328086 0.30663
0.9427851 0.30663
0.9328086 0.2935202
0.9328086 0.3164624
0.9328086 0.3164624
0.9427851 0.3164624
0.9328086 0.3033526
0.922832 0.349237
0.922832 0.349237
0.9377968 0.349237
0.922832 0.3361272
0.9278203 0.3787341
0.9278203 0.3787341
0.9427851 0.3787341
0.9278203 0.3656243
0.9328086 0.9129596
0.9328086 0.9129596
0.9377968 0.9129596
0.9328086 0.9096821
0.9377968 0.1296474
0.9377968 0.1296474
0.9427851 0.1296474
0.9377968 0.1296474
0.9328086 0.234526
0.9328086 0.234526
0.9477734 0.234526
0.9328086 0.2246936
0.9278203 0.2673005
0.9278203 0.2673005
0.9477734 0.2673005
0.9278203 0.2541907
0.9278203 0.3590693
0.9278203 0.3590693
0.9427851 0.3590693
0.9278203 0.3459595
0.9328086 0.3885665
0.9328086 0.3885665
0.9477734 0.3885665
0.9328086 0.3754566
0.9377968 0.4836127
0.9377968 0.4836127
0.9377968 0.4836127
0.9377968 0.4836127
0.9377968 0.6048786
0.9377968 0.6048786
0.9427851 0.6048786
0.9377968 0.6048786
0.9427851 0.08048552
0.9427851 0.08048552
0.9527617 0.08048552
0.9427851 0.07720806
0.9328086 0.1525896
0.9328086 0.1525896
0.9427851 0.1525896
0.9328086 0.1427572
0.9328086 0.2083063
0.9328086 0.2083063
0.9477734 0.2083063
0.9328086 0.1951965
0.9328086 0.2771329
0.9328086 0.2771329
0.9527617 0.2771329
0.9328086 0.2640231
0.9328086 0.2869653
0.9328086 0.2869653
0.9527617 0.2869653
0.9328086 0.2738555
0.9328086 0.2967977
0.9328086 0.2967977
0.9527617 0.2967977
0.9328086 0.2836878
0.9427851 0.3262948
0.9427851 0.3262948
0.9527617 0.3262948
0.9427851 0.313185
0.9328086 0.3689017
0.9328086 0.3689017
0.9477734 0.3689017
0.9328086 0.3557919
0.9377968 0.3983988
0.9377968 0.3983988
0.9527617 0.3983988
0.9377968 0.385289
0.9427851 0.4344509
0.9427851 0.4344509
0.9477734 0.4344509
0.9427851 0.4311734
0.9328086 0.9064047
0.9328086 0.9064047
0.9527617 0.9064047
0.9328086 0.8965723
0.9377968 0.2181387
0.9377968 0.2181387
0.9527617 0.2181387
0.9377968 0.2050289
0.9377968 0.30663
0.9377968 0.30663
0.95775 0.30663
0.9377968 0.2935202
0.9377968 0.3164624
0.9377968 0.3164624
0.95775 0.3164624
0.9377968 0.3033526
0.9377968 0.3787341
0.9377968 0.3787341
0.95775 0.3787341
0.9377968 0.3656243
0.9427851 0.4082312
0.9427851 0.4082312
0.95775 0.4082312
0.9427851 0.3951214
0.9477734 0.4180636
0.9477734 0.4180636
0.95775 0.4180636
0.9477734 0.4049537
0.9477734 0.6310983
0.9477734 0.6310983
0.9527617 0.6310983
0.9477734 0.6245434
0.9477734 0.6474856
0.9477734 0.6474856
0.9527617 0.6474856
0.9477734 0.6409307
0.9427851 0.2279711
0.9427851 0.2279711
0.95775 0.2279711
0.9427851 0.2148613
0.9427851 0.2378035
0.9427851 0.2378035
0.95775 0.2378035
0.9427851 0.2312485
0.9477734 0.3361272
0.9477734 0.3361272
0.9627382 0.3361272
0.9477734 0.3230173
0.9527617 0.3459595
0.9527617 0.3459595
0.9627382 0.3459595
0.9527617 0.3328497
0.9427851 0.3885665
0.9427851 0.3885665
0.9627382 0.3885665
0.9427851 0.3754566
0.9527617 0.4573931
0.9527617 0.4573931
0.9527617 0.4573931
0.9527617 0.4541156
0.95775 0.1951965
0.95775 0.1951965
0.9677265 0.1951965
0.95775 0.1886416
0.9477734 0.2771329
0.9477734 0.2771329
0.95775 0.2771329
0.9477734 0.2640231
0.9477734 0.2869653
0.9477734 0.2869653
0.9677265 0.2869653
0.9477734 0.2738555
0.9477734 0.2967977
0.9477734 0.2967977
0.9677265 0.2967977
0.9477734 0.2836878
0.9477734 0.3262948
0.9477734 0.3262948
0.9677265 0.3262948
0.9477734 0.313185
0.9477734 0.3983988
0.9477734 0.3983988
0.9677265 0.3983988
0.9477734 0.385289
0.9527617 0.8998497
0.9527617 0.8998497
0.9627382 0.8998497
0.9527617 0.8965723
0.9527617 0.08048552
0.9527617 0.08048552
0.9727148 0.08048552
0.9527617 0.07720806
0.9527617 0.30663
0.9527617 0.30663
0.9727148 0.30663
0.9527617 0.2935202
0.9527617 0.3164624
0.9527617 0.3164624
0.9727148 0.3164624
0.9527617 0.3033526
0.9627382 0.3623468
0.9627382 0.3623468
0.9727148 0.3623468
0.9627382 0.349237
0.9527617 0.4082312
0.9527617 0.4082312
0.9727148 0.4082312
0.9527617 0.3951214
0.9527617 0.4180636
0.9527617 0.4180636
0.9727148 0.4180636
0.9527617 0.4049537
0.9527617 0.427896
0.9527617 0.427896
0.9727148 0.427896
0.9527617 0.4147861
0.9627382 0.4836127
0.9627382 0.4836127
0.9727148 0.4836127
0.9627382 0.4770578
0.9677265 0.1296474
0.9677265 0.1296474
0.9727148 0.1296474
0.9677265 0.1230925
0.95775 0.2115838
0.95775 0.2115838
0.9677265 0.2115838
0.95775 0.2050289
0.95775 0.3361272
0.95775 0.3361272
0.9777031 0.3361272
0.95775 0.3230173
0.95775 0.3459595
0.95775 0.3459595
0.9727148 0.3459595
0.95775 0.3328497
0.9627382 0.5
0.9627382 0.5
0.9777031 0.5
0.9627382 0.4901676
0.9677265 0.8048035
0.9677265 0.8048035
0.9777031 0.8048035
0.9677265 0.7982486
0.9677265 0.922792
0.9677265 0.922792
0.9777031 0.922792
0.9677265 0.916237
0.9627382 0.3262948
0.9627382 0.3262948
0.9826913 0.3262948
0.9627382 0.313185
0.9677265 0.3721792
0.9677265 0.3721792
0.9826913 0.3721792
0.9677265 0.3590693
0.9627382 0.4377283
0.9627382 0.4377283
0.9826913 0.4377283
0.9627382 0.4246185
0.9727148 0.8474104
0.9727148 0.8474104
0.9777031 0.8474104
0.9727148 0.8474104
0.9777031 0.2443584
0.9777031 0.2443584
0.9826913 0.2443584
0.9777031 0.2378035
0.9677265 0.313185
0.9677265 0.313185
0.9876797 0.313185
0.9677265 0.3000751
0.9677265 0.3557919
0.9677265 0.3557919
0.9826913 0.3557919
0.9677265 0.3426821
0.9677265 0.4082312
0.9677265 0.4082312
0.9826913 0.4082312
0.9677265 0.3951214
0.9677265 0.4180636
0.9677265 0.4180636
0.9876797 0.4180636
0.9677265 0.4049537
0.9677265 0.427896
0.9677265 0.427896
0.9876797 0.427896
0.9677265 0.4147861
0.9777031 0.2607456
0.9777031 0.2607456
0.9876797 0.2607456
0.9777031 0.2476358
0.9777031 0.4475607
0.9777031 0.4475607
0.9926679 0.4475607
0.9777031 0.4344509
0.9727148 0.4901676
0.9727148 0.4901676
0.9876797 0.4901676
0.9727148 0.4836127
0.9826913 0.5098324
0.9826913 0.5098324
0.9926679 0.5098324
0.9826913 0.5065549
0.9826913 0.6442081
0.9826913 0.6442081
0.9826913 0.6442081
0.9826913 0.6442081
0.9727148 0.801526
0.9727148 0.801526
0.9926679 0.801526
0.9727148 0.7916937
0.9727148 0.9096821
0.9727148 0.9096821
0.9926679 0.9096821
0.9727148 0.9031272
0.9777031 0.3328497
0.9777031 0.3328497
0.9976562 0.3328497
0.9777031 0.3197399
0.9777031 0.3656243
0.9777031 0.3656243
0.9976562 0.3656243
0.9777031 0.3525144
0.9777031 0.3754566
0.9777031 0.3754566
0.9976562 0.3754566
0.9777031 0.3623468
0.9777031 0.4377283
0.9777031 0.4377283
0.9976562 0.4377283
0.9777031 0.4246185
0.9876797 0.2673005
0.9876797 0.2673005
0.9976562 0.2673005
0.9876797 0.2574682
0.9826913 0.4246185
0.9826913 0.4246185
1.002645 0.4246185
0.9826913 0.4115087
0.9826913 0.4573931
0.9826913 0.4573931
1.002645 0.4573931
0.9826913 0.4442832
0.9926679 0.8539653
0.9926679 0.8539653
1.002645 0.8539653
0.9926679 0.8474104
0.9976562 0.08376298
0.9976562 0.08376298
0.9976562 0.08376298
0.9976562 0.07720806
0.9976562 0.1001503
0.9976562 0.1001503
1.007633 0.1001503
0.9976562 0.09031789
0.9976562 0.1067052
0.9976562 0.1067052
1.007633 0.1067052
0.9976562 0.1001503
0.9926679 0.2804104
0.9926679 0.2804104
1.002645 0.2804104
0.9926679 0.2673005
0.9876797 0.3426821
0.9876797 0.3426821
1.007633 0.3426821
0.9876797 0.3295723
0.9976562 0.3525144
0.9976562 0.3525144
1.007633 0.3525144
0.9976562 0.3394046
0.9876797 0.385289
0.9876797 0.385289
1.007633 0.385289
0.9876797 0.3721792
0.9876797 0.4475607
0.9876797 0.4475607
1.007633 0.4475607
0.9876797 0.4344509
0.9926679 0.4672254
0.9926679 0.4672254
1.007633 0.4672254
0.9926679 0.4541156
0.9876797 0.916237
0.9876797 0.916237
1.007633 0.916237
0.9876797 0.9096821
0.9976562 0.1230925
0.9976562 0.1230925
1.012621 0.1230925
0.9976562 0.1099826
0.9926679 0.3623468
0.9926679 0.3623468
1.012621 0.3623468
0.9926679 0.349237
0.9926679 0.3721792
0.9926679 0.3721792
1.012621 0.3721792
0.9926679 0.3590693
1.002645 0.3951214
1.002645 0.3951214
1.012621 0.3951214
1.002645 0.3820116
0.9926679 0.4344509
0.9926679 0.4344509
1.012621 0.4344509
0.9926679 0.421341
0.9926679 0.8703526
0.9926679 0.8703526
1.012621 0.8703526
0.9926679 0.8572428
1.002645 0.8867399
1.002645 0.8867399
1.012621 0.8867399
1.002645 0.8736301
1.007633 0.1624219
1.007633 0.1624219
1.017609 0.1624219
1.007633 0.1525896
0.9976562 0.4573931
0.9976562 0.4573931
1.017609 0.4573931
0.9976562 0.4442832
1.007633 0.8506879
1.007633 0.8506879
1.017609 0.8506879
1.007633 0.8375781
1.012621 0.1296474
1.012621 0.1296474
1.022598 0.1296474
1.012621 0.119815
1.002645 0.3820116
1.002645 0.3820116
1.012621 0.3820116
1.002645 0.3689017
1.002645 0.4442832
1.002645 0.4442832
1.022598 0.4442832
1.002645 0.4311734
1.002645 0.4672254
1.002645 0.4672254
1.022598 0.4672254
1.002645 0.4541156
1.002645 0.4770578
1.002645 0.4770578
1.022598 0.4770578
1.002645 0.463948
1.002645 0.9129596
1.002645 0.9129596
1.022598 0.9129596
1.002645 0.9031272
1.017609 0.1427572
1.017609 0.1427572
1.027586 0.1427572
1.017609 0.1296474
1.012621 0.1493121
1.012621 0.1493121
1.027586 0.1493121
1.012621 0.1394797
1.017609 0.2967977
1.017609 0.2967977
1.022598 0.2967977
1.017609 0.2902428
1.017609 0.3099075
1.017609 0.3099075
1.027586 0.3099075
1.017609 0.3000751
1.007633 0.3918439
1.007633 0.3918439
1.017609 0.3918439
1.007633 0.3787341
1.007633 0.4016763
1.007633 0.4016763
1.017609 0.4016763
1.007633 0.3951214
1.007633 0.8834624
1.007633 0.8834624
1.027586 0.8834624
1.007633 0.8703526
1.012621 0.1624219
1.012621 0.1624219
1.032574 0.1624219
1.012621 0.1525896
1.012621 0.4541156
1.012621 0.4541156
1.027586 0.4541156
1.012621 0.4410058
1.012621 0.4868902
1.012621 0.4868902
1.032574 0.4868902
1.012621 0.4737803
1.022598 0.5426069
1.022598 0.5426069
1.022598 0.5426069
1.022598 0.5426069
1.012621 0.8998497
1.012621 0.8998497
1.032574 0.8998497
1.012621 0.8867399
1.017609 0.1230925
1.017609 0.1230925
1.032574 0.1230925
1.017609 0.1165375
1.027586 0.3426821
1.027586 0.3426821
1.037562 0.3426821
1.027586 0.3295723
1.017609 0.463948
1.017609 0.463948
1.037562 0.463948
1.017609 0.4508381
1.017609 0.4737803
1.017609 0.4737803
1.037562 0.4737803
1.017609 0.4606705
1.017609 0.8375781
1.017609 0.8375781
1.027586 0.8375781
1.017609 0.8343006
1.027586 0.8637977
1.027586 0.8637977
1.032574 0.8637977
1.027586 0.8572428
1.017609 0.9129596
1.017609 0.9129596
1.037562 0.9129596
1.017609 0.8998497
1.022598 0.1493121
1.022598 0.1493121
1.037562 0.1493121
1.022598 0.1394797
1.032574 0.3525144
1.032574 0.3525144
1.042551 0.3525144
1.032574 0.3394046
1.032574 0.3623468
1.032574 0.3623468
1.042551 0.3623468
1.032574 0.349237
1.032574 0.6442081
1.032574 0.6442081
1.037562 0.6442081
1.032574 0.6409307
1.022598 0.880185
1.022598 0.880185
1.042551 0.880185
1.022598 0.8670751
1.022598 0.8900174
1.022598 0.8900174
1.042551 0.8900174
1.022598 0.8769075
1.027586 0.1624219
1.027586 0.1624219
1.047539 0.1624219
1.027586 0.1493121
1.037562 0.2214162
1.037562 0.2214162
1.047539 0.2214162
1.037562 0.2083063
1.037562 0.2312485
1.037562 0.2312485
1.047539 0.2312485
1.037562 0.2181387
1.037562 0.2410809
1.037562 0.2410809
1.047539 0.2410809
1.037562 0.2279711
1.027586 0.4836127
1.027586 0.4836127
1.047539 0.4836127
1.027586 0.4705029
1.027586 0.4934451
1.027586 0.4934451
1.047539 0.4934451
1.027586 0.4803353
1.027586 0.922792
1.027586 0.922792
1.047539 0.922792
1.027586 0.916237
1.037562 0.1722543
1.037562 0.1722543
1.052527 0.1722543
1.037562 0.1656994
1.042551 0.2509133
1.042551 0.2509133
1.052527 0.2509133
1.042551 0.2378035
1.032574 0.3426821
1.032574 0.3426821
1.047539 0.3426821
1.032574 0.3295723
1.032574 0.3721792
1.032574 0.3721792
1.052527 0.3721792
1.032574 0.3590693
1.037562 0.5032774
1.037562 0.5032774
1.052527 0.5032774
1.037562 0.4901676
1.032574 0.9064047
1.032574 0.9064047
1.052527 0.9064047
1.032574 0.8965723
1.037562 0.3525144
1.037562 0.3525144
1.052527 0.3525144
1.037562 0.3394046
1.037562 0.3623468
1.037562 0.3623468
1.057516 0.3623468
1.037562 0.349237
1.042551 0.3820116
1.042551 0.3820116
1.057516 0.3820116
1.042551 0.3689017
1.047539 0.5426069
1.047539 0.5426069
1.047539 0.5426069
1.047539 0.5426069
1.047539 0.7753064
1.047539 0.7753064
1.052527 0.7753064
1.047539 0.7753064
1.047539 0.844133
1.047539 0.844133
1.057516 0.844133
1.047539 0.8375781
1.037562 0.8703526
1.037562 0.8703526
1.057516 0.8703526
1.037562 0.8637977
1.037562 0.8867399
1.037562 0.8867399
1.057516 0.8867399
1.037562 0.8736301
1.042551 0.155867
1.042551 0.155867
1.062504 0.155867
1.042551 0.1460347
1.042551 0.2083063
1.042551 0.2083063
1.062504 0.2083063
1.042551 0.198474
1.042551 0.2214162
1.042551 0.2214162
1.062504 0.2214162
1.042551 0.2083063
1.042551 0.2312485
1.042551 0.2312485
1.062504 0.2312485
1.042551 0.2181387
1.042551 0.2410809
1.042551 0.2410809
1.062504 0.2410809
1.042551 0.2279711
1.047539 0.2607456
1.047539 0.2607456
1.062504 0.2607456
1.047539 0.2476358
1.047539 0.3918439
1.047539 0.3918439
1.062504 0.3918439
1.047539 0.3787341
1.042551 0.4770578
1.042551 0.4770578
1.057516 0.4770578
1.042551 0.4672254
1.042551 0.4901676
1.042551 0.4901676
1.062504 0.4901676
1.042551 0.4770578
1.047539 0.8605202
1.047539 0.8605202
1.062504 0.8605202
1.047539 0.8506879
1.042551 0.9195145
1.042551 0.9195145
1.052527 0.9195145
1.042551 0.9096821
1.047539 0.1689769
1.047539 0.1689769
1.067492 0.1689769
1.047539 0.1591445
1.047539 0.2509133
1.047539 0.2509133
1.067492 0.2509133
1.047539 0.2378035
1.052527 0.270578
1.052527 0.270578
1.067492 0.270578
1.052527 0.2574682
1.047539 0.3721792
1.047539 0.3721792
1.067492 0.3721792
1.047539 0.3590693
1.052527 0.4016763
1.052527 0.4016763
1.067492 0.4016763
1.052527 0.3885665
1.057516 0.4147861
1.057516 0.4147861
1.067492 0.4147861
1.057516 0.4016763
1.047539 0.5
1.047539 0.5
1.067492 0.5
1.047539 0.4868902
1.047539 0.5098324
1.047539 0.5098324
1.067492 0.5098324
1.047539 0.5
1.047539 0.8965723
1.047539 0.8965723
1.067492 0.8965723
1.047539 0.8900174
1.057516 0.2804104
1.057516 0.2804104
1.07248 0.2804104
1.057516 0.2673005
1.052527 0.3820116
1.052527 0.3820116
1.07248 0.3820116
1.052527 0.3689017
1.062504 0.6114335
1.062504 0.6114335
1.062504 0.6114335
1.062504 0.6114335
1.052527 0.8769075
1.052527 0.8769075
1.067492 0.8769075
1.052527 0.8670751
1.052527 0.8900174
1.052527 0.8900174
1.07248 0.8900174
1.052527 0.8769075
1.057516 0.1525896
1.057516 0.1525896
1.077469 0.1525896
1.057516 0.1394797
1.057516 0.2050289
1.057516 0.2050289
1.077469 0.2050289
1.057516 0.1919191
1.057516 0.2148613
1.057516 0.2148613
1.077469 0.2148613
1.057516 0.2017514
1.057516 0.2246936
1.057516 0.2246936
1.077469 0.2246936
1.057516 0.2115838
1.057516 0.234526
1.057516 0.234526
1.077469 0.234526
1.057516 0.2214162
1.057516 0.2607456
1.057516 0.2607456
1.077469 0.2607456
1.057516 0.2476358
1.057516 0.3918439
1.057516 0.3918439
1.077469 0.3918439
1.057516 0.3787341
1.067492 0.8343006
1.067492 0.8343006
1.077469 0.8343006
1.067492 0.8310232
1.057516 0.8637977
1.057516 0.8637977
1.067492 0.8637977
1.057516 0.8572428
1.062504 0.1624219
1.062504 0.1624219
1.07248 0.1624219
1.062504 0.1493121
1.062504 0.2443584
1.062504 0.2443584
1.082457 0.2443584
1.062504 0.2312485
1.062504 0.270578
1.062504 0.270578
1.082457 0.270578
1.062504 0.2574682
1.067492 0.2902428
1.067492 0.2902428
1.082457 0.2902428
1.067492 0.2771329
1.062504 0.4016763
1.062504 0.4016763
1.082457 0.4016763
1.062504 0.3885665
1.062504 0.4115087
1.062504 0.4115087
1.082457 0.4115087
1.062504 0.3983988
1.062504 0.421341
1.062504 0.421341
1.082457 0.421341
1.062504 0.4082312
1.07248 0.4311734
1.07248 0.4311734
1.082457 0.4311734
1.07248 0.4180636
1.062504 0.4967225
1.062504 0.4967225
1.082457 0.4967225
1.062504 0.4836127
1.062504 0.5065549
1.062504 0.5065549
1.082457 0.5065549
1.062504 0.4934451
1.07248 0.808081
1.07248 0.808081
1.082457 0.808081
1.07248 0.7982486
1.062504 0.8998497
1.062504 0.8998497
1.082457 0.8998497
1.062504 0.8867399
1.062504 0.9096821
1.062504 0.9096821
1.082457 0.9096821
1.062504 0.8998497
1.07248 0.1951965
1.07248 0.1951965
1.087445 0.1951965
1.07248 0.1820867
1.067492 0.2804104
1.067492 0.2804104
1.087445 0.2804104
1.067492 0.2673005
1.077469 0.7785838
1.077469 0.7785838
1.082457 0.7785838
1.077469 0.7753064
1.07248 0.1394797
1.07248 0.1394797
1.092434 0.1394797
1.07248 0.1263699
1.082457 0.1755318
1.082457 0.1755318
1.092434 0.1755318
1.082457 0.1656994
1.07248 0.2050289
1.07248 0.2050289
1.092434 0.2050289
1.07248 0.1919191
1.07248 0.2148613
1.07248 0.2148613
1.092434 0.2148613
1.07248 0.2017514
1.07248 0.2246936
1.07248 0.2246936
1.092434 0.2246936
1.07248 0.2115838
1.07248 0.234526
1.07248 0.234526
1.092434 0.234526
1.07248 0.2214162
1.07248 0.2541907
1.07248 0.2541907
1.092434 0.2541907
1.07248 0.2410809
1.077469 0.3000751
1.077469 0.3000751
1.092434 0.3000751
1.077469 0.2869653
1.077469 0.4410058
1.077469 0.4410058
1.092434 0.4410058
1.077469 0.427896
1.082457 0.4573931
1.082457 0.4573931
1.092434 0.4573931
1.082457 0.4442832
1.082457 0.5426069
1.082457 0.5426069
1.092434 0.5426069
1.082457 0.536052
1.082457 0.7458093
1.082457 0.7458093
1.092434 0.7458093
1.082457 0.7425318
1.07248 0.8343006
1.07248 0.8343006
1.092434 0.8343006
1.07248 0.8277457
1.07248 0.8834624
1.07248 0.8834624
1.092434 0.8834624
1.07248 0.8769075
1.077469 0.1493121
1.077469 0.1493121
1.097422 0.1493121
1.077469 0.1362023
1.077469 0.2443584
1.077469 0.2443584
1.097422 0.2443584
1.077469 0.2312485
1.077469 0.2640231
1.077469 0.2640231
1.097422 0.2640231
1.077469 0.2509133
1.077469 0.2902428
1.077469 0.2902428
1.097422 0.2902428
1.077469 0.2771329
1.082457 0.3099075
1.082457 0.3099075
1.097422 0.3099075
1.082457 0.2967977
1.077469 0.4901676
1.077469 0.4901676
1.097422 0.4901676
1.077469 0.4836127
1.077469 0.5065549
1.077469 0.5065549
1.097422 0.5065549
1.077469 0.4934451
1.082457 0.5589942
1.082457 0.5589942
1.092434 0.5589942
1.082457 0.5524393
1.087445 0.7621965
1.087445 0.7621965
1.092434 0.7621965
1.087445 0.7556416
1.077469 0.801526
1.077469 0.801526
1.097422 0.801526
1.077469 0.7884162
1.077469 0.8998497
1.077469 0.8998497
1.097422 0.8998497
1.077469 0.8867399
1.077469 0.9096821
1.077469 0.9096821
1.092434 0.9096821
1.077469 0.8965723
1.077469 0.9195145
1.077469 0.9195145
1.092434 0.9195145
1.077469 0.9096821
1.092434 0.1689769
1.092434 0.1689769
1.10241 0.1689769
1.092434 0.155867
1.082457 0.1886416
1.082457 0.1886416
1.10241 0.1886416
1.082457 0.1755318
1.082457 0.2738555
1.082457 0.2738555
1.10241 0.2738555
1.082457 0.2607456
1.087445 0.3197399
1.087445 0.3197399
1.10241 0.3197399
1.087445 0.30663
1.087445 0.4672254
1.087445 0.4672254
1.10241 0.4672254
1.087445 0.4541156
1.092434 0.4770578
1.092434 0.4770578
1.10241 0.4770578
1.092434 0.463948
1.087445 0.1230925
1.087445 0.1230925
1.107398 0.1230925
1.087445 0.1165375
1.087445 0.1394797
1.087445 0.1394797
1.107398 0.1394797
1.087445 0.1263699
1.097422 0.1591445
1.097422 0.1591445
1.107398 0.1591445
1.097422 0.1460347
1.087445 0.1788092
1.087445 0.1788092
1.107398 0.1788092
1.087445 0.1656994
1.087445 0.198474
1.087445 0.198474
1.107398 0.198474
1.087445 0.1853641
1.087445 0.2083063
1.087445 0.2083063
1.107398 0.2083063
1.087445 0.1951965
1.087445 0.2181387
1.087445 0.2181387
1.107398 0.2181387
1.087445 0.2050289
1.087445 0.2279711
1.087445 0.2279711
1.107398 0.2279711
1.087445 0.2148613
1.087445 0.2541907
1.087445 0.2541907
1.107398 0.2541907
1.087445 0.2410809
1.087445 0.3000751
1.087445 0.3000751
1.107398 0.3000751
1.087445 0.2869653
1.087445 0.4442832
1.087445 0.4442832
1.097422 0.4442832
1.087445 0.4311734
1.087445 0.4541156
1.087445 0.4541156
1.107398 0.4541156
1.087445 0.4410058
1.087445 0.880185
1.087445 0.880185
1.107398 0.880185
1.087445 0.8736301
1.10241 0.1001503
1.10241 0.1001503
1.112387 0.1001503
1.10241 0.09031789
1.092434 0.1493121
1.092434 0.1493121
1.112387 0.1493121
1.092434 0.1362023
1.092434 0.2378035
1.092434 0.2378035
1.112387 0.2378035
1.092434 0.2246936
1.092434 0.2640231
1.092434 0.2640231
1.112387 0.2640231
1.092434 0.2509133
1.092434 0.2836878
1.092434 0.2836878
1.112387 0.2836878
1.092434 0.270578
1.092434 0.3099075
1.092434 0.3099075
1.112387 0.3099075
1.092434 0.2967977
1.097422 0.3295723
1.097422 0.3295723
1.112387 0.3295723
1.097422 0.3164624
1.097422 0.4868902
1.097422 0.4868902
1.112387 0.4868902
1.097422 0.4737803
1.092434 0.4967225
1.092434 0.4967225
1.112387 0.4967225
1.092434 0.4836127
1.092434 0.7556416
1.092434 0.7556416
1.112387 0.7556416
1.092434 0.7458093
1.092434 0.801526
1.092434 0.801526
1.112387 0.801526
1.092434 0.7916937
1.092434 0.8343006
1.092434 0.8343006
1.112387 0.8343006
1.092434 0.8277457
1.097422 0.1689769
1.097422 0.1689769
1.117375 0.1689769
1.097422 0.155867
1.097422 0.1886416
1.097422 0.1886416
1.117375 0.1886416
1.097422 0.1755318
1.097422 0.2738555
1.097422 0.2738555
1.117375 0.2738555
1.097422 0.2607456
1.097422 0.3197399
1.097422 0.3197399
1.117375 0.3197399
1.097422 0.30663
1.097422 0.463948
1.097422 0.463948
1.117375 0.463948
1.097422 0.4508381
1.097422 0.4737803
1.097422 0.4737803
1.117375 0.4737803
1.097422 0.4606705
1.097422 0.7818613
1.097422 0.7818613
1.112387 0.7818613
1.097422 0.7753064
1.10241 0.1263699
1.10241 0.1263699
1.122363 0.1263699
1.10241 0.119815
1.10241 0.1591445
1.10241 0.1591445
1.122363 0.1591445
1.10241 0.1460347
1.10241 0.1788092
1.10241 0.1788092
1.122363 0.1788092
1.10241 0.1656994
1.10241 0.198474
1.10241 0.198474
1.122363 0.198474
1.10241 0.1853641
1.10241 0.2083063
1.10241 0.2083063
1.122363 0.2083063
1.10241 0.1951965
1.10241 0.2181387
1.10241 0.2181387
1.122363 0.2181387
1.10241 0.2050289
1.10241 0.2279711
1.10241 0.2279711
1.122363 0.2279711
1.10241 0.2148613
1.10241 0.2476358
1.10241 0.2476358
1.122363 0.2476358
1.10241 0.234526
1.10241 0.2935202
1.10241 0.2935202
1.122363 0.2935202
1.10241 0.2804104
1.107398 0.3394046
1.107398 0.3394046
1.122363 0.3394046
1.107398 0.3262948
1.10241 0.8769075
1.10241 0.8769075
1.122363 0.8769075
1.10241 0.8703526
1.10241 0.8932948
1.10241 0.8932948
1.122363 0.8932948
1.10241 0.8867399
1.107398 0.09359535
1.107398 0.09359535
1.127352 0.09359535
1.107398 0.08048552
1.107398 0.1034277
1.107398 0.1034277
1.127352 0.1034277
1.107398 0.09031789
1.107398 0.1427572
1.107398 0.1427572
1.127352 0.1427572
1.107398 0.1296474
1.107398 0.2378035
1.107398 0.2378035
1.127352 0.2378035
1.107398 0.2246936
1.107398 0.2574682
1.107398 0.2574682
1.127352 0.2574682
1.107398 0.2443584
1.107398 0.2836878
1.107398 0.2836878
1.127352 0.2836878
1.107398 0.270578
1.107398 0.3033526
1.107398 0.3033526
1.127352 0.3033526
1.107398 0.2902428
1.107398 0.3295723
1.107398 0.3295723
1.127352 0.3295723
1.107398 0.3164624
1.112387 0.349237
1.112387 0.349237
1.127352 0.349237
1.112387 0.3361272
1.107398 0.4836127
1.107398 0.4836127
1.127352 0.4836127
1.107398 0.4705029
1.107398 0.4934451
1.107398 0.4934451
1.127352 0.4934451
1.107398 0.4803353
1.107398 0.7490867
1.107398 0.7490867
1.117375 0.7490867
1.107398 0.7425318
1.107398 0.7982486
1.107398 0.7982486
1.117375 0.7982486
1.107398 0.7982486
1.107398 0.8310232
1.107398 0.8310232
1.127352 0.8310232
1.107398 0.8244683
1.112387 0.1689769
1.112387 0.1689769
1.13234 0.1689769
1.112387 0.155867
1.112387 0.1886416
1.112387 0.1886416
1.13234 0.1886416
1.112387 0.1755318
1.112387 0.2673005
1.112387 0.2673005
1.13234 0.2673005
1.112387 0.2541907
1.112387 0.313185
1.112387 0.313185
1.13234 0.313185
1.112387 0.3000751
1.117375 0.3590693
1.117375 0.3590693
1.13234 0.3590693
1.117375 0.3459595
1.122363 0.5884913
1.122363 0.5884913
1.122363 0.5884913
1.122363 0.5884913
1.112387 0.7818613
1.112387 0.7818613
1.13234 0.7818613
1.112387 0.7753064
1.117375 0.1263699
1.117375 0.1263699
1.137328 0.1263699
1.117375 0.119815
1.117375 0.1525896
1.117375 0.1525896
1.137328 0.1525896
1.117375 0.1394797
1.117375 0.1788092
1.117375 0.1788092
1.137328 0.1788092
1.117375 0.1656994
1.117375 0.198474
1.117375 0.198474
1.137328 0.198474
1.117375 0.1853641
1.117375 0.2083063
1.117375 0.2083063
1.137328 0.2083063
1.117375 0.1951965
1.117375 0.2181387
1.117375 0.2181387
1.137328 0.2181387
1.117375 0.2050289
1.117375 0.2279711
1.117375 0.2279711
1.137328 0.2279711
1.117375 0.2148613
1.117375 0.2476358
1.117375 0.2476358
1.137328 0.2476358
1.117375 0.234526
1.117375 0.2935202
1.117375 0.2935202
1.137328 0.2935202
1.117375 0.2804104
1.117375 0.3394046
1.117375 0.3394046
1.137328 0.3394046
1.117375 0.3262948
1.127352 0.5983237
1.127352 0.5983237
1.13234 0.5983237
1.127352 0.5950462
1.127352 0.7064798
1.127352 0.7064798
1.137328 0.7064798
1.127352 0.6966474
1.117375 0.8834624
1.117375 0.8834624
1.137328 0.8834624
1.117375 0.8736301
1.127352 0.9195145
1.127352 0.9195145
1.137328 0.9195145
1.127352 0.916237
1.122363 0.08048552
1.122363 0.08048552
1.142316 0.08048552
1.122363 0.07393061
1.122363 0.09687281
1.122363 0.09687281
1.142316 0.09687281
1.122363 0.08376298
1.122363 0.1067052
1.122363 0.1067052
1.142316 0.1067052
1.122363 0.09359535
1.122363 0.1427572
1.122363 0.1427572
1.142316 0.1427572
1.122363 0.1296474
1.122363 0.2378035
1.122363 0.2378035
1.142316 0.2378035
1.122363 0.2246936
1.122363 0.2574682
1.122363 0.2574682
1.142316 0.2574682
1.122363 0.2443584
1.122363 0.2771329
1.122363 0.2771329
1.142316 0.2771329
1.122363 0.2640231
1.122363 0.3033526
1.122363 0.3033526
1.142316 0.3033526
1.122363 0.2902428
1.122363 0.3230173
1.122363 0.3230173
1.142316 0.3230173
1.122363 0.3099075
1.122363 0.349237
1.122363 0.349237
1.142316 0.349237
1.122363 0.3361272
1.122363 0.3689017
1.122363 0.3689017
1.142316 0.3689017
1.122363 0.3557919
1.13234 0.4344509
1.13234 0.4344509
1.13234 0.4344509
1.13234 0.4344509
1.122363 0.4836127
1.122363 0.4836127
1.137328 0.4836127
1.122363 0.4705029
1.122363 0.4934451
1.122363 0.4934451
1.142316 0.4934451
1.122363 0.4836127
1.122363 0.7982486
1.122363 0.7982486
1.142316 0.7982486
1.122363 0.7884162
1.122363 0.8310232
1.122363 0.8310232
1.142316 0.8310232
1.122363 0.8244683
1.127352 0.1624219
1.127352 0.1624219
1.147305 0.1624219
1.127352 0.1493121
1.127352 0.1886416
1.127352 0.1886416
1.147305 0.1886416
1.127352 0.1755318
1.127352 0.2673005
1.127352 0.2673005
1.147305 0.2673005
1.127352 0.2541907
1.127352 0.313185
1.127352 0.313185
1.147305 0.313185
1.127352 0.3000751
1.127352 0.3590693
1.127352 0.3590693
1.147305 0.3590693
1.127352 0.3459595
1.13234 0.3787341
1.13234 0.3787341
1.147305 0.3787341
1.13234 0.3656243
1.137328 0.6474856
1.137328 0.6474856
1.147305 0.6474856
1.137328 0.6409307
1.13234 0.1525896
1.13234 0.1525896
1.152293 0.1525896
1.13234 0.1394797
1.13234 0.1722543
1.13234 0.1722543
1.152293 0.1722543
1.13234 0.1591445
1.13234 0.198474
1.13234 0.198474
1.152293 0.198474
1.13234 0.1853641
1.13234 0.2083063
1.13234 0.2083063
1.152293 0.2083063
1.13234 0.1951965
1.13234 0.2181387
1.13234 0.2181387
1.152293 0.2181387
1.13234 0.2050289
1.13234 0.2279711
1.13234 0.2279711
1.152293 0.2279711
1.13234 0.2148613
1.13234 0.2476358
1.13234 0.2476358
1.152293 0.2476358
1.13234 0.234526
1.13234 0.2869653
1.13234 0.2869653
1.152293 0.2869653
1.13234 0.2738555
1.13234 0.3328497
1.13234 0.3328497
1.152293 0.3328497
1.13234 0.3197399
1.142316 0.6671503
1.142316 0.6671503
1.142316 0.6671503
1.142316 0.6671503
1.142316 0.6835376
1.142316 0.6835376
1.152293 0.6835376
1.142316 0.6769826
1.13234 0.6999249
1.13234 0.6999249
1.152293 0.6999249
1.13234 0.686815
1.142316 0.7720289
1.142316 0.7720289
1.152293 0.7720289
1.142316 0.765474
1.13234 0.880185
1.13234 0.880185
1.152293 0.880185
1.13234 0.8703526
1.13234 0.9096821
1.13234 0.9096821
1.152293 0.9096821
1.13234 0.9031272
1.137328 0.08048552
1.137328 0.08048552
1.147305 0.08048552
1.137328 0.07393061
1.137328 0.09687281
1.137328 0.09687281
1.157281 0.09687281
1.137328 0.08376298
1.137328 0.1067052
1.137328 0.1067052
1.157281 0.1067052
1.137328 0.09359535
1.137328 0.1165375
1.137328 0.1165375
1.157281 0.1165375
1.137328 0.1034277
1.137328 0.1427572
1.137328 0.1427572
1.152293 0.1427572
1.137328 0.1296474
1.137328 0.2378035
1.137328 0.2378035
1.157281 0.2378035
1.137328 0.2246936
1.137328 0.2574682
1.137328 0.2574682
1.157281 0.2574682
1.137328 0.2443584
1.137328 0.2771329
1.137328 0.2771329
1.157281 0.2771329
1.137328 0.2640231
1.137328 0.2967977
1.137328 0.2967977
1.157281 0.2967977
1.137328 0.2836878
1.137328 0.3230173
1.137328 0.3230173
1.157281 0.3230173
1.137328 0.3099075
1.137328 0.3426821
1.137328 0.3426821
1.157281 0.3426821
1.137328 0.3295723
1.137328 0.3689017
1.137328 0.3689017
1.157281 0.3689017
1.137328 0.3557919
1.137328 0.4934451
1.137328 0.4934451
1.147305 0.4934451
1.137328 0.4868902
1.142316 0.6376532
1.142316 0.6376532
1.157281 0.6376532
1.142316 0.6245434
1.137328 0.8310232
1.137328 0.8310232
1.157281 0.8310232
1.137328 0.8244683
1.142316 0.1624219
1.142316 0.1624219
1.162269 0.1624219
1.142316 0.1493121
1.142316 0.1820867
1.142316 0.1820867
1.162269 0.1820867
1.142316 0.1689769
1.142316 0.2673005
1.142316 0.2673005
1.162269 0.2673005
1.142316 0.2541907
1.142316 0.30663
1.142316 0.30663
1.162269 0.30663
1.142316 0.2935202
1.142316 0.3525144
1.142316 0.3525144
1.162269 0.3525144
1.142316 0.3394046
1.142316 0.3787341
1.142316 0.3787341
1.162269 0.3787341
1.142316 0.3656243
1.142316 0.3885665
1.142316 0.3885665
1.162269 0.3885665
1.142316 0.3754566
1.142316 0.6474856
1.142316 0.6474856
1.162269 0.6474856
1.142316 0.6343758
1.152293 0.7392544
1.152293 0.7392544
1.152293 0.7392544
1.152293 0.7359769
1.147305 0.1525896
1.147305 0.1525896
1.162269 0.1525896
1.147305 0.1394797
1.147305 0.1722543
1.147305 0.1722543
1.167258 0.1722543
1.147305 0.1591445
1.147305 0.1919191
1.147305 0.1919191
1.167258 0.1919191
1.147305 0.1788092
1.147305 0.2017514
1.147305 0.2017514
1.167258 0.2017514
1.147305 0.1886416
1.147305 0.2115838
1.147305 0.2115838
1.167258 0.2115838
1.147305 0.198474
1.147305 0.2214162
1.147305 0.2214162
1.167258 0.2214162
1.147305 0.2083063
1.147305 0.2476358
1.147305 0.2476358
1.167258 0.2476358
1.147305 0.234526
1.147305 0.2869653
1.147305 0.2869653
1.167258 0.2869653
1.147305 0.2738555
1.147305 0.3328497
1.147305 0.3328497
1.167258 0.3328497
1.147305 0.3197399
1.157281 0.6179885
1.157281 0.6179885
1.167258 0.6179885
1.157281 0.6081561
1.157281 0.6573179
1.157281 0.6573179
1.167258 0.6573179
1.157281 0.650763
1.147305 0.6900925
1.147305 0.6900925
1.167258 0.6900925
1.147305 0.6769826
1.147305 0.6999249
1.147305 0.6999249
1.167258 0.6999249
1.147305 0.6900925
1.147305 0.7785838
1.147305 0.7785838
1.167258 0.7785838
1.147305 0.765474
1.147305 0.7884162
1.147305 0.7884162
1.167258 0.7884162
1.147305 0.7753064
1.147305 0.880185
1.147305 0.880185
1.167258 0.880185
1.147305 0.8703526
1.147305 0.916237
1.147305 0.916237
1.167258 0.916237
1.147305 0.9031272
1.152293 0.09687281
1.152293 0.09687281
1.172246 0.09687281
1.152293 0.08704044
1.152293 0.1099826
1.152293 0.1099826
1.172246 0.1099826
1.152293 0.09687281
1.152293 0.119815
1.152293 0.119815
1.172246 0.119815
1.152293 0.1067052
1.152293 0.2312485
1.152293 0.2312485
1.172246 0.2312485
1.152293 0.2181387
1.152293 0.2574682
1.152293 0.2574682
1.172246 0.2574682
1.152293 0.2443584
1.152293 0.2771329
1.152293 0.2771329
1.172246 0.2771329
1.152293 0.2640231
1.152293 0.2967977
1.152293 0.2967977
1.172246 0.2967977
1.152293 0.2836878
1.152293 0.3164624
1.152293 0.3164624
1.172246 0.3164624
1.152293 0.3033526
1.152293 0.3426821
1.152293 0.3426821
1.172246 0.3426821
1.152293 0.3295723
1.152293 0.3623468
1.152293 0.3623468
1.172246 0.3623468
1.152293 0.349237
1.162269 0.3983988
1.162269 0.3983988
1.172246 0.3983988
1.162269 0.385289
1.162269 0.4410058
1.162269 0.4410058
1.167258 0.4410058
1.162269 0.4344509
1.162269 0.5032774
1.162269 0.5032774
1.172246 0.5032774
1.162269 0.4967225
1.152293 0.6310983
1.152293 0.6310983
1.172246 0.6310983
1.152293 0.6179885
1.157281 0.1624219
1.157281 0.1624219
1.177234 0.1624219
1.157281 0.1493121
1.157281 0.1820867
1.157281 0.1820867
1.177234 0.1820867
1.157281 0.1689769
1.157281 0.2673005
1.157281 0.2673005
1.177234 0.2673005
1.157281 0.2541907
1.157281 0.30663
1.157281 0.30663
1.177234 0.30663
1.157281 0.2935202
1.157281 0.3525144
1.157281 0.3525144
1.177234 0.3525144
1.157281 0.3394046
1.157281 0.3721792
1.157281 0.3721792
1.177234 0.3721792
1.157281 0.3590693
1.157281 0.3820116
1.157281 0.3820116
1.177234 0.3820116
1.157281 0.3689017
1.157281 0.6409307
1.157281 0.6409307
1.177234 0.6409307
1.157281 0.6278208
1.157281 0.844133
1.157281 0.844133
1.177234 0.844133
1.157281 0.8310232
1.167258 0.8932948
1.167258 0.8932948
1.177234 0.8932948
1.167258 0.8867399
1.162269 0.1722543
1.162269 0.1722543
1.182223 0.1722543
1.162269 0.1591445
1.162269 0.1919191
1.162269 0.1919191
1.182223 0.1919191
1.162269 0.1788092
1.162269 0.2017514
1.162269 0.2017514
1.182223 0.2017514
1.162269 0.1886416
1.162269 0.2115838
1.162269 0.2115838
1.182223 0.2115838
1.162269 0.198474
1.162269 0.2214162
1.162269 0.2214162
1.182223 0.2214162
1.162269 0.2083063
1.162269 0.2410809
1.162269 0.2410809
1.182223 0.2410809
1.162269 0.2279711
1.162269 0.2869653
1.162269 0.2869653
1.182223 0.2869653
1.162269 0.2738555
1.162269 0.3262948
1.162269 0.3262948
1.182223 0.3262948
1.162269 0.313185
1.172246 0.4508381
1.172246 0.4508381
1.177234 0.4508381
1.172246 0.4475607
1.172246 0.5819364
1.172246 0.5819364
1.182223 0.5819364
1.172246 0.5753815
1.162269 0.6179885
1.162269 0.6179885
1.177234 0.6179885
1.162269 0.6081561
1.162269 0.6769826
1.162269 0.6769826
1.177234 0.6769826
1.162269 0.6704277
1.162269 0.6933699
1.162269 0.6933699
1.182223 0.6933699
1.162269 0.6802601
1.162269 0.7032023
1.162269 0.7032023
1.182223 0.7032023
1.162269 0.6900925
1.172246 0.7392544
1.172246 0.7392544
1.182223 0.7392544
1.172246 0.7261446
1.162269 0.7720289
1.162269 0.7720289
1.182223 0.7720289
1.162269 0.7589191
1.162269 0.7818613
1.162269 0.7818613
1.182223 0.7818613
1.162269 0.7687514
1.162269 0.7916937
1.162269 0.7916937
1.177234 0.7916937
1.162269 0.7818613
1.162269 0.880185
1.162269 0.880185
1.182223 0.880185
1.162269 0.8703526
1.162269 0.9031272
1.162269 0.9031272
1.182223 0.9031272
1.162269 0.8965723
1.162269 0.9195145
1.162269 0.9195145
1.182223 0.9195145
1.162269 0.9096821
1.167258 0.09687281
1.167258 0.09687281
1.187211 0.09687281
1.167258 0.08376298
1.167258 0.1067052
1.167258 0.1067052
1.187211 0.1067052
1.167258 0.09359535
1.167258 0.1165375
1.167258 0.1165375
1.187211 0.1165375
1.167258 0.1034277
1.167258 0.1263699
1.167258 0.1263699
1.187211 0.1263699
1.167258 0.1165375
1.167258 0.2312485
1.167258 0.2312485
1.187211 0.2312485
1.167258 0.2181387
1.167258 0.2509133
1.167258 0.2509133
1.187211 0.2509133
1.167258 0.2378035
1.167258 0.2771329
1.167258 0.2771329
1.187211 0.2771329
1.167258 0.2640231
1.167258 0.2967977
1.167258 0.2967977
1.187211 0.2967977
1.167258 0.2836878
1.167258 0.3164624
1.167258 0.3164624
1.187211 0.3164624
1.167258 0.3033526
1.167258 0.3361272
1.167258 0.3361272
1.187211 0.3361272
1.167258 0.3230173
1.167258 0.3623468
1.167258 0.3623468
1.187211 0.3623468
1.167258 0.349237
1.167258 0.3918439
1.167258 0.3918439
1.187211 0.3918439
1.167258 0.3787341
1.167258 0.4016763
1.167258 0.4016763
1.187211 0.4016763
1.167258 0.3885665
1.177234 0.7130347
1.177234 0.7130347
1.187211 0.7130347
1.177234 0.7064798
1.177234 0.7490867
1.177234 0.7490867
1.187211 0.7490867
1.177234 0.7425318
1.172246 0.1820867
1.172246 0.1820867
1.192199 0.1820867
1.172246 0.1689769
1.172246 0.2607456
1.172246 0.2607456
1.187211 0.2607456
1.172246 0.2476358
1.172246 0.30663
1.172246 0.30663
1.187211 0.30663
1.172246 0.2935202
1.172246 0.3459595
1.172246 0.3459595
1.192199 0.3459595
1.172246 0.3328497
1.172246 0.3721792
1.172246 0.3721792
1.192199 0.3721792
1.172246 0.3590693
1.172246 0.3820116
1.172246 0.3820116
1.192199 0.3820116
1.172246 0.3689017
1.182223 0.427896
1.182223 0.427896
1.192199 0.427896
1.182223 0.421341
1.182223 0.4901676
1.182223 0.4901676
1.192199 0.4901676
1.182223 0.4803353
1.177234 0.5983237
1.177234 0.5983237
1.192199 0.5983237
1.177234 0.5852139
1.172246 0.6310983
1.172246 0.6310983
1.192199 0.6310983
1.172246 0.6179885
1.182223 0.6605954
1.182223 0.6605954
1.192199 0.6605954
1.182223 0.650763
1.172246 0.844133
1.172246 0.844133
1.192199 0.844133
1.172246 0.8343006
1.172246 0.8932948
1.172246 0.8932948
1.192199 0.8932948
1.172246 0.880185
1.187211 0.08048552
1.187211 0.08048552
1.197187 0.08048552
1.187211 0.07393061
1.177234 0.1656994
1.177234 0.1656994
1.197187 0.1656994
1.177234 0.155867
1.177234 0.1919191
1.177234 0.1919191
1.197187 0.1919191
1.177234 0.1788092
1.177234 0.2017514
1.177234 0.2017514
1.192199 0.2017514
1.177234 0.1886416
1.177234 0.2115838
1.177234 0.2115838
1.192199 0.2115838
1.177234 0.198474
1.177234 0.2214162
1.177234 0.2214162
1.192199 0.2214162
1.177234 0.2083063
1.177234 0.2410809
1.177234 0.2410809
1.197187 0.2410809
1.177234 0.2279711
1.177234 0.2869653
1.177234 0.2869653
1.197187 0.2869653
1.177234 0.2738555
1.177234 0.3262948
1.177234 0.3262948
1.192199 0.3262948
1.177234 0.313185
1.177234 0.5852139
1.177234 0.5852139
1.197187 0.5852139
1.177234 0.572104
1.177234 0.6409307
1.177234 0.6409307
1.197187 0.6409307
1.177234 0.6278208
1.182223 0.6737052
1.182223 0.6737052
1.197187 0.6737052
1.182223 0.6605954
1.177234 0.6933699
1.177234 0.6933699
1.197187 0.6933699
1.177234 0.6802601
1.177234 0.7032023
1.177234 0.7032023
1.197187 0.7032023
1.177234 0.6900925
1.182223 0.7261446
1.182223 0.7261446
1.197187 0.7261446
1.182223 0.7130347
1.177234 0.7359769
1.177234 0.7359769
1.197187 0.7359769
1.177234 0.7228671
1.177234 0.765474
1.177234 0.765474
1.197187 0.765474
1.177234 0.7523642
1.177234 0.880185
1.177234 0.880185
1.197187 0.880185
1.177234 0.8670751
1.177234 0.9064047
1.177234 0.9064047
1.197187 0.9064047
1.177234 0.8932948
1.182223 0.09687281
1.182223 0.09687281
1.202176 0.09687281
1.182223 0.08376298
1.182223 0.1067052
1.182223 0.1067052
1.202176 0.1067052
1.182223 0.09359535
1.182223 0.1165375
1.182223 0.1165375
1.202176 0.1165375
1.182223 0.1034277
1.182223 0.1263699
1.182223 0.1263699
1.202176 0.1263699
1.182223 0.1165375
1.182223 0.2312485
1.182223 0.2312485
1.197187 0.2312485
1.182223 0.2181387
1.182223 0.2771329
1.182223 0.2771329
1.197187 0.2771329
1.182223 0.2640231
1.182223 0.3361272
1.182223 0.3361272
1.197187 0.3361272
1.182223 0.3230173
1.182223 0.3590693
1.182223 0.3590693
1.197187 0.3590693
1.182223 0.3459595
1.182223 0.3951214
1.182223 0.3951214
1.192199 0.3951214
1.182223 0.3885665
1.182223 0.4442832
1.182223 0.4442832
1.202176 0.4442832
1.182223 0.4311734
1.192199 0.4541156
1.192199 0.4541156
1.202176 0.4541156
1.192199 0.4410058
1.192199 0.4672254
1.192199 0.4672254
1.202176 0.4672254
1.192199 0.4573931
1.192199 0.536052
1.192199 0.536052
1.197187 0.536052
1.192199 0.536052
1.192199 0.572104
1.192199 0.572104
1.202176 0.572104
1.192199 0.5589942
1.182223 0.6081561
1.182223 0.6081561
1.202176 0.6081561
1.182223 0.5950462
1.192199 0.6179885
1.192199 0.6179885
1.202176 0.6179885
1.192199 0.6048786
1.187211 0.6835376
1.187211 0.6835376
1.202176 0.6835376
1.187211 0.6704277
1.187211 0.1788092
1.187211 0.1788092
1.207164 0.1788092
1.187211 0.1656994
1.187211 0.3689017
1.187211 0.3689017
1.197187 0.3689017
1.187211 0.3557919
1.187211 0.4246185
1.187211 0.4246185
1.207164 0.4246185
1.187211 0.4180636
1.187211 0.4803353
1.187211 0.4803353
1.207164 0.4803353
1.187211 0.4737803
1.187211 0.4967225
1.187211 0.4967225
1.207164 0.4967225
1.187211 0.4836127
1.187211 0.5950462
1.187211 0.5950462
1.207164 0.5950462
1.187211 0.5819364
1.187211 0.6278208
1.187211 0.6278208
1.207164 0.6278208
1.187211 0.614711
1.187211 0.6540405
1.187211 0.6540405
1.207164 0.6540405
1.187211 0.6442081
1.187211 0.7490867
1.187211 0.7490867
1.207164 0.7490867
1.187211 0.7359769
1.187211 0.7753064
1.187211 0.7753064
1.207164 0.7753064
1.187211 0.7687514
1.197187 0.8310232
1.197187 0.8310232
1.207164 0.8310232
1.197187 0.8244683
1.187211 0.8474104
1.187211 0.8474104
1.207164 0.8474104
1.187211 0.8343006
1.187211 0.8900174
1.187211 0.8900174
1.207164 0.8900174
1.187211 0.8769075
1.192199 0.08048552
1.192199 0.08048552
1.212152 0.08048552
1.192199 0.07393061
1.192199 0.1624219
1.192199 0.1624219
1.212152 0.1624219
1.192199 0.155867
1.192199 0.1886416
1.192199 0.1886416
1.212152 0.1886416
1.192199 0.1755318
1.192199 0.5819364
1.192199 0.5819364
1.212152 0.5819364
1.192199 0.5688266
1.192199 0.6704277
1.192199 0.6704277
1.212152 0.6704277
1.192199 0.6573179
1.192199 0.6933699
1.192199 0.6933699
1.212152 0.6933699
1.192199 0.6802601
1.192199 0.7032023
1.192199 0.7032023
1.212152 0.7032023
1.192199 0.6900925
1.192199 0.7130347
1.192199 0.7130347
1.212152 0.7130347
1.192199 0.7064798
1.192199 0.729422
1.192199 0.729422
1.212152 0.729422
1.192199 0.7163122
1.192199 0.7392544
1.192199 0.7392544
1.212152 0.7392544
1.192199 0.7261446
1.192199 0.7621965
1.192199 0.7621965
1.207164 0.7621965
1.192199 0.7523642
1.192199 0.8736301
1.192199 0.8736301
1.212152 0.8736301
1.192199 0.8637977
1.192199 0.8998497
1.192199 0.8998497
1.212152 0.8998497
1.192199 0.8867399
1.192199 0.9096821
1.192199 0.9096821
1.212152 0.9096821
1.192199 0.8965723
1.197187 0.09687281
1.197187 0.09687281
1.217141 0.09687281
1.197187 0.08376298
1.197187 0.1067052
1.197187 0.1067052
1.217141 0.1067052
1.197187 0.09359535
1.197187 0.1165375
1.197187 0.1165375
1.217141 0.1165375
1.197187 0.1034277
1.207164 0.1427572
1.207164 0.1427572
1.217141 0.1427572
1.207164 0.1329248
1.197187 0.4410058
1.197187 0.4410058
1.217141 0.4410058
1.197187 0.427896
1.197187 0.4508381
1.197187 0.4508381
1.217141 0.4508381
1.197187 0.4377283
1.197187 0.4606705
1.197187 0.4606705
1.217141 0.4606705
1.197187 0.4475607
1.197187 0.5065549
1.197187 0.5065549
1.217141 0.5065549
1.197187 0.4934451
1.197187 0.5589942
1.197187 0.5589942
1.217141 0.5589942
1.197187 0.5524393
1.197187 0.6048786
1.197187 0.6048786
1.217141 0.6048786
1.197187 0.5917688
1.197187 0.614711
1.197187 0.614711
1.217141 0.614711
1.197187 0.6016012
1.197187 0.6376532
1.197187 0.6376532
1.217141 0.6376532
1.197187 0.6278208
1.197187 0.6802601
1.197187 0.6802601
1.217141 0.6802601
1.197187 0.6671503
1.197187 0.9195145
1.197187 0.9195145
1.217141 0.9195145
1.197187 0.9096821
1.202176 0.1788092
1.202176 0.1788092
1.222129 0.1788092
1.202176 0.1656994
1.202176 0.4836127
1.202176 0.4836127
1.222129 0.4836127
1.202176 0.4737803
1.212152 0.5426069
1.212152 0.5426069
1.217141 0.5426069
1.212152 0.5393295
1.202176 0.5917688
1.202176 0.5917688
1.222129 0.5917688
1.202176 0.5786589
1.202176 0.6245434
1.202176 0.6245434
1.222129 0.6245434
1.202176 0.6114335
1.202176 0.650763
1.202176 0.650763
1.222129 0.650763
1.202176 0.6376532
1.202176 0.7490867
1.202176 0.7490867
1.222129 0.7490867
1.202176 0.7392544
1.212152 0.7851387
1.212152 0.7851387
1.222129 0.7851387
1.212152 0.7785838
1.202176 0.8310232
1.202176 0.8310232
1.222129 0.8310232
1.202176 0.8244683
1.207164 0.08048552
1.207164 0.08048552
1.227117 0.08048552
1.207164 0.07393061
1.207164 0.1886416
1.207164 0.1886416
1.227117 0.1886416
1.207164 0.1755318
1.207164 0.198474
1.207164 0.198474
1.227117 0.198474
1.207164 0.1886416
1.207164 0.4967225
1.207164 0.4967225
1.227117 0.4967225
1.207164 0.4836127
1.207164 0.5753815
1.207164 0.5753815
1.227117 0.5753815
1.207164 0.5622717
1.207164 0.6900925
1.207164 0.6900925
1.227117 0.6900925
1.207164 0.6769826
1.207164 0.6999249
1.207164 0.6999249
1.227117 0.6999249
1.207164 0.686815
1.207164 0.7097573
1.207164 0.7097573
1.222129 0.7097573
1.207164 0.7032023
1.207164 0.7261446
1.207164 0.7261446
1.227117 0.7261446
1.207164 0.7130347
1.207164 0.7359769
1.207164 0.7359769
1.227117 0.7359769
1.207164 0.7228671
1.207164 0.8965723
1.207164 0.8965723
1.227117 0.8965723
1.207164 0.8900174
1.212152 0.09687281
1.212152 0.09687281
1.227117 0.09687281
1.212152 0.08376298
1.212152 0.1362023
1.212152 0.1362023
1.227117 0.1362023
1.212152 0.1296474
1.212152 0.427896
1.212152 0.427896
1.232105 0.427896
1.212152 0.421341
1.212152 0.4442832
1.212152 0.4442832
1.232105 0.4442832
1.212152 0.4311734
1.212152 0.4541156
1.212152 0.4541156
1.232105 0.4541156
1.212152 0.4410058
1.212152 0.5065549
1.212152 0.5065549
1.232105 0.5065549
1.212152 0.4934451
1.212152 0.5163873
1.212152 0.5163873
1.232105 0.5163873
1.212152 0.5032774
1.222129 0.5262197
1.222129 0.5262197
1.232105 0.5262197
1.222129 0.5131098
1.212152 0.6016012
1.212152 0.6016012
1.232105 0.6016012
1.212152 0.5884913
1.212152 0.6114335
1.212152 0.6114335
1.232105 0.6114335
1.212152 0.5983237
1.212152 0.6343758
1.212152 0.6343758
1.232105 0.6343758
1.212152 0.6212659
1.212152 0.8474104
1.212152 0.8474104
1.227117 0.8474104
1.212152 0.8408555
1.212152 0.9195145
1.212152 0.9195145
1.227117 0.9195145
1.212152 0.9096821
1.217141 0.4803353
1.217141 0.4803353
1.237094 0.4803353
1.217141 0.4672254
1.217141 0.5491619
1.217141 0.5491619
1.237094 0.5491619
1.217141 0.5393295
1.217141 0.5852139
1.217141 0.5852139
1.237094 0.5852139
1.217141 0.572104
1.217141 0.6212659
1.217141 0.6212659
1.232105 0.6212659
1.217141 0.6081561
1.217141 0.6442081
1.217141 0.6442081
1.237094 0.6442081
1.217141 0.6310983
1.217141 0.7458093
1.217141 0.7458093
1.237094 0.7458093
1.217141 0.7359769
1.217141 0.7851387
1.217141 0.7851387
1.227117 0.7851387
1.217141 0.7785838
1.222129 0.1820867
1.222129 0.1820867
1.242082 0.1820867
1.222129 0.1689769
1.222129 0.1919191
1.222129 0.1919191
1.242082 0.1919191
1.222129 0.1788092
1.222129 0.4901676
1.222129 0.4901676
1.242082 0.4901676
1.222129 0.4770578
1.222129 0.572104
1.222129 0.572104
1.242082 0.572104
1.222129 0.5622717
1.222129 0.6966474
1.222129 0.6966474
1.242082 0.6966474
1.222129 0.6835376
1.222129 0.729422
1.222129 0.729422
1.242082 0.729422
1.222129 0.7163122
1.227117 0.427896
1.227117 0.427896
1.24707 0.427896
1.227117 0.421341
1.227117 0.4442832
1.227117 0.4442832
1.24707 0.4442832
1.227117 0.4311734
1.227117 0.4541156
1.227117 0.4541156
1.24707 0.4541156
1.227117 0.4442832
1.227117 0.5
1.227117 0.5
1.24707 0.5
1.227117 0.4868902
1.227117 0.5098324
1.227117 0.5098324
1.242082 0.5098324
1.227117 0.4967225
1.227117 0.5196648
1.227117 0.5196648
1.24707 0.5196648
1.227117 0.5065549
1.227117 0.5294971
1.227117 0.5294971
1.24707 0.5294971
1.227117 0.5163873
1.227117 0.5622717
1.227117 0.5622717
1.24707 0.5622717
1.227117 0.5557168
1.227117 0.5950462
1.227117 0.5950462
1.24707 0.5950462
1.227117 0.5819364
1.227117 0.6048786
1.227117 0.6048786
1.24707 0.6048786
1.227117 0.5917688
1.227117 0.6310983
1.227117 0.6310983
1.24707 0.6310983
1.227117 0.6179885
1.227117 0.7064798
1.227117 0.7064798
1.242082 0.7064798
1.227117 0.6999249
1.232105 0.4737803
1.232105 0.4737803
1.252059 0.4737803
1.232105 0.463948
1.232105 0.5852139
1.232105 0.5852139
1.252059 0.5852139
1.232105 0.572104
1.232105 0.6409307
1.232105 0.6409307
1.252059 0.6409307
1.232105 0.6278208
1.232105 0.7392544
1.232105 0.7392544
1.242082 0.7392544
1.232105 0.7261446
1.242082 0.7621965
1.242082 0.7621965
1.252059 0.7621965
1.242082 0.7589191
1.237094 0.4868902
1.237094 0.4868902
1.257047 0.4868902
1.237094 0.4737803
1.24707 0.7130347
1.24707 0.7130347
1.252059 0.7130347
1.24707 0.7097573
1.252059 0.1689769
1.252059 0.1689769
1.262035 0.1689769
1.252059 0.155867
1.242082 0.5163873
1.242082 0.5163873
1.262035 0.5163873
1.242082 0.5065549
1.242082 0.5294971
1.242082 0.5294971
1.262035 0.5294971
1.242082 0.5163873
1.242082 0.5950462
1.242082 0.5950462
1.252059 0.5950462
1.242082 0.5819364
1.242082 0.6310983
1.242082 0.6310983
1.262035 0.6310983
1.242082 0.6179885
1.252059 0.7490867
1.252059 0.7490867
1.262035 0.7490867
1.252059 0.7425318
1.252059 0.801526
1.252059 0.801526
1.257047 0.801526
1.252059 0.7982486
1.257047 0.1886416
1.257047 0.1886416
1.267023 0.1886416
1.257047 0.1755318
1.257047 0.198474
1.257047 0.198474
1.267023 0.198474
1.257047 0.1886416
1.262035 0.155867
1.262035 0.155867
1.272012 0.155867
1.262035 0.1427572
1.252059 0.1788092
1.252059 0.1788092
1.272012 0.1788092
1.252059 0.1656994
1.262035 0.4344509
1.262035 0.4344509
1.262035 0.4344509
1.262035 0.4344509
1.252059 0.4803353
1.252059 0.4803353
1.272012 0.4803353
1.252059 0.4672254
1.252059 0.4901676
1.252059 0.4901676
1.272012 0.4901676
1.252059 0.4836127
1.252059 0.7621965
1.252059 0.7621965
1.272012 0.7621965
1.252059 0.7523642
1.252059 0.7753064
1.252059 0.7753064
1.272012 0.7753064
1.252059 0.7621965
1.257047 0.1656994
1.257047 0.1656994
1.272012 0.1656994
1.257047 0.1525896
1.257047 0.5098324
1.257047 0.5098324
1.272012 0.5098324
1.257047 0.5032774
1.262035 0.6179885
1.262035 0.6179885
1.272012 0.6179885
1.262035 0.614711
1.257047 0.7359769
1.257047 0.7359769
1.272012 0.7359769
1.257047 0.729422
1.267023 0.1362023
1.267023 0.1362023
1.272012 0.1362023
1.267023 0.1296474
1.262035 0.1886416
1.262035 0.1886416
1.272012 0.1886416
1.262035 0.1755318
1.267023 0.4606705
1.267023 0.4606705
1.272012 0.4606705
1.267023 0.4541156
1.262035 0.5262197
1.262035 0.5262197
1.272012 0.5262197
1.262035 0.5196648
1.272012 0.5196648
