0 0.4335938
0 0.4335938
0.001138051 0.4309668
-0.005958955 0.4303467
-0.008938472 0.4384644
0 0.4335938
0.01841426 0.4335938
0.006828388 0.4178321
-0.02085638 0.422229
-0.0238359 0.4465821
0 0.4570313
0 0.4570313
0.001138051 0.4544043
-0.005958955 0.4537842
-0.008938472 0.4619019
0 0.4570313
0.01841426 0.4570313
0.006828388 0.4412696
-0.02085638 0.4456665
-0.0238359 0.4700196
0 0.4921875
0 0.4921875
0.0005089442 0.4910127
-0.002664963 0.4907354
-0.003997406 0.4943657
0 0.4921875
0.008235097 0.4921875
0.003053745 0.4851387
-0.009327253 0.487105
-0.01065969 0.4979961
0.03125 0.4335938
0.03125 0.4335938
0.03238805 0.4309668
0.02529105 0.4303467
0.02231153 0.4384644
0.03125 0.4335938
0.04966426 0.4335938
0.03807839 0.4178321
0.01039358 0.422229
0.007414103 0.4465821
0.04166667 0.4570313
0.04166667 0.4570313
0.04280472 0.4544043
0.03570771 0.4537842
0.0327282 0.4619019
0.04166667 0.4570313
0.06008093 0.4570313
0.04849505 0.4412696
0.02081025 0.4456665
0.01783077 0.4700196
0.07291667 0.4375
0.07291667 0.4375
0.07405472 0.434873
0.06695771 0.4342529
0.0639782 0.4423706
0.07291667 0.4375
0.09133093 0.4375
0.07974505 0.4217383
0.05206025 0.4261352
0.04908077 0.4504883
0.08854167 0.4726563
0.08854167 0.4726563
0.08967972 0.4700293
0.08258271 0.4694092
0.0796032 0.4775269
0.08854167 0.4726563
0.1069559 0.4726563
0.09537005 0.4568946
0.06768525 0.4612915
0.06470577 0.4856446
0.1041667 0.4296875
0.1041667 0.4296875
0.1053047 0.4270605
0.09820771 0.4264404
0.0952282 0.4345581
0.1041667 0.4296875
0.1225809 0.4296875
0.1109951 0.4139258
0.08331025 0.4183227
0.08033077 0.4426758
0.1197917 0.453125
0.1197917 0.453125
0.1209297 0.450498
0.1138327 0.4498779
0.1108532 0.4579956
0.1197917 0.453125
0.1382059 0.453125
0.1266201 0.4373633
0.09893525 0.4417602
0.09595577 0.4661133
0.1354167 0.4296875
0.1354167 0.4296875
0.1365547 0.4270605
0.1294577 0.4264404
0.1264782 0.4345581
0.1354167 0.4296875
0.1538309 0.4296875
0.1422451 0.4139258
0.1145602 0.4183227
0.1115808 0.4426758
0.1456593 0.45333
