0.3184305 0.2578125
0.3184305 0.5859375
0.3381879 0.4726563
0.3856056 0.5664063
0.3895571 0.5976563
0.3895571 0.7851563
0.4290718 0.07421875
0.4843925 0.08203125
0.8400252 0.5742188
0.3144791 0.2617188
0.3895571 0.6015625
0.3895571 0.7890625
0.3935086 0.7929688
0.3935086 0.796875
0.4172174 0.6757813
0.4251204 0.6992188
0.4290718 0.078125
0.4527807 0.7265625
0.5278587 0.8515625
0.5278587 0.8554688
0.6147912 0.2929688
0.713578 0.5234375
0.8400252 0.578125
0.5081013 0.828125
0.6266456 0.3085938
0.7926075 0.5273438
0.9546179 0.390625
0.4132659 0.4804688
0.4093145 0.4804688
