0.4549062 0.59375
0.4549062 0.59375
0.4627187 0.59375
0.4549062 0.59375
0.4627187 0.59375
0.4627187 0.59375
0.4783437 0.59375
0.4627187 0.59375
0.5369375 0.59375
0.5369375 0.59375
0.5369375 0.59375
0.5369375 0.59375
0.5681875 0.5078125
0.5681875 0.5078125
0.5838125 0.5078125
0.5681875 0.4921875
0.576 0.359375
0.576 0.359375
0.576 0.359375
0.576 0.359375
0.576 0.3867188
0.576 0.3867188
0.576 0.3867188
0.576 0.3867188
0.5720937 0.5390625
0.5720937 0.5390625
0.5877187 0.5390625
0.5720937 0.5234375
0.5994375 0.2929688
0.5994375 0.2929688
0.5994375 0.2929688
0.5994375 0.2929688
0.5994375 0.484375
0.5994375 0.484375
0.6033437 0.484375
0.5994375 0.4765625
0.60725 0.5234375
0.60725 0.5234375
0.60725 0.5234375
0.60725 0.5234375
0.6150625 0.1992188
0.6150625 0.1992188
0.6189687 0.1992188
0.6150625 0.1992188
0.6306875 0.640625
0.6306875 0.640625
0.6306875 0.640625
0.6306875 0.640625
0.6385 0.203125
0.6385 0.203125
0.654125 0.203125
0.6385 0.1992188
0.654125 0.3046875
0.654125 0.3046875
0.6580312 0.3046875
0.654125 0.3046875
0.6580312 0.3554688
0.6580312 0.3554688
0.6736562 0.3554688
0.6580312 0.3476563
0.6619375 0.7070313
0.6619375 0.7070313
0.6619375 0.7070313
0.6619375 0.7070313
0.6658437 0.4804688
0.6658437 0.4804688
0.66975 0.4804688
0.6658437 0.4765625
0.826 0.3984375
0.826 0.3984375
0.8299062 0.3984375
0.826 0.3828125
0.8299062 0.28125
0.8299062 0.28125
0.8299062 0.28125
0.8299062 0.265625
0.8299062 0.3164063
0.8299062 0.3164063
0.8299062 0.3164063
0.8299062 0.2851563
0.8299062 0.3359375
0.8299062 0.3359375
0.8299062 0.3359375
0.8299062 0.3046875
0.8299062 0.3554688
0.8299062 0.3554688
0.8299062 0.3554688
0.8299062 0.3242188
0.8299062 0.375
0.8299062 0.375
0.8299062 0.375
0.8299062 0.34375
0.8299062 0.5
0.8299062 0.5
0.8299062 0.5
0.8299062 0.484375
0.8299062 0.5351563
0.8299062 0.5351563
0.8299062 0.5351563
0.8299062 0.5039063
0.8299062 0.5546875
0.8299062 0.5546875
0.8299062 0.5546875
0.8299062 0.5234375
0.8299062 0.5742188
0.8299062 0.5742188
0.8299062 0.5742188
0.8299062 0.5507813
0.8299062 0.5507813
