0.5525625 0.6210938
0.5525625 0.6210938
0.5681875 0.6210938
0.5525625 0.5976563
0.5564687 0.4296875
0.5564687 0.4296875
0.5720937 0.4296875
0.5564687 0.40625
0.5642812 0.5390625
0.5642812 0.5390625
0.5799062 0.5390625
0.5642812 0.515625
0.5720937 0.4960938
0.5720937 0.4960938
0.5877187 0.4960938
0.5720937 0.4765625
0.5564687 0.5898438
0.5564687 0.5898438
0.5877187 0.5898438
0.5564687 0.5703125
0.5564687 0.6210938
0.5564687 0.6210938
0.5877187 0.6210938
0.5564687 0.5976563
0.560375 0.4101563
0.560375 0.4101563
0.591625 0.4101563
0.560375 0.390625
0.560375 0.4414063
0.560375 0.4414063
0.591625 0.4414063
0.560375 0.421875
0.5799062 0.3671875
0.5799062 0.3671875
0.5955312 0.3671875
0.5799062 0.3476563
0.5799062 0.5742188
0.5799062 0.5742188
0.5955312 0.5742188
0.5799062 0.546875
0.5681875 0.5273438
0.5681875 0.5273438
0.5994375 0.5273438
0.5681875 0.4960938
0.5838125 0.7421875
0.5838125 0.7421875
0.5994375 0.7421875
0.5838125 0.71875
0.576 0.5
0.576 0.5
0.60725 0.5
0.576 0.46875
0.576 0.5976563
0.576 0.5976563
0.60725 0.5976563
0.576 0.5664063
0.576 0.6171875
0.576 0.6171875
0.60725 0.6171875
0.576 0.59375
0.5799062 0.4140625
0.5799062 0.4140625
0.6111562 0.4140625
0.5799062 0.3828125
0.5799062 0.4335938
0.5799062 0.4335938
0.6111562 0.4335938
0.5799062 0.4023438
0.5955312 0.4726563
0.5955312 0.4726563
0.6111562 0.4726563
0.5955312 0.4414063
0.5838125 0.3515625
0.5838125 0.3515625
0.6150625 0.3515625
0.5838125 0.328125
0.5838125 0.3789063
0.5838125 0.3789063
0.6150625 0.3789063
0.5838125 0.3476563
0.5838125 0.5625
0.5838125 0.5625
0.6150625 0.5625
0.5838125 0.53125
0.6033437 0.296875
0.6033437 0.296875
0.6189687 0.296875
0.6033437 0.265625
0.5877187 0.5195313
0.5877187 0.5195313
0.6189687 0.5195313
0.5877187 0.4882813
0.5877187 0.5390625
0.5877187 0.5390625
0.6189687 0.5390625
0.5877187 0.5078125
0.5877187 0.7304688
0.5877187 0.7304688
0.6189687 0.7304688
0.5877187 0.6992188
0.5877187 0.75
0.5877187 0.75
0.6189687 0.75
0.5877187 0.7265625
0.60725 0.2734375
0.60725 0.2734375
0.622875 0.2734375
0.60725 0.2421875
0.6033437 0.453125
0.6033437 0.453125
0.6267812 0.453125
0.6033437 0.421875
0.5955312 0.4921875
0.5955312 0.4921875
0.6267812 0.4921875
0.5955312 0.4609375
0.5955312 0.5820313
0.5955312 0.5820313
0.6267812 0.5820313
0.5955312 0.5507813
0.5955312 0.6015625
0.5955312 0.6015625
0.6267812 0.6015625
0.5955312 0.5703125
0.5994375 0.3984375
0.5994375 0.3984375
0.6306875 0.3984375
0.5994375 0.3671875
0.5994375 0.4179688
0.5994375 0.4179688
0.6306875 0.4179688
0.5994375 0.3867188
0.5994375 0.4726563
0.5994375 0.4726563
0.6306875 0.4726563
0.5994375 0.4414063
0.60725 0.7109375
0.60725 0.7109375
0.6306875 0.7109375
0.60725 0.6796875
0.6033437 0.3164063
0.6033437 0.3164063
0.6345937 0.3164063
0.6033437 0.2851563
0.6033437 0.3476563
0.6033437 0.3476563
0.6345937 0.3476563
0.6033437 0.3164063
0.6033437 0.3671875
0.6033437 0.3671875
0.6345937 0.3671875
0.6033437 0.3359375
0.6033437 0.5585938
0.6033437 0.5585938
0.6345937 0.5585938
0.6033437 0.5273438
0.6189687 0.2304688
0.6189687 0.2304688
0.6385 0.2304688
0.6189687 0.2109375
0.60725 0.2929688
0.60725 0.2929688
0.6385 0.2929688
0.60725 0.2617188
0.60725 0.5117188
0.60725 0.5117188
0.6385 0.5117188
0.60725 0.4804688
0.60725 0.53125
0.60725 0.53125
0.6385 0.53125
0.60725 0.5
0.60725 0.7304688
0.60725 0.7304688
0.6385 0.7304688
0.60725 0.6992188
0.60725 0.75
0.60725 0.75
0.6385 0.75
0.60725 0.7265625
0.6111562 0.2617188
0.6111562 0.2617188
0.6424062 0.2617188
0.6111562 0.2304688
0.622875 0.6796875
0.622875 0.6796875
0.6424062 0.6796875
0.622875 0.6484375
0.6150625 0.4375
0.6150625 0.4375
0.6463125 0.4375
0.6150625 0.40625
0.6150625 0.4921875
0.6150625 0.4921875
0.6463125 0.4921875
0.6150625 0.4609375
0.6150625 0.578125
0.6150625 0.578125
0.6463125 0.578125
0.6150625 0.546875
0.6150625 0.5976563
0.6150625 0.5976563
0.6463125 0.5976563
0.6150625 0.5664063
0.6150625 0.6171875
0.6150625 0.6171875
0.6385 0.6171875
0.6150625 0.5859375
0.6306875 0.6601563
0.6306875 0.6601563
0.6424062 0.6601563
0.6306875 0.6289063
0.6189687 0.3867188
0.6189687 0.3867188
0.6502187 0.3867188
0.6189687 0.3554688
0.6189687 0.40625
0.6189687 0.40625
0.6502187 0.40625
0.6189687 0.375
0.6189687 0.4570313
0.6189687 0.4570313
0.6502187 0.4570313
0.6189687 0.4257813
0.6345937 0.6367188
0.6345937 0.6367188
0.6385 0.6367188
0.6345937 0.6054688
0.6189687 0.6992188
0.6189687 0.6992188
0.6502187 0.6992188
0.6189687 0.6679688
0.622875 0.3125
0.622875 0.3125
0.654125 0.3125
0.622875 0.28125
0.622875 0.3320313
0.622875 0.3320313
0.654125 0.3320313
0.622875 0.3007813
0.622875 0.3515625
0.622875 0.3515625
0.654125 0.3515625
0.622875 0.3203125
0.622875 0.5507813
0.622875 0.5507813
0.654125 0.5507813
0.622875 0.5195313
0.6267812 0.28125
0.6267812 0.28125
0.6580312 0.28125
0.6267812 0.25
0.6267812 0.5117188
0.6267812 0.5117188
0.6580312 0.5117188
0.6267812 0.4804688
0.6267812 0.53125
0.6267812 0.53125
0.6580312 0.53125
0.6267812 0.5
0.6267812 0.71875
0.6267812 0.71875
0.6580312 0.71875
0.6267812 0.6875
0.6267812 0.7382813
0.6267812 0.7382813
0.6580312 0.7382813
0.6267812 0.7070313
0.6267812 0.7578125
0.6267812 0.7578125
0.6580312 0.7578125
0.6267812 0.7421875
0.6345937 0.4257813
0.6345937 0.4257813
0.6619375 0.4257813
0.6345937 0.3945313
0.6345937 0.4765625
0.6345937 0.4765625
0.6658437 0.4765625
0.6345937 0.4453125
0.6345937 0.5703125
0.6345937 0.5703125
0.6658437 0.5703125
0.6345937 0.5390625
0.6385 0.3710938
0.6385 0.3710938
0.66975 0.3710938
0.6385 0.3398438
0.6385 0.390625
0.6385 0.390625
0.66975 0.390625
0.6385 0.359375
0.6385 0.4453125
0.6385 0.4453125
0.66975 0.4453125
0.6385 0.4140625
0.6424062 0.3125
0.6424062 0.3125
0.6619375 0.3125
0.6424062 0.28125
0.6424062 0.34375
0.6424062 0.34375
0.6736562 0.34375
0.6424062 0.3125
0.6424062 0.5507813
0.6424062 0.5507813
0.6736562 0.5507813
0.6424062 0.5195313
0.6463125 0.2773438
0.6463125 0.2773438
0.6619375 0.2773438
0.6463125 0.25
0.6463125 0.4960938
0.6463125 0.4960938
0.6775625 0.4960938
0.6463125 0.4648438
0.6463125 0.515625
0.6463125 0.515625
0.6775625 0.515625
0.6463125 0.484375
0.6463125 0.5898438
0.6463125 0.5898438
0.6775625 0.5898438
0.6463125 0.5625
0.6463125 0.7265625
0.6463125 0.7265625
0.6775625 0.7265625
0.6463125 0.6953125
0.6463125 0.7460938
0.6463125 0.7460938
0.6775625 0.7460938
0.6463125 0.71875
0.654125 0.46875
0.654125 0.46875
0.685375 0.46875
0.654125 0.4375
0.654125 0.5703125
0.654125 0.5703125
0.685375 0.5703125
0.654125 0.5390625
0.6580312 0.3632813
0.6580312 0.3632813
0.6892812 0.3632813
0.6580312 0.3320313
0.6580312 0.3828125
0.6580312 0.3828125
0.6892812 0.3828125
0.6580312 0.3515625
0.6580312 0.4023438
0.6580312 0.4023438
0.6892812 0.4023438
0.6580312 0.375
0.6580312 0.4492188
0.6580312 0.4492188
0.6775625 0.4492188
0.6580312 0.4179688
0.6658437 0.5
0.6658437 0.5
0.6970937 0.5
0.6658437 0.4765625
0.6658437 0.5273438
0.6658437 0.5273438
0.6970937 0.5273438
0.6658437 0.4960938
0.6658437 0.5898438
0.6658437 0.5898438
0.6970937 0.5898438
0.6658437 0.5585938
0.6658437 0.7460938
0.6658437 0.7460938
0.685375 0.7460938
0.6658437 0.71875
0.6736562 0.4765625
0.6736562 0.4765625
0.6892812 0.4765625
0.6736562 0.4609375
0.6775625 0.4023438
0.6775625 0.4023438
0.7049062 0.4023438
0.6775625 0.375
0.6775625 0.5585938
0.6775625 0.5585938
0.7088125 0.5585938
0.6775625 0.5390625
0.685375 0.5
0.685375 0.5
0.7088125 0.5
0.685375 0.4804688
0.685375 0.53125
0.685375 0.53125
0.7088125 0.53125
0.685375 0.515625
0.685375 0.5898438
0.685375 0.5898438
0.716625 0.5898438
0.685375 0.5585938
0.685375 0.609375
0.685375 0.609375
0.716625 0.609375
0.685375 0.5898438
0.7049062 0.6054688
0.7049062 0.6054688
0.73225 0.6054688
0.7049062 0.5742188
0.7127187 0.625
0.7127187 0.625
0.73225 0.625
0.7127187 0.609375
0.8533437 0.7226563
0.8533437 0.7226563
0.8650625 0.7226563
0.8533437 0.6992188
0.8533437 0.7578125
0.8533437 0.7578125
0.8650625 0.7578125
0.8533437 0.7421875
0.8806875 0.6796875
0.8806875 0.6796875
0.8845937 0.6796875
0.8806875 0.6757813
0.9314687 0.7890625
0.9314687 0.7890625
0.9470937 0.7890625
0.9314687 0.7773438
0.9470937 0.6953125
0.9470937 0.6953125
0.951 0.6953125
0.9470937 0.6953125
0.935375 0.796875
0.935375 0.796875
0.951 0.796875
0.935375 0.7929688
0.951 0.7929688
