0.3292266 0.2215411
0.8081015 0.4455997
0.8330429 0.4506347
0.8430195 0.3902144
0.2045195 0.1586033
0.1995312 0.1560858
0.2194844 0.1762259
0.2893203 0.1586033
0.2643789 0.1560858
0.284332 0.2114711
0.284332 0.1560858
0.2992969 0.1762259
0.2992969 0.1862959
0.2943086 0.191331
0.3292266 0.1737084
0.3491797 0.206436
0.3441914 0.1560858
0.3641445 0.1611208
0.3591563 0.201401
0.3591563 0.1988835
0.3691328 0.1837784
0.3591563 0.1560858
0.8430195 0.3826619
0.8480078 0.3801444
0.8779374 0.3902144
0.922832 0.3902144
0.9278203 0.3851794
0.922832 0.3826619
0.2144961 0.1611208
0.2144961 0.1636383
0.2144961 0.1661558
0.2144961 0.1686733
0.1745898 0.1711909
0.1745898 0.1737084
0.1745898 0.1762259
0.1745898 0.1787434
0.1745898 0.1812609
0.1745898 0.1837784
0.1745898 0.1862959
0.1745898 0.1888134
0.1745898 0.191331
0.2194844 0.1938485
0.2151612 0.1940163
0.210838 0.1941841
0.2065149 0.194352
0.2021917 0.1945198
0.1978685 0.1946876
0.1935453 0.1948555
0.1892221 0.1950233
0.1848989 0.1951911
0.1805758 0.195359
0.1762526 0.1955268
0.1719294 0.1956947
0.1676062 0.1958625
0.1632831 0.1960303
0.1589599 0.1961982
0.2194844 0.196366
0.2151612 0.1965338
0.210838 0.1967016
0.2065149 0.1968695
0.2021917 0.1970373
0.1978685 0.1972051
0.1935453 0.197373
0.1892221 0.1975408
0.1848989 0.1977087
0.1805758 0.1978765
0.1762526 0.1980443
0.1719294 0.1982122
0.1676062 0.19838
0.1632831 0.1985478
0.1589599 0.1987157
0.2194844 0.1988835
0.2151612 0.1990513
0.210838 0.1992192
0.2065149 0.199387
0.2021917 0.1995548
0.1978685 0.1997226
0.1935453 0.1998905
0.1892221 0.2000583
0.1848989 0.2002262
0.1805758 0.200394
0.1762526 0.2005619
0.1719294 0.2007297
0.1676062 0.2008975
0.1632831 0.2010653
0.1589599 0.2012332
0.2144961 0.201401
0.2144961 0.2039185
0.1995312 0.206436
0.1995312 0.2089535
0.1745898 0.2114711
0.1745898 0.2139886
0.1745898 0.2165061
0.1745898 0.2190236
0.1745898 0.2215411
0.1745898 0.2240586
0.1745898 0.2265761
0.1745898 0.2290936
0.1696016 0.2316111
0.1696016 0.2341287
0.2194844 0.1711909
0.2194844 0.1737084
0.2194844 0.1787434
0.2194844 0.1812609
0.2144961 0.1837784
0.2194844 0.1862959
0.2194844 0.1888134
0.2194844 0.191331
0.2992969 0.1661558
0.2949737 0.165988
0.2906505 0.1658202
0.2863273 0.1656523
0.2820041 0.1654845
0.277681 0.1653167
0.2733578 0.1651488
0.2690346 0.164981
0.2647114 0.1648132
0.2603883 0.1646453
0.2560651 0.1644775
0.2517419 0.1643096
0.2474187 0.1641418
0.2430955 0.163974
0.2387724 0.1638061
0.2943086 0.1686733
0.2494141 0.1711909
0.2494141 0.1737084
0.2494141 0.1762259
0.2494141 0.1787434
0.2494141 0.1812609
0.2494141 0.1837784
0.2494141 0.1862959
0.2494141 0.1888134
0.2494141 0.191331
0.2943086 0.1938485
0.2893203 0.196366
0.2943086 0.1988835
0.2943086 0.201401
0.2893203 0.2039185
0.2793437 0.206436
0.2494141 0.2089535
0.2494141 0.2114711
0.2494141 0.2139886
0.2494141 0.2165061
0.2494141 0.2190236
0.2494141 0.2215411
0.2494141 0.2240586
0.2494141 0.2265761
0.2494141 0.2290936
0.2494141 0.2290936
0.2494141 0.2316111
0.2494141 0.2341287
0.2893203 0.2139886
0.2893203 0.2165061
0.2893203 0.2190236
0.2943086 0.2215411
0.2893203 0.2240586
0.2893203 0.2240586
0.2893203 0.2265761
0.2943086 0.2290936
0.2943086 0.2316111
0.2943086 0.1711909
0.2992969 0.1787434
0.2992969 0.1812609
0.2943086 0.1837784
0.2943086 0.1888134
0.2893203 0.206436
0.2943086 0.2341287
0.3292266 0.2240586
0.354168 0.2265761
0.3641445 0.2290936
0.3641445 0.2316111
0.3691328 0.2341287
0.3691328 0.2366462
0.3691328 0.1636383
0.3342148 0.2190236
0.3641445 0.2391637
0.3691328 0.1661558
0.3441914 0.2089535
0.3441914 0.2114711
0.3392031 0.2139886
0.3292266 0.1711909
0.3292266 0.1711909
0.354168 0.2039185
0.3641445 0.1586033
0.3641445 0.1938485
0.3691328 0.1711909
0.3691328 0.1737084
0.3691328 0.1862959
0.3691328 0.1787434
0.3691328 0.1812609
0.3691328 0.1812609
0.7931367 0.4455997
0.8130898 0.4481172
0.8081015 0.4506347
0.8430195 0.3952495
0.8430195 0.3952495
0.8430195 0.3876969
0.8380312 0.397767
0.8380312 0.397767
0.8430195 0.4531523
0.9178437 0.392732
0.9278203 0.3876969
0.1696016 0.2366462
0.2943086 0.1611208
0.3342148 0.2165061
0.3441914 0.1535683
0.3641445 0.196366
0.3691328 0.191331
0.3691328 0.1888134
0.3441914 0.1888134
