1.152293 0.6293781
1.107398 0.629546
1.062504 0.6297138
1.017609 0.6298816
0.9727148 0.6300495
0.9278203 0.6302173
0.8829257 0.6303851
0.8380312 0.630553
0.7931367 0.6307208
0.7482421 0.6308886
0.7033476 0.6310564
0.6584531 0.6312243
0.6135586 0.6313922
0.568664 0.63156
0.5237695 0.6317278
1.07248 0.6318957
1.032907 0.6320634
0.993333 0.6322313
0.9537593 0.6323991
0.9141856 0.632567
0.8746119 0.6327348
0.8350382 0.6329026
0.7954646 0.6330705
0.7558908 0.6332383
0.7163171 0.6334062
0.6767434 0.6335739
0.6371698 0.6337419
0.597596 0.6339096
0.5580224 0.6340775
0.5184487 0.6342453
1.052527 0.6344132
1.014284 0.634581
0.9760403 0.6347488
0.9377968 0.6349167
0.8995533 0.6350845
0.8613098 0.6352524
0.8230664 0.6354201
0.7848229 0.635588
0.7465793 0.6357558
0.7083359 0.6359237
0.6700924 0.6360915
0.6318489 0.6362593
0.5936055 0.6364272
0.5553619 0.636595
0.5171185 0.6367629
1.037562 0.6369306
1.000317 0.6369306
0.9630708 0.6369306
0.925825 0.6369306
0.8885791 0.6369306
0.8513333 0.6369306
0.8140875 0.6369306
0.7768416 0.6369306
0.7395958 0.6369306
0.70235 0.6369306
0.6651041 0.6369306
0.6278583 0.6369306
0.5906125 0.6369306
0.5533667 0.6369306
0.5161208 0.6369306
0.5137929 0.6394482
0.5736523 0.6394482
0.6385 0.1409807
0.6385 0.1434982
0.6335117 0.1359457
0.6385 0.1460157
0.6385 0.1485332
0.6385 0.1510507
0.6385 0.1535683
0.6385 0.1560858
0.6335117 0.1586033
0.6335117 0.1611208
0.6285234 0.1636383
0.6285234 0.1661558
0.6235352 0.1686733
0.6235352 0.1711909
0.6185468 0.1737084
0.6185468 0.1762259
0.6784062 0.2492337
0.6634414 0.2542688
0.6484765 0.2567863
0.6484765 0.2567863
0.6385 0.3851794
0.7133242 0.1460157
0.7133242 0.1485332
0.7133242 0.1510507
0.7133242 0.1535683
0.6833945 0.1560858
0.6784062 0.1586033
0.7183125 0.1409807
0.7183125 0.1409807
0.6784062 0.1611208
0.6784062 0.1283931
0.6734179 0.1309106
0.6734179 0.1334282
0.6734179 0.1636383
0.7133242 0.2441987
0.7033476 0.5513352
0.7083359 0.1560858
0.7133242 0.4531523
0.7133242 0.4556698
0.7133242 0.4581873
0.7133242 0.4607048
0.7133242 0.4632223
0.7133242 0.4657398
0.7133242 0.4682573
0.7133242 0.4707748
0.7133242 0.4858799
0.7133242 0.4883974
0.7133242 0.4909149
0.7133242 0.4934325
0.7083359 0.49595
0.7033476 0.4984675
0.7033476 0.500985
0.7033476 0.5035025
0.7033476 0.50602
0.7033476 0.5085375
0.6983594 0.5387477
0.7033476 0.5412652
0.7033476 0.5437827
0.7033476 0.5463002
0.7033476 0.5538527
0.9427851 0.5966505
0.9261575 0.5968183
0.9095299 0.5969861
0.8929023 0.597154
0.8762746 0.5973218
0.8596471 0.5974897
0.8430195 0.5976574
0.8263919 0.5978253
0.8097643 0.5979931
0.7931367 0.598161
0.7765091 0.5983288
0.7598814 0.5984967
0.7432539 0.5986645
0.7266263 0.5988323
0.7099987 0.5990002
0.9427851 0.599168
0.9261575 0.5993358
0.9095299 0.5995036
0.8929023 0.5996715
0.8762746 0.5998393
0.8596471 0.6000072
0.8430195 0.600175
0.8263919 0.6003429
0.8097643 0.6005107
0.7931367 0.6006785
0.7765091 0.6008463
0.7598814 0.6010142
0.7432539 0.601182
0.7266263 0.6013498
0.7099987 0.6015177
0.9427851 0.6016855
0.9261575 0.6018533
0.9095299 0.6020212
0.8929023 0.602189
0.8762746 0.6023569
0.8596471 0.6025247
0.8430195 0.6026925
0.8263919 0.6028603
0.8097643 0.6030282
0.7931367 0.603196
0.7765091 0.6033638
0.7598814 0.6035317
0.7432539 0.6036995
0.7266263 0.6038674
0.7099987 0.6040352
0.9427851 0.604203
0.9261575 0.6043708
0.9095299 0.6045387
0.8929023 0.6047065
0.8762746 0.6048743
0.8596471 0.6050422
0.8430195 0.60521
0.8263919 0.6053779
0.8097643 0.6055456
0.7931367 0.6057135
0.7765091 0.6058813
0.7598814 0.6060492
0.7432539 0.606217
0.7266263 0.6063849
0.7099987 0.6065527
0.9427851 0.6067205
0.9261575 0.6068884
0.9095299 0.6070562
0.8929023 0.607224
0.8762746 0.6073918
0.8596471 0.6075597
0.8430195 0.6077275
0.8263919 0.6078954
0.8097643 0.6080632
0.7931367 0.6082311
0.7765091 0.6083989
0.7598814 0.6085667
0.7432539 0.6087345
0.7266263 0.6089024
0.7099987 0.6090702
0.9427851 0.609238
0.9261575 0.6094059
0.9095299 0.6095737
0.8929023 0.6097415
0.8762746 0.6099094
0.8596471 0.6100772
0.8430195 0.610245
0.8263919 0.6104129
0.8097643 0.6105807
0.7931367 0.6107485
0.7765091 0.6109164
0.7598814 0.6110842
0.7432539 0.6112521
0.7266263 0.6114199
0.7099987 0.6115877
0.9427851 0.6117555
0.9261575 0.6119234
0.9095299 0.6120912
0.8929023 0.612259
0.8762746 0.6124269
0.8596471 0.6125947
0.8430195 0.6127625
0.8263919 0.6129304
0.8097643 0.6130982
0.7931367 0.6132661
0.7765091 0.6134338
0.7598814 0.6136017
0.7432539 0.6137696
0.7266263 0.6139374
0.7099987 0.6141052
0.9377968 0.6142731
0.9215018 0.6144409
0.9052068 0.6146087
0.8889117 0.6147766
0.8726166 0.6149444
0.8563216 0.6151122
0.8400265 0.61528
0.8237315 0.6154479
0.8074365 0.6156157
0.7911414 0.6157836
0.7748463 0.6159514
0.7585512 0.6161193
0.7422562 0.6162871
0.7259611 0.6164549
0.7096661 0.6166227
0.9377968 0.6167906
0.9215018 0.6169584
0.9052068 0.6171262
0.8889117 0.6172941
0.8726166 0.6174619
0.8563216 0.6176298
0.8400265 0.6177976
0.8237315 0.6179655
0.8074365 0.6181332
0.7911414 0.6183011
0.7748463 0.6184689
0.7585512 0.6186367
0.7422562 0.6188046
0.7259611 0.6189724
0.7096661 0.6191403
0.9278203 0.6193081
0.9121903 0.6194759
0.8965604 0.6196437
0.8809305 0.6198116
0.8653005 0.6199794
0.8496705 0.6201473
0.8340406 0.6203151
0.8184106 0.6204829
0.8027807 0.6206507
0.7871507 0.6208186
0.7715209 0.6209864
0.7558908 0.6211542
0.7402609 0.6213221
0.724631 0.6214899
0.709001 0.6216578
0.798125 0.6218256
0.7911414 0.6218256
0.7841578 0.6218256
0.7771742 0.6218256
0.7701905 0.6218256
0.763207 0.6218256
0.7562234 0.6218256
0.7492398 0.6218256
0.7422562 0.6218256
0.7352726 0.6218256
0.728289 0.6218256
0.7213055 0.6218256
0.7143219 0.6218256
0.7073383 0.6218256
0.7003546 0.6218256
0.7133242 0.1359457
0.7133242 0.4455997
0.7183125 0.4481172
0.7133242 0.4732924
0.7083359 0.4758099
0.7133242 0.4783274
0.7133242 0.4808449
0.7033476 0.5110551
0.7033476 0.5186076
0.7033476 0.5211251
0.9427851 0.5916154
0.9264901 0.5916154
0.9101951 0.5916154
0.8939 0.5916154
0.8776049 0.5916154
0.8613099 0.5916154
0.8450148 0.5916154
0.8287197 0.5916154
0.8124247 0.5916154
0.7961297 0.5916154
0.7798346 0.5916154
0.7635396 0.5916154
0.7472445 0.5916154
0.7309494 0.5916154
0.7146544 0.5916154
0.9328086 0.5110551
0.9188414 0.5108872
0.9048741 0.5107194
0.890907 0.5105516
0.8769398 0.5103837
0.8629726 0.5102158
0.8490054 0.510048
0.8350382 0.5098802
0.8210711 0.5097124
0.8071039 0.5095445
0.7931367 0.5093767
0.7791695 0.5092089
0.7652023 0.509041
0.7512352 0.5088732
0.737268 0.5087054
0.9377968 0.5135726
0.9234971 0.5134047
0.9091973 0.5132369
0.8948976 0.513069
0.8805978 0.5129012
0.8662981 0.5127333
0.8519984 0.5125656
0.8376987 0.5123977
0.8233989 0.5122299
0.8090992 0.512062
0.7947994 0.5118942
0.7804997 0.5117264
0.7662 0.5115585
0.7519003 0.5113907
0.7376005 0.5112229
0.9028789 0.5160901
0.890907 0.5159222
0.8789351 0.5157544
0.8669633 0.5155866
0.8549913 0.5154188
0.8430195 0.5152509
0.8310477 0.5150831
0.8190758 0.5149152
0.8071039 0.5147474
0.795132 0.5145795
0.7831602 0.5144117
0.7711883 0.5142439
0.7592164 0.5140761
0.7472445 0.5139082
0.7352726 0.5137404
0.8829257 0.5186076
0.8722841 0.5184398
0.8616424 0.5182719
0.8510008 0.5181041
0.8403592 0.5179362
0.8297174 0.5177684
0.8190758 0.5176006
0.8084341 0.5174327
0.7977924 0.5172649
0.7871507 0.5170971
0.7765091 0.5169293
0.7658674 0.5167614
0.7552257 0.5165936
0.7445841 0.5164257
0.7339424 0.5162579
0.8829257 0.5186076
0.8722841 0.5186076
0.8616424 0.5186076
0.8510008 0.5186076
0.8403592 0.5186076
0.8297174 0.5186076
0.8190758 0.5186076
0.8084341 0.5186076
0.7977924 0.5186076
0.7871507 0.5186076
0.7765091 0.5186076
0.7658674 0.5186076
0.7552257 0.5186076
0.7445841 0.5186076
0.7339424 0.5186076
0.7482421 0.2416812
0.8679609 0.5211251
0.8603122 0.5211251
0.8526635 0.5211251
0.8450148 0.5211251
0.8373661 0.5211251
0.8297174 0.5211251
0.8220688 0.5211251
0.81442 0.5211251
0.8067713 0.5211251
0.7991226 0.5211251
0.7914739 0.5211251
0.7838252 0.5211251
0.7761766 0.5211251
0.7685278 0.5211251
0.7608791 0.5211251
0.7781718 0.1183231
0.8230664 0.1359457
0.8280547 0.1384632
0.8237315 0.1382954
0.8194083 0.1381275
0.8150851 0.1379597
0.8107619 0.1377918
0.8064388 0.137624
0.8021156 0.1374562
0.7977924 0.1372883
0.7934693 0.1371205
0.7891461 0.1369527
0.7848229 0.1367849
0.7804998 0.136617
0.7761766 0.1364492
0.7718534 0.1362813
0.7675302 0.1361135
0.8230664 0.1409807
0.7831602 0.1434982
0.7831602 0.1460157
0.7831602 0.1460157
0.7831602 0.1283931
0.7831602 0.1485332
0.7781718 0.1510507
0.8579844 0.5236426
0.8526635 0.5236426
0.8473427 0.5236426
0.8420219 0.5236426
0.836701 0.5236426
0.8313802 0.5236426
0.8260594 0.5236426
0.8207385 0.5236426
0.8154177 0.5236426
0.8100968 0.5236426
0.804776 0.5236426
0.7994552 0.5236426
0.7941343 0.5236426
0.7888135 0.5236426
0.7834927 0.5236426
0.8529961 0.5261601
0.8483403 0.5261601
0.8436846 0.5261601
0.8390288 0.5261601
0.8343731 0.5261601
0.8297174 0.5261601
0.8250617 0.5261601
0.820406 0.5261601
0.8157502 0.5261601
0.8110945 0.5261601
0.8064388 0.5261601
0.8017831 0.5261601
0.7971273 0.5261601
0.7924716 0.5261601
0.7878159 0.5261601
0.8230664 0.1434982
0.8230664 0.1460157
0.8180781 0.1485332
0.8180781 0.1485332
0.8230664 0.1233581
0.8130898 0.1510507
0.8380312 0.2391637
0.9028789 0.1183231
0.8978906 0.1132881
0.9028789 0.1208406
0.9028789 0.1233581
0.8978906 0.1258756
0.9028789 0.1283931
0.8978906 0.1309106
0.8978906 0.1334282
0.8929023 0.108253
0.8929023 0.108253
0.8978906 0.1384632
0.8978906 0.1409807
0.8978906 0.1409807
0.8929023 0.2114711
0.8829257 0.1007005
0.8929023 0.1434982
0.8929023 0.1460157
0.8679609 0.2139886
0.8679609 0.2139886
0.887914 0.1485332
0.8779374 0.1510507
0.887914 0.09314796
0.9427851 0.5790279
0.9427851 0.5815454
0.9427851 0.5815454
0.9427851 0.5689578
0.9427851 0.5714753
0.9278203 0.4380472
0.9328086 0.4179071
0.9328086 0.4179071
0.9427851 0.4103546
0.9328086 0.4204246
0.9278203 0.4254596
0.922832 0.4279771
0.922832 0.4304946
0.9328086 0.4405647
0.9328086 0.4455997
0.9328086 0.4481172
0.9377968 0.4506347
0.9377968 0.4531523
0.9377968 0.4556698
0.9377968 0.4556698
0.9328086 0.49595
0.9377968 0.4607048
0.9377968 0.4632223
0.9377968 0.4657398
0.9377968 0.4682573
0.9377968 0.4682573
0.9377968 0.4833624
0.9377968 0.4858799
0.9328086 0.4883974
0.9328086 0.4909149
0.9328086 0.4909149
0.9377968 0.4732924
0.9377968 0.4758099
0.9377968 0.4758099
0.9427851 0.5160901
0.9427851 0.5186076
0.9777031 0.5588878
0.9727148 0.5815454
0.9727148 0.5815454
1.017609 0.5765104
1.017609 0.5765104
1.022598 0.5538527
1.057516 0.5513352
1.147305 0.6318957
1.142981 0.6318957
1.138658 0.6318957
1.134335 0.6318957
1.130012 0.6318957
1.125689 0.6318957
1.121366 0.6318957
1.117042 0.6318957
1.112719 0.6318957
1.108396 0.6318957
1.104073 0.6318957
1.09975 0.6318957
1.095427 0.6318957
1.091103 0.6318957
1.08678 0.6318957
1.137328 0.6369306
1.137328 0.6369306
1.127352 0.609238
1.13234 0.6117555
1.137328 0.6142731
1.13234 0.6394482
0.6883828 0.6268606
0.6744156 0.6268606
0.6604484 0.6268606
0.6464813 0.6268606
0.6325141 0.6268606
0.6185468 0.6268606
0.6045796 0.6268606
0.5906125 0.6268606
0.5766453 0.6268606
0.5626781 0.6268606
0.5487109 0.6268606
0.5347437 0.6268606
0.5207766 0.6268606
0.5068094 0.6268606
0.4928422 0.6268606
0.7183125 0.2416812
0.7133242 0.2416812
0.7083359 0.2416812
0.7033476 0.2416812
0.6983594 0.2416812
0.6933711 0.2416812
0.6883828 0.2416812
0.6833945 0.2416812
0.6784062 0.2416812
0.6734179 0.2416812
0.6684297 0.2416812
0.6634414 0.2416812
0.6584531 0.2416812
0.6534648 0.2416812
0.6484765 0.2416812
0.9427851 0.594133
0.9261575 0.594133
0.9095299 0.594133
0.8929023 0.594133
0.8762746 0.594133
0.8596471 0.594133
0.8430195 0.594133
0.8263919 0.594133
0.8097643 0.594133
0.7931367 0.594133
0.7765091 0.594133
0.7598814 0.594133
0.7432539 0.594133
0.7266263 0.594133
0.7099987 0.594133
0.9427851 0.5890979
0.9264901 0.5890979
0.9101951 0.5890979
0.8939 0.5890979
0.8776049 0.5890979
0.8613099 0.5890979
0.8450148 0.5890979
0.8287197 0.5890979
0.8124247 0.5890979
0.7961297 0.5890979
0.7798346 0.5890979
0.7635396 0.5890979
0.7472445 0.5890979
0.7309494 0.5890979
0.7146544 0.5890979
0.7083359 0.1309106
0.9278203 0.5035025
0.9145182 0.5035025
0.9012161 0.5035025
0.887914 0.5035025
0.8746119 0.5035025
0.8613099 0.5035025
0.8480078 0.5035025
0.8347057 0.5035025
0.8214036 0.5035025
0.8081015 0.5035025
0.7947994 0.5035025
0.7814974 0.5035025
0.7681953 0.5035025
0.7548932 0.5035025
0.7415912 0.5035025
0.7831602 0.1258756
1.147305 0.6268606
1.124359 0.6268606
1.101412 0.6268606
1.078466 0.6268606
1.05552 0.6268606
1.032574 0.6268606
1.009628 0.6268606
0.986682 0.6268606
0.9637359 0.6268606
0.9407898 0.6268606
0.9178437 0.6268606
0.8948976 0.6268606
0.8719515 0.6268606
0.8490054 0.6268606
0.8260594 0.6268606
0.8130898 0.1208406
0.8779374 0.09818299
0.922832 0.6243431
0.9926679 0.5563703
0.9926679 0.5538527
0.9876797 0.5739928
1.017609 0.5714753
1.152293 0.6193081
1.142316 0.6167906
0.5337461 0.6243431
0.5287578 0.6193081
0.5536992 0.6243431
0.5786406 0.6243431
0.6584531 0.6243431
0.6541299 0.6243431
0.6498067 0.6243431
0.6454836 0.6243431
0.6411604 0.6243431
0.6368372 0.6243431
0.6325141 0.6243431
0.6281909 0.6243431
0.6238677 0.6243431
0.6195445 0.6243431
0.6152213 0.6243431
0.6108981 0.6243431
0.606575 0.6243431
0.6022518 0.6243431
0.5979286 0.6243431
0.6784062 0.2467162
0.6784062 0.2441987
0.7133242 0.1434982
0.7083359 0.1334282
0.7382656 0.5865804
0.9328086 0.50602
0.9188414 0.50602
0.9048741 0.50602
0.890907 0.50602
0.8769398 0.50602
0.8629726 0.50602
0.8490054 0.50602
0.8350382 0.50602
0.8210711 0.50602
0.8071039 0.50602
0.7931367 0.50602
0.7791695 0.50602
0.7652023 0.50602
0.7512352 0.50602
0.737268 0.50602
0.9278203 0.500985
0.9148507 0.500985
0.9018812 0.500985
0.8889117 0.500985
0.8759422 0.500985
0.8629726 0.500985
0.8500031 0.500985
0.8370336 0.500985
0.824064 0.500985
0.8110945 0.500985
0.798125 0.500985
0.7851554 0.500985
0.7721859 0.500985
0.7592164 0.500985
0.7462469 0.500985
0.7781718 0.5865804
0.7881484 0.1309106
0.9278203 0.4984675
0.9168461 0.4984675
0.9058719 0.4984675
0.8948976 0.4984675
0.8839234 0.4984675
0.8729492 0.4984675
0.861975 0.4984675
0.8510008 0.4984675
0.8400265 0.4984675
0.8290523 0.4984675
0.8180781 0.4984675
0.8071039 0.4984675
0.7961297 0.4984675
0.7851554 0.4984675
0.7741812 0.4984675
0.8679609 0.49595
0.8616424 0.49595
0.855324 0.49595
0.8490054 0.49595
0.842687 0.49595
0.8363685 0.49595
0.8300499 0.49595
0.8237315 0.49595
0.817413 0.49595
0.8110945 0.49595
0.804776 0.49595
0.7984575 0.49595
0.7921391 0.49595
0.7858205 0.49595
0.779502 0.49595
0.8629726 0.4934325
0.8576518 0.4934325
0.852331 0.4934325
0.8470101 0.4934325
0.8416893 0.4934325
0.8363685 0.4934325
0.8310477 0.4934325
0.8257267 0.4934325
0.820406 0.4934325
0.8150851 0.4934325
0.8097643 0.4934325
0.8044434 0.4934325
0.7991226 0.4934325
0.7938018 0.4934325
0.7884809 0.4934325
0.798125 0.5865804
0.8230664 0.1309106
0.8230664 0.1258756
0.8529961 0.4909149
0.9427851 0.5865804
0.9358016 0.5865804
0.9288179 0.5865804
0.9218343 0.5865804
0.9148507 0.5865804
0.9078671 0.5865804
0.9008836 0.5865804
0.8939 0.5865804
0.8869164 0.5865804
0.8799328 0.5865804
0.8729492 0.5865804
0.8659656 0.5865804
0.858982 0.5865804
0.8519984 0.5865804
0.8450148 0.5865804
0.8929023 0.1107706
0.9078671 0.49595
0.9427851 0.5840629
0.9427851 0.5739928
0.9377968 0.5664403
0.9278203 0.4355297
0.9377968 0.5639228
0.9477734 0.407837
0.9377968 0.412872
0.9328086 0.4229421
0.922832 0.4330122
0.95775 0.4053195
0.9328086 0.4934325
0.9477734 0.402802
0.9377968 0.4783274
1.152293 0.6243431
1.138658 0.6243431
1.125024 0.6243431
1.111389 0.6243431
1.097754 0.6243431
1.08412 0.6243431
1.070485 0.6243431
1.05685 0.6243431
1.043216 0.6243431
1.029581 0.6243431
1.015947 0.6243431
1.002312 0.6243431
0.9886773 0.6243431
0.9750427 0.6243431
0.9614081 0.6243431
1.152293 0.6218256
1.141651 0.6218256
1.13101 0.6218256
1.120368 0.6218256
1.109726 0.6218256
1.099085 0.6218256
1.088443 0.6218256
1.077801 0.6218256
1.06716 0.6218256
1.056518 0.6218256
1.045876 0.6218256
1.035235 0.6218256
1.024593 0.6218256
1.013951 0.6218256
1.00331 0.6218256
1.027586 0.6193081
1.057516 0.5488178
1.057516 0.5890979
1.077469 0.6193081
1.24707 0.6419657
1.242082 0.6318957
0.5088047 0.609238
0.6335117 0.1334282
0.6285234 0.1309106
0.6235352 0.1283931
0.6235352 0.1258756
0.6235352 0.1233581
0.6385 0.3826619
0.6784062 0.1359457
0.6684297 0.2391637
0.6784062 0.1258756
0.7532305 0.2391637
0.7485747 0.2391637
0.743919 0.2391637
0.7392632 0.2391637
0.7346075 0.2391637
0.7299518 0.2391637
0.725296 0.2391637
0.7206404 0.2391637
0.7159846 0.2391637
0.7113289 0.2391637
0.7066731 0.2391637
0.7020174 0.2391637
0.6973617 0.2391637
0.692706 0.2391637
0.6880502 0.2391637
0.6983594 0.5362301
0.7033476 0.5488178
0.7183125 0.4506347
0.7133242 0.4833624
0.7133242 0.2366462
0.7033476 0.4430822
0.7532305 0.2366462
0.7731836 0.1158056
0.8380312 0.2366462
0.8480078 0.2341287
0.8230664 0.1107706
0.8480078 0.2316111
0.8978906 0.1158056
0.8829257 0.103218
0.9028789 0.2089535
0.9078671 0.2039185
0.9078671 0.201401
0.887914 0.09063045
0.9826913 0.5790279
0.9727148 0.5739928
1.017609 0.5513352
1.057516 0.5865804
1.13234 0.6067205
1.142316 0.604203
1.13234 0.6016855
0.6385 0.1384632
0.5936055 0.1384632
