0.4688984 0.6293781
0.5041709 0.6293781
0.4512622 0.6139616
0.4512622 0.6447946
0.4838633 0.6117555
0.5061715 0.6117555
0.4727091 0.6020052
0.4727091 0.6215059
0.4988281 0.6419657
0.5341006 0.6419657
0.4811918 0.6265492
0.4811918 0.6573822
0.5137929 0.609238
0.5490654 0.609238
0.4961567 0.5938215
0.4961567 0.6246546
0.5287578 0.6369306
0.5578442 0.6369306
0.5142146 0.6242179
0.5142146 0.6496435
0.5437226 0.6142731
0.572809 0.6142731
0.5291795 0.6015603
0.5291795 0.6269858
0.5586874 0.6394482
0.5841228 0.6394482
0.5459698 0.6283312
0.5459698 0.6505653
0.5736523 0.6142731
0.6027387 0.6142731
0.5591091 0.6015603
0.5591091 0.6269858
0.5886171 0.6419657
0.6140525 0.6419657
0.5758995 0.6308486
0.5758995 0.6530828
0.603582 0.1737084
0.6304447 0.1737084
0.5901507 0.1619675
0.5901507 0.1854493
0.6085703 0.3146891
0.6405109 0.3146891
0.5926 0.3007288
0.5926 0.3286494
0.6135586 0.6193081
0.6404213 0.6193081
0.6001272 0.6075672
0.6001272 0.631049
0.6185468 0.299584
0.6439822 0.299584
0.6058292 0.288467
0.6058292 0.310701
0.6185468 0.3297941
0.6454096 0.3297941
0.6051155 0.3180532
0.6051155 0.3415351
0.6185468 0.3448992
0.6476333 0.3448992
0.6040037 0.3321864
0.6040037 0.357612
0.6185468 0.6419657
0.6434882 0.6419657
0.6060761 0.6310645
0.6060761 0.6528669
0.6235352 0.1183231
0.6588076 0.1183231
0.6058989 0.1029065
0.6058989 0.1337397
0.6235352 0.2517512
0.6526216 0.2517512
0.6089919 0.2390384
0.6089919 0.2644641
0.6235352 0.3600043
0.6554757 0.3600043
0.6075649 0.346044
0.6075649 0.3739646
0.6285234 0.2366462
0.6539587 0.2366462
0.6158057 0.2255291
0.6158057 0.2477632
0.6335117 0.1636383
0.6687842 0.1636383
0.6158754 0.1482218
0.6158755 0.1790549
0.6335117 0.3876969
0.6603744 0.3876969
0.6200804 0.375956
0.6200804 0.3994378
0.6385 0.1334282
0.6653627 0.1334282
0.6250686 0.1216873
0.6250686 0.1451691
0.6484765 0.6419657
0.6734179 0.6419657
0.6360058 0.6310645
0.6360058 0.6528669
0.6584531 0.2391637
0.6853158 0.2391637
0.6450217 0.2274228
0.6450217 0.2509046
0.6634414 0.1611208
0.6987139 0.1611208
0.6458051 0.1457042
0.6458051 0.1765374
0.6634414 0.3876969
0.6987139 0.3876969
0.6458051 0.3722804
0.6458051 0.4031135
0.6684297 0.6218256
0.6952924 0.6218256
0.6549983 0.6100847
0.6549983 0.6335665
0.6784062 0.1233581
0.7103468 0.1233581
0.6624359 0.1093978
0.6624359 0.1373184
0.6933711 0.1586033
0.7286436 0.1586033
0.6757348 0.1431867
0.6757348 0.1740198
0.6933711 0.2366462
0.7253116 0.2366462
0.6774008 0.2226859
0.6774008 0.2506065
0.6933711 0.397767
0.7202338 0.397767
0.6799397 0.3860261
0.6799397 0.4095079
0.6933711 0.5563703
0.7286436 0.5563703
0.6757348 0.5409538
0.6757348 0.5717868
0.6983594 0.6243431
0.7237946 0.6243431
0.6856416 0.6132261
0.6856416 0.6354601
0.7033476 0.4380472
0.7302103 0.4380472
0.6899163 0.4263063
0.6899163 0.4497881
0.7033476 0.5135726
0.7386202 0.5135726
0.6857114 0.498156
0.6857114 0.5289891
0.7033476 0.5286776
0.7386202 0.5286776
0.6857114 0.5132611
0.6857114 0.5440941
0.7033476 0.5714753
0.7386202 0.5714753
0.6857114 0.5560588
0.6857114 0.5868919
0.7083359 0.4758099
0.7436084 0.4758099
0.6906996 0.4603933
0.6906996 0.4912264
0.7083359 0.4984675
0.7436084 0.4984675
0.6906996 0.4830509
0.6906996 0.513884
0.7133242 0.1258756
0.7485967 0.1258756
0.6956879 0.1104591
0.6956879 0.1412922
0.7183125 0.1409807
0.753585 0.1409807
0.7006762 0.1255641
0.7006762 0.1563973
0.7233008 0.1560858
0.7585733 0.1560858
0.7056645 0.1406692
0.7056645 0.1715023
0.7233008 0.2416812
0.7501634 0.2416812
0.7098694 0.2299403
0.7098694 0.2534221
0.7233008 0.4002845
0.7487361 0.4002845
0.710583 0.3891675
0.710583 0.4114015
0.7233008 0.5437827
0.7585733 0.5437827
0.7056645 0.5283661
0.7056645 0.5591993
0.728289 0.6243431
0.7537243 0.6243431
0.7155713 0.6132261
0.7155713 0.6354601
0.7332773 0.4355297
0.7685498 0.4355297
0.7156411 0.4201131
0.7156411 0.4509462
0.7332773 0.5236426
0.7685498 0.5236426
0.7156411 0.5082261
0.7156411 0.5390592
0.7332773 0.5588878
0.7685498 0.5588878
0.7156411 0.5434712
0.7156411 0.5743043
0.7332773 0.5739928
0.7685498 0.5739928
0.7156411 0.5585763
0.7156411 0.5894094
0.7382656 0.4833624
0.7735381 0.4833624
0.7206293 0.4679459
0.7206293 0.4987789
0.7382656 0.4984675
0.7735381 0.4984675
0.7206293 0.4830509
0.7206293 0.513884
0.7432539 0.1233581
0.7785264 0.1233581
0.7256176 0.1079416
0.7256176 0.1387747
0.7482421 0.1384632
0.7835147 0.1384632
0.7306059 0.1230466
0.7306059 0.1538797
0.7532305 0.1535683
0.7885029 0.1535683
0.7355942 0.1381517
0.7355942 0.1689848
0.7532305 0.2416812
0.7786658 0.2416812
0.7405127 0.2305642
0.7405127 0.2527982
0.7532305 0.4002845
0.7800931 0.4002845
0.7397991 0.3885436
0.7397991 0.4120254
0.7532305 0.5387477
0.7885029 0.5387477
0.7355942 0.5233312
0.7355942 0.5541642
0.7582187 0.6243431
0.783654 0.6243431
0.745501 0.6132261
0.745501 0.6354601
0.763207 0.4380472
0.7900697 0.4380472
0.7497756 0.4263063
0.7497756 0.4497881
0.763207 0.5236426
0.7984795 0.5236426
0.7455707 0.5082261
0.7455707 0.5390592
0.763207 0.5538527
0.7984795 0.5538527
0.7455707 0.5384362
0.7455707 0.5692693
0.763207 0.5689578
0.7984795 0.5689578
0.7455707 0.5535413
0.7455707 0.5843744
0.763207 0.5840629
0.7984795 0.5840629
0.7455707 0.5686464
0.7455707 0.5994794
0.7681953 0.4808449
0.8034678 0.4808449
0.750559 0.4654284
0.750559 0.4962614
0.7681953 0.49595
0.8034678 0.49595
0.750559 0.4805334
0.750559 0.5113665
0.7731836 0.1183231
0.8084561 0.1183231
0.7555473 0.1029065
0.7555473 0.1337397
0.7831602 0.1510507
0.8184326 0.1510507
0.7655239 0.1356342
0.7655239 0.1664673
0.7831602 0.4002845
0.8085954 0.4002845
0.7704424 0.3891675
0.7704424 0.4114015
0.7831602 0.5387477
0.8184326 0.5387477
0.7655239 0.5233312
0.7655239 0.5541642
0.7881484 0.2341287
0.8135837 0.2341287
0.7754307 0.2230116
0.7754307 0.2452457
0.7881484 0.6243431
0.8135837 0.6243431
0.7754307 0.6132261
0.7754307 0.6354601
0.7931367 0.4355297
0.8284092 0.4355297
0.7755004 0.4201131
0.7755004 0.4509462
0.7931367 0.5538527
0.8284092 0.5538527
0.7755004 0.5384362
0.7755004 0.5692693
0.7931367 0.5689578
0.8284092 0.5689578
0.7755004 0.5535413
0.7755004 0.5843744
0.7931367 0.5840629
0.8284092 0.5840629
0.7755004 0.5686464
0.7755004 0.5994794
0.798125 0.4808449
0.8333975 0.4808449
0.7804887 0.4654284
0.7804887 0.4962614
0.8031132 0.1208406
0.8350538 0.1208406
0.7871429 0.1068803
0.7871429 0.1348009
0.8031132 0.6419657
0.8230664 0.6419657
0.7931367 0.6332448
0.7931367 0.6506866
0.8130898 0.1535683
0.8421762 0.1535683
0.7985466 0.1408554
0.7985467 0.1662811
0.8130898 0.397767
0.8399525 0.397767
0.7996585 0.3860261
0.7996585 0.4095079
0.8130898 0.5286776
0.8483623 0.5286776
0.7954535 0.5132611
0.7954535 0.5440941
0.8180781 0.2316111
0.8500187 0.2316111
0.8021078 0.2176509
0.8021078 0.2455714
0.8230664 0.4380472
0.8583389 0.4380472
0.8054301 0.4226306
0.8054301 0.4534637
0.8230664 0.5437827
0.8583389 0.5437827
0.8054301 0.5283661
0.8054301 0.5591993
0.8230664 0.5588878
0.8583389 0.5588878
0.8054301 0.5434712
0.8054301 0.5743043
0.8230664 0.5739928
0.8583389 0.5739928
0.8054301 0.5585763
0.8054301 0.5894094
0.8280547 0.4783274
0.8633271 0.4783274
0.8104184 0.4629108
0.8104184 0.4937439
0.8330429 0.1158056
0.8683155 0.1158056
0.8154067 0.100389
0.8154067 0.1312221
0.8430195 0.1384632
0.878292 0.1384632
0.8253832 0.1230466
0.8253832 0.1538797
0.8430195 0.1535683
0.8698822 0.1535683
0.8295882 0.1418274
0.8295882 0.1653092
0.8430195 0.3776269
0.878292 0.3776269
0.8253832 0.3622103
0.8253832 0.3930434
0.8430195 0.392732
0.878292 0.392732
0.8253832 0.3773154
0.8253832 0.4081485
0.8480078 0.2316111
0.8637821 0.2316111
0.8401206 0.2247166
0.8401206 0.2385057
0.8480078 0.4153896
0.8832803 0.4153896
0.8303715 0.399973
0.8303715 0.4308061
0.8480078 0.5286776
0.8832803 0.5286776
0.8303715 0.5132611
0.8303715 0.5440941
0.8529961 0.4355297
0.8882686 0.4355297
0.8353598 0.4201131
0.8353598 0.4509462
0.8529961 0.4506347
0.8882686 0.4506347
0.8353598 0.4352182
0.8353598 0.4660513
0.8529961 0.5538527
0.8882686 0.5538527
0.8353598 0.5384362
0.8353598 0.5692693
0.8529961 0.5689578
0.8882686 0.5689578
0.8353598 0.5535413
0.8353598 0.5843744
0.8529961 0.5840629
0.8882686 0.5840629
0.8353598 0.5686464
0.8353598 0.5994794
0.8579844 0.1007005
0.8932568 0.1007005
0.8403481 0.08528394
0.8403481 0.1161171
0.8579844 0.4783274
0.8932568 0.4783274
0.8403481 0.4629108
0.8403481 0.4937439
0.8629726 0.2165061
0.8629726 0.2165061
0.8629726 0.2165061
0.8629726 0.2165061
0.8679609 0.201401
0.8679609 0.201401
0.8679609 0.201401
0.8679609 0.201401
0.8679609 0.4934325
0.9032334 0.4934325
0.8503246 0.4780159
0.8503246 0.508849
0.8729492 0.1535683
0.9082217 0.1535683
0.8553129 0.1381517
0.8553129 0.1689848
0.8729492 0.392732
0.9082217 0.392732
0.8553129 0.3773154
0.8553129 0.4081485
0.8779374 0.407837
0.91321 0.407837
0.8603012 0.3924205
0.8603012 0.4232536
0.8779374 0.5211251
0.91321 0.5211251
0.8603012 0.5057086
0.8603012 0.5365416
0.8779374 0.5362301
0.91321 0.5362301
0.8603012 0.5208136
0.8603012 0.5516467
0.8829257 0.4229421
0.9181983 0.4229421
0.8652895 0.4075256
0.8652895 0.4383586
0.8829257 0.4380472
0.9181983 0.4380472
0.8652895 0.4226306
0.8652895 0.4534637
0.8829257 0.4531523
0.9181983 0.4531523
0.8652895 0.4377357
0.8652895 0.4685688
0.8829257 0.5538527
0.9181983 0.5538527
0.8652895 0.5384362
0.8652895 0.5692693
0.8829257 0.5689578
0.9181983 0.5689578
0.8652895 0.5535413
0.8652895 0.5843744
0.8829257 0.5840629
0.9181983 0.5840629
0.8652895 0.5686464
0.8652895 0.5994794
0.887914 0.09063045
0.9198546 0.09063045
0.8719437 0.07667018
0.8719437 0.1045907
0.887914 0.4783274
0.9231865 0.4783274
0.8702778 0.4629108
0.8702778 0.4937439
0.8929023 0.1057355
0.9281748 0.1057355
0.8752661 0.09031897
0.8752661 0.1211521
0.8978906 0.4934325
0.9331631 0.4934325
0.8802543 0.4780159
0.8802543 0.508849
0.9028789 0.1283931
0.9128554 0.1283931
0.8978906 0.1240327
0.8978906 0.1327536
0.9078671 0.2089535
0.9328086 0.2089535
0.8953965 0.1980524
0.8953965 0.2198547
0.9078671 0.3952495
0.9431397 0.3952495
0.8902309 0.3798329
0.8902309 0.410666
0.9078671 0.5160901
0.9431397 0.5160901
0.8902309 0.5006735
0.8902309 0.5315066
0.9078671 0.5311952
0.9431397 0.5311952
0.8902309 0.5157786
0.8902309 0.5466117
0.9128554 0.4430822
0.9481279 0.4430822
0.8952192 0.4276657
0.8952192 0.4584987
0.9128554 0.5538527
0.9481279 0.5538527
0.8952192 0.5384362
0.8952192 0.5692693
0.9178437 0.4783274
0.9531162 0.4783274
0.9002075 0.4629108
0.9002075 0.4937439
0.9328086 0.4254596
0.9680811 0.4254596
0.9151723 0.4100431
0.9151723 0.4408762
0.9377968 0.3952495
0.9730694 0.3952495
0.9201606 0.3798329
0.9201606 0.410666
0.9377968 0.5211251
0.9730694 0.5211251
0.9201606 0.5057086
0.9201606 0.5365416
0.9377968 0.5362301
0.9730694 0.5362301
0.9201606 0.5208136
0.9201606 0.5516467
0.9427851 0.4405647
0.9747257 0.4405647
0.9268148 0.4266044
0.9268148 0.454525
0.9427851 0.5614053
0.9718716 0.5614053
0.9282418 0.5486925
0.928242 0.5741181
0.9427851 0.6142731
0.9718716 0.6142731
0.9282418 0.6015603
0.928242 0.6269858
0.9477734 0.4103546
0.9830459 0.4103546
0.9301372 0.394938
0.9301372 0.4257711
0.9477734 0.6419657
0.9727148 0.6419657
0.9353027 0.6310645
0.9353027 0.6528669
0.95775 0.1485332
0.9930225 0.1485332
0.9401137 0.1331167
0.9401137 0.1639498
0.95775 0.196366
0.9930225 0.196366
0.9401137 0.1809494
0.9401137 0.2117825
0.9627382 0.1636383
0.9980108 0.1636383
0.945102 0.1482218
0.945102 0.1790549
0.9627382 0.1787434
0.9980108 0.1787434
0.945102 0.1633268
0.945102 0.1941599
0.9627382 0.4254596
0.9980108 0.4254596
0.945102 0.4100431
0.945102 0.4408762
0.9727148 0.5815454
1.007987 0.5815454
0.9550785 0.5661288
0.9550785 0.5969619
0.9727148 0.6193081
0.9995775 0.6193081
0.9592835 0.6075672
0.9592835 0.631049
0.9777031 0.2114711
1.012976 0.2114711
0.9600669 0.1960545
0.9600669 0.2268876
0.9777031 0.4002845
1.012976 0.4002845
0.9600669 0.384868
0.9600669 0.415701
0.9777031 0.6419657
1.002645 0.6419657
0.9652324 0.6310645
0.9652324 0.6528669
0.9826913 0.5513352
1.017964 0.5513352
0.9650551 0.5359187
0.9650552 0.5667518
0.9876797 0.1938485
1.022952 0.1938485
0.9700434 0.1784319
0.9700435 0.209265
0.9876797 0.2265761
1.022952 0.2265761
0.9700434 0.2111596
0.9700435 0.2419927
0.9876797 0.5664403
1.022952 0.5664403
0.9700434 0.5510238
0.9700435 0.5818568
0.9926679 0.1611208
1.02794 0.1611208
0.9750317 0.1457042
0.9750317 0.1765374
0.9926679 0.1762259
1.02794 0.1762259
0.9750317 0.1608093
0.9750317 0.1916424
1.002645 0.2416812
1.037917 0.2416812
0.9850082 0.2262646
0.9850083 0.2570978
1.002645 0.5815454
1.037917 0.5815454
0.9850082 0.5661288
0.9850083 0.5969619
1.002645 0.6142731
1.031731 0.6142731
0.9881013 0.6015603
0.9881013 0.6269858
1.007633 0.2089535
1.042905 0.2089535
0.9899965 0.193537
0.9899966 0.2243701
1.007633 0.6419657
1.033068 0.6419657
0.9949151 0.6308486
0.9949151 0.6530828
1.017609 0.191331
1.052882 0.191331
0.9999731 0.1759144
0.9999732 0.2067475
1.017609 0.2240586
1.052882 0.2240586
0.9999731 0.2086421
0.9999732 0.2394752
1.022598 0.5563703
1.05787 0.5563703
1.004961 0.5409538
1.004961 0.5717868
1.032574 0.2391637
1.067847 0.2391637
1.014938 0.2237471
1.014938 0.2545803
1.032574 0.6142731
1.059437 0.6142731
1.019143 0.6025321
1.019143 0.626014
1.037562 0.6369306
1.064425 0.6369306
1.024131 0.6251898
1.024131 0.6486716
1.042551 0.5865804
1.071637 0.5865804
1.028008 0.5738676
1.028008 0.5992932
1.052527 0.5463002
1.0878 0.5463002
1.034891 0.5308837
1.034891 0.5617167
1.052527 0.5689578
1.0878 0.5689578
1.034891 0.5535413
1.034891 0.5843744
1.062504 0.6067205
1.097776 0.6067205
1.044868 0.591304
1.044868 0.6221371
1.067492 0.6344132
1.096579 0.6344132
1.052949 0.6217003
1.052949 0.647126
1.092434 0.604203
1.127706 0.604203
1.074797 0.5887865
1.074797 0.6196195
1.097422 0.6369306
1.124285 0.6369306
1.08399 0.6251898
1.08399 0.6486716
1.122363 0.6016855
1.149226 0.6016855
1.108932 0.5899446
1.108932 0.6134264
1.127352 0.6419657
1.162624 0.6419657
1.109715 0.6265492
1.109715 0.6573822
1.147305 0.6167906
1.182577 0.6167906
1.129668 0.601374
1.129668 0.6322071
1.157281 0.6318957
1.189222 0.6318957
1.141311 0.6179354
1.141311 0.645856
1.187211 0.6293781
1.212646 0.6293781
1.174493 0.6182611
1.174493 0.6404952
1.227117 0.6318957
1.249425 0.6318957
1.215963 0.6221454
1.215963 0.6416459
1.249425 0.6318957
