0.4975205 0.3671875
0.496951 0.3671875
0.4963813 0.3671875
0.4958117 0.3671875
0.4952421 0.3671875
0.4946724 0.3671875
0.4941029 0.3671875
0.4935333 0.3671875
0.4929636 0.3671875
0.492394 0.3671875
0.4918244 0.3671875
0.4912548 0.3671875
0.4906852 0.3671875
0.4901156 0.3671875
0.4895459 0.3671875
0.514609 0.3671875
0.5140394 0.3671875
0.5134698 0.3671875
0.5129001 0.3671875
0.5123305 0.3671875
0.511761 0.3671875
0.5111912 0.3671875
0.5106217 0.3671875
0.5100521 0.3671875
0.5094824 0.3671875
0.5089128 0.3671875
0.5083432 0.3671875
0.5077736 0.3671875
0.5072039 0.3671875
0.5066344 0.3671875
0.7495747 0.3515625
0.7487203 0.3515625
0.7478659 0.3515625
0.7470114 0.3515625
0.746157 0.3515625
0.7453026 0.3515625
0.7444482 0.3515625
0.7435938 0.3515625
0.7427393 0.3515625
0.7418849 0.3515625
0.7410305 0.3515625
0.7401761 0.3515625
0.7393216 0.3515625
0.7384672 0.3515625
0.7376128 0.3515625
0.9631799 0.65625
0.962895 0.65625
0.9626102 0.65625
0.9623255 0.65625
0.9620407 0.65625
0.9617558 0.65625
0.961471 0.65625
0.9611862 0.65625
0.9609014 0.65625
0.9606166 0.65625
0.9603319 0.65625
0.9600469 0.65625
0.9597622 0.65625
0.9594774 0.65625
0.9591926 0.65625
0.9930846 0.03125
0.992515 0.03125
0.9919454 0.03125
0.9913757 0.03125
0.9908062 0.03125
0.9902366 0.03125
0.9896669 0.03125
0.9890973 0.03125
0.9885277 0.03125
0.9879581 0.03125
0.9873884 0.03125
0.9868188 0.03125
0.9862492 0.03125
0.9856796 0.03125
0.98511 0.03125
0.1087591 0.265625
0.1076199 0.2661458
0.1064807 0.2666667
0.1053414 0.2671875
0.1042022 0.2677083
0.103063 0.2682292
0.1019237 0.26875
0.1007845 0.2692708
0.09964529 0.2697917
0.09850605 0.2703125
0.09736684 0.2708333
0.0962276 0.2713542
0.09508839 0.271875
0.09394915 0.2723958
0.09280994 0.2729167
0.1642964 0.1796875
0.1637269 0.1796875
0.1631572 0.1796875
0.1625876 0.1796875
0.162018 0.1796875
0.1614484 0.1796875
0.1608788 0.1796875
0.1603092 0.1796875
0.1597396 0.1796875
0.1591699 0.1796875
0.1586003 0.1796875
0.1580307 0.1796875
0.1574611 0.1796875
0.1568915 0.1796875
0.1563219 0.1796875
0.1685686 0.21875
0.1682838 0.21875
0.167999 0.21875
0.1677141 0.21875
0.1674293 0.21875
0.1671445 0.21875
0.1668597 0.21875
0.1665749 0.21875
0.1662901 0.21875
0.1660053 0.21875
0.1657205 0.21875
0.1654357 0.21875
0.1651509 0.21875
0.1648661 0.21875
0.1645813 0.21875
0.2027454 0.1875
0.2024606 0.1875
0.2021758 0.1875
0.201891 0.1875
0.2016062 0.1875
0.2013213 0.1875
0.2010365 0.1875
0.2007517 0.1875
0.2004669 0.1875
0.2001821 0.1875
0.1998973 0.1875
0.1996125 0.1875
0.1993277 0.1875
0.1990429 0.1875
0.1987581 0.1875
0.2839153 0.0390625
0.2836305 0.0390625
0.2833458 0.0390625
0.283061 0.0390625
0.2827761 0.0390625
0.2824913 0.0390625
0.2822065 0.0390625
0.2819217 0.0390625
0.2816369 0.0390625
0.2813521 0.0390625
0.2810673 0.0390625
0.2807825 0.0390625
0.2804977 0.0390625
0.2802129 0.0390625
0.2799281 0.0390625
0.3138201 0
0.3135353 0
0.3132505 0
0.3129657 0
0.3126808 0
0.312396 0
0.3121113 0
0.3118264 0
0.3115416 0
0.3112568 0
0.310972 0
0.3106872 0
0.3104024 0
0.3101176 0
0.3098328 0
0.3479969 0
0.3477121 0
0.3474273 0
0.3471425 0
0.3468577 0
0.3465729 0
0.3462881 0
0.3460033 0
0.3457185 0
0.3454337 0
0.3451489 0
0.3448641 0
0.3445792 0
0.3442944 0
0.3440096 0
0.4804321 0.46875
0.4790081 0.4692708
0.477584 0.4697917
0.47616 0.4703125
0.474736 0.4708333
0.4733119 0.4713542
0.4718879 0.471875
0.4704639 0.4723958
0.4690398 0.4729167
0.4676158 0.4734375
0.4661918 0.4739583
0.4647677 0.4744792
0.4633437 0.475
0.4619197 0.4755208
0.4604956 0.4760417
0.4676158 0.4765625
0.4670462 0.4765625
0.4664766 0.4765625
0.465907 0.4765625
0.4653374 0.4765625
0.4647677 0.4765625
0.4641981 0.4765625
0.4636285 0.4765625
0.4630589 0.4765625
0.4624893 0.4765625
0.4619197 0.4765625
0.4613501 0.4765625
0.4607805 0.4765625
0.4602108 0.4765625
0.4596412 0.4765625
0.4889763 0.59375
0.4875523 0.5942708
0.4861282 0.5947917
0.4847042 0.5953125
0.4832802 0.5958333
0.4818561 0.5963542
0.4804321 0.596875
0.4790081 0.5973958
0.477584 0.5979167
0.47616 0.5984375
0.474736 0.5989583
0.4733119 0.5994792
0.4718879 0.6
0.4704639 0.6005208
0.4690398 0.6010417
0.4889763 0.6015625
0.4875523 0.6020833
0.4861282 0.6026042
0.4847042 0.603125
0.4832802 0.6036458
0.4818561 0.6041667
0.4804321 0.6046875
0.4790081 0.6052083
0.477584 0.6057292
0.47616 0.60625
0.474736 0.6067708
0.4733119 0.6072917
0.4718879 0.6078125
0.4704639 0.6083333
0.4690398 0.6088542
0.4932484 0.609375
0.4915396 0.609375
0.4898308 0.609375
0.4881219 0.609375
0.4864131 0.609375
0.4847042 0.609375
0.4829954 0.609375
0.4812866 0.609375
0.4795777 0.609375
0.4778689 0.609375
0.47616 0.609375
0.4744512 0.609375
0.4727423 0.609375
0.4710335 0.609375
0.4693247 0.609375
0.4847042 0.6171875
0.4838498 0.6182292
0.4829954 0.6192708
0.482141 0.6203125
0.4812866 0.6213542
0.4804321 0.6223958
0.4795777 0.6234375
0.4787233 0.6244792
0.4778689 0.6255208
0.4770145 0.6265625
0.47616 0.6276042
0.4753056 0.6286458
0.4744512 0.6296875
0.4735968 0.6307292
0.4727423 0.6317708
0.4889763 0.6328125
0.4878371 0.6328125
0.4866979 0.6328125
0.4855587 0.6328125
0.4844194 0.6328125
0.4832802 0.6328125
0.482141 0.6328125
0.4810017 0.6328125
0.4798625 0.6328125
0.4787233 0.6328125
0.477584 0.6328125
0.4764448 0.6328125
0.4753056 0.6328125
0.4741664 0.6328125
0.4730271 0.6328125
0.4975205 0.6484375
0.4960966 0.6479167
0.4946724 0.6473958
0.4932484 0.646875
0.4918244 0.6463542
0.4904003 0.6458333
0.4889763 0.6453125
0.4875523 0.6447917
0.4861282 0.6442708
0.4847042 0.64375
0.4832802 0.6432292
0.4818561 0.6427083
0.4804321 0.6421875
0.4790081 0.6416667
0.477584 0.6411458
0.4975205 0.6484375
0.4960966 0.6484375
0.4946724 0.6484375
0.4932484 0.6484375
0.4918244 0.6484375
0.4904003 0.6484375
0.4889763 0.6484375
0.4875523 0.6484375
0.4861282 0.6484375
0.4847042 0.6484375
0.4832802 0.6484375
0.4818561 0.6484375
0.4804321 0.6484375
0.4790081 0.6484375
0.477584 0.6484375
0.4932484 0.6875
0.4921092 0.6875
0.49097 0.6875
0.4898308 0.6875
0.4886915 0.6875
0.4875523 0.6875
0.4864131 0.6875
0.4852738 0.6875
0.4841346 0.6875
0.4829954 0.6875
0.4818561 0.6875
0.4807169 0.6875
0.4795777 0.6875
0.4784385 0.6875
0.4772992 0.6875
0.4889763 0.390625
0.4884067 0.390625
0.4878371 0.390625
0.4872675 0.390625
0.4866979 0.390625
0.4861282 0.390625
0.4855587 0.390625
0.484989 0.390625
0.4844194 0.390625
0.4838498 0.390625
0.4832802 0.390625
0.4827106 0.390625
0.482141 0.390625
0.4815713 0.390625
0.4810017 0.390625
0.514609 0.65625
0.5123305 0.65625
0.5100521 0.65625
0.5077736 0.65625
0.5054952 0.65625
0.5032167 0.65625
0.5009382 0.65625
0.4986598 0.65625
0.4963813 0.65625
0.4941029 0.65625
0.4918244 0.65625
0.4895459 0.65625
0.4872675 0.65625
0.484989 0.65625
0.4827106 0.65625
0.5188811 0.6640625
0.5166026 0.6640625
0.5143242 0.6640625
0.5120457 0.6640625
0.5097673 0.6640625
0.5074888 0.6640625
0.5052103 0.6640625
0.5029318 0.6640625
0.5006534 0.6640625
0.498375 0.6640625
0.4960966 0.6640625
0.493818 0.6640625
0.4915396 0.6640625
0.4892612 0.6640625
0.4869827 0.6640625
0.5017927 0.6953125
0.5009382 0.6953125
0.5000838 0.6953125
0.4992294 0.6953125
0.498375 0.6953125
0.4975205 0.6953125
0.4966661 0.6953125
0.4958117 0.6953125
0.4949573 0.6953125
0.4941029 0.6953125
0.4932484 0.6953125
0.492394 0.6953125
0.4915396 0.6953125
0.4906852 0.6953125
0.4898308 0.6953125
0.5231532 0.5078125
0.5211595 0.5078125
0.5191659 0.5078125
0.5171722 0.5078125
0.5151786 0.5078125
0.5131849 0.5078125
0.5111912 0.5078125
0.5091977 0.5078125
0.5072039 0.5078125
0.5052103 0.5078125
0.5032167 0.5078125
0.5012231 0.5078125
0.4992294 0.5078125
0.4972357 0.5078125
0.4952421 0.5078125
0.5188811 0.515625
0.517457 0.515625
0.5160331 0.515625
0.514609 0.515625
0.5131849 0.515625
0.511761 0.515625
0.5103369 0.515625
0.5089128 0.515625
0.5074888 0.515625
0.5060648 0.515625
0.5046407 0.515625
0.5032167 0.515625
0.5017927 0.515625
0.5003687 0.515625
0.4989446 0.515625
0.5103369 0.703125
0.5094824 0.703125
0.508628 0.703125
0.5077736 0.703125
0.5069191 0.703125
0.5060648 0.703125
0.5052103 0.703125
0.5043559 0.703125
0.5035015 0.703125
0.502647 0.703125
0.5017927 0.703125
0.5009382 0.703125
0.5000838 0.703125
0.4992294 0.703125
0.498375 0.703125
0.5103369 0.6328125
0.5097673 0.6328125
0.5091977 0.6328125
0.508628 0.6328125
0.5080584 0.6328125
0.5074888 0.6328125
0.5069191 0.6328125
0.5063496 0.6328125
0.50578 0.6328125
0.5052103 0.6328125
0.5046407 0.6328125
0.5040711 0.6328125
0.5035015 0.6328125
0.5029318 0.6328125
0.5023623 0.6328125
0.5231532 0.671875
0.5217291 0.671875
0.5203052 0.671875
0.5188811 0.671875
0.517457 0.671875
0.5160331 0.671875
0.514609 0.671875
0.5131849 0.671875
0.511761 0.671875
0.5103369 0.671875
0.5089128 0.671875
0.5074888 0.671875
0.5060648 0.671875
0.5046407 0.671875
0.5032167 0.671875
0.5530579 0.3203125
0.5502099 0.3203125
0.5473617 0.3203125
0.5445137 0.3203125
0.5416657 0.3203125
0.5388175 0.3203125
0.5359695 0.3203125
0.5331215 0.3203125
0.5302733 0.3203125
0.5274253 0.3203125
0.5245773 0.3203125
0.5217291 0.3203125
0.5188811 0.3203125
0.5160331 0.3203125
0.5131849 0.3203125
0.5188811 0.640625
0.5183115 0.640625
0.5177419 0.640625
0.5171722 0.640625
0.5166026 0.640625
0.5160331 0.640625
0.5154634 0.640625
0.5148938 0.640625
0.5143242 0.640625
0.5137545 0.640625
0.5131849 0.640625
0.5126153 0.640625
0.5120457 0.640625
0.511476 0.640625
0.5109065 0.640625
0.5188811 0.6796875
0.5183115 0.6796875
0.5177419 0.6796875
0.5171722 0.6796875
0.5166026 0.6796875
0.5160331 0.6796875
0.5154634 0.6796875
0.5148938 0.6796875
0.5143242 0.6796875
0.5137545 0.6796875
0.5131849 0.6796875
0.5126153 0.6796875
0.5120457 0.6796875
0.511476 0.6796875
0.5109065 0.6796875
0.514609 0.7109375
0.5143242 0.7109375
0.5140394 0.7109375
0.5137545 0.7109375
0.5134698 0.7109375
0.5131849 0.7109375
0.5129001 0.7109375
0.5126153 0.7109375
0.5123305 0.7109375
0.5120457 0.7109375
0.511761 0.7109375
0.511476 0.7109375
0.5111912 0.7109375
0.5109065 0.7109375
0.5106217 0.7109375
0.5915068 0.890625
0.5863804 0.890625
0.5812538 0.890625
0.5761273 0.890625
0.5710007 0.890625
0.5658742 0.890625
0.5607477 0.890625
0.5556211 0.890625
0.5504947 0.890625
0.5453681 0.890625
0.5402416 0.890625
0.5351151 0.890625
0.5299885 0.890625
0.5248621 0.890625
0.5197355 0.890625
0.5658742 0.25
0.5627413 0.2505208
0.5596085 0.2510417
0.5564756 0.2515625
0.5533427 0.2520833
0.5502099 0.2526042
0.5470769 0.253125
0.5439441 0.2536458
0.5408112 0.2541667
0.5376784 0.2546875
0.5345454 0.2552083
0.5314126 0.2557292
0.5282797 0.25625
0.5251468 0.2567708
0.522014 0.2572917
0.5316974 0.2578125
0.530843 0.2578125
0.5299885 0.2578125
0.5291342 0.2578125
0.5282797 0.2578125
0.5274253 0.2578125
0.5265709 0.2578125
0.5257164 0.2578125
0.5248621 0.2578125
0.5240076 0.2578125
0.5231532 0.2578125
0.5222988 0.2578125
0.5214443 0.2578125
0.5205899 0.2578125
0.5197355 0.2578125
0.5359695 0.328125
0.5348303 0.328125
0.533691 0.328125
0.5325518 0.328125
0.5314126 0.328125
0.5302733 0.328125
0.5291342 0.328125
0.5279949 0.328125
0.5268557 0.328125
0.5257164 0.328125
0.5245773 0.328125
0.523438 0.328125
0.5222988 0.328125
0.5211595 0.328125
0.5200202 0.328125
0.5274253 0.265625
0.5271405 0.265625
0.5268557 0.265625
0.5265709 0.265625
0.5262861 0.265625
0.5260012 0.265625
0.5257164 0.265625
0.5254316 0.265625
0.5251468 0.265625
0.5248621 0.265625
0.5245773 0.265625
0.5242923 0.265625
0.5240076 0.265625
0.5237228 0.265625
0.523438 0.265625
0.6128674 0.859375
0.6068864 0.859375
0.6009055 0.859375
0.5949245 0.859375
0.5889436 0.859375
0.5829626 0.859375
0.5769817 0.859375
0.5710007 0.859375
0.5650198 0.859375
0.5590389 0.859375
0.5530579 0.859375
0.5470769 0.859375
0.541096 0.859375
0.5351151 0.859375
0.5291342 0.859375
0.5829626 0.8984375
0.5789753 0.8984375
0.574988 0.8984375
0.5710007 0.8984375
0.5670134 0.8984375
0.5630262 0.8984375
0.5590389 0.8984375
0.5550516 0.8984375
0.5510643 0.8984375
0.5470769 0.8984375
0.5430896 0.8984375
0.5391024 0.8984375
0.5351151 0.8984375
0.5311278 0.8984375
0.5271405 0.8984375
0.6128674 0.8515625
0.6085953 0.8515625
0.6043231 0.8515625
0.600051 0.8515625
0.5957789 0.8515625
0.5915068 0.8515625
0.5872347 0.8515625
0.5829626 0.8515625
0.5786905 0.8515625
0.5744184 0.8515625
0.5701463 0.8515625
0.5658742 0.8515625
0.5616021 0.8515625
0.55733 0.8515625
0.5530579 0.8515625
0.5701463 0.2890625
0.5690071 0.2890625
0.5678679 0.2890625
0.5667286 0.2890625
0.5655894 0.2890625
0.5644501 0.2890625
0.563311 0.2890625
0.5621717 0.2890625
0.5610325 0.2890625
0.5598933 0.2890625
0.5587541 0.2890625
0.5576148 0.2890625
0.5564756 0.2890625
0.5553364 0.2890625
0.5541971 0.2890625
0.5744184 0.34375
0.5735641 0.34375
0.5727096 0.34375
0.5718552 0.34375
0.5710007 0.34375
0.5701463 0.34375
0.5692919 0.34375
0.5684375 0.34375
0.5675831 0.34375
0.5667286 0.34375
0.5658742 0.34375
0.5650198 0.34375
0.5641654 0.34375
0.563311 0.34375
0.5624565 0.34375
0.6085953 0.84375
0.6057472 0.84375
0.6028991 0.84375
0.600051 0.84375
0.597203 0.84375
0.5943549 0.84375
0.5915068 0.84375
0.5886588 0.84375
0.5858107 0.84375
0.5829626 0.84375
0.5801146 0.84375
0.5772665 0.84375
0.5744184 0.84375
0.5715704 0.84375
0.5687222 0.84375
0.5829626 0.90625
0.5818234 0.90625
0.5806842 0.90625
0.5795449 0.90625
0.5784057 0.90625
0.5772665 0.90625
0.5761273 0.90625
0.574988 0.90625
0.5738488 0.90625
0.5727096 0.90625
0.5715704 0.90625
0.5704311 0.90625
0.5692919 0.90625
0.5681527 0.90625
0.5670134 0.90625
0.6385 0.828125
0.6339431 0.828125
0.6293862 0.828125
0.6248292 0.828125
0.6202723 0.828125
0.6157154 0.828125
0.6111585 0.828125
0.6066016 0.828125
0.6020447 0.828125
0.5974878 0.828125
0.5929309 0.828125
0.5883739 0.828125
0.583817 0.828125
0.5792601 0.828125
0.5747032 0.828125
0.5957789 0.3046875
0.5954942 0.3046875
0.5952094 0.3046875
0.5949245 0.3046875
0.5946397 0.3046875
0.5943549 0.3046875
0.5940701 0.3046875
0.5937853 0.3046875
0.5935005 0.3046875
0.5932157 0.3046875
0.5929309 0.3046875
0.5926461 0.3046875
0.5923612 0.3046875
0.5920764 0.3046875
0.5917916 0.3046875
0.600051 0.71875
0.5997663 0.71875
0.5994815 0.71875
0.5991966 0.71875
0.5989118 0.71875
0.598627 0.71875
0.5983422 0.71875
0.5980574 0.71875
0.5977726 0.71875
0.5974878 0.71875
0.597203 0.71875
0.5969182 0.71875
0.5966334 0.71875
0.5963485 0.71875
0.5960637 0.71875
0.6171395 0.359375
0.616285 0.3598958
0.6154306 0.3604167
0.6145762 0.3609375
0.6137218 0.3614583
0.6128674 0.3619792
0.6120129 0.3625
0.6111585 0.3630208
0.6103041 0.3635417
0.6094497 0.3640625
0.6085953 0.3645833
0.6077408 0.3651042
0.6068864 0.365625
0.606032 0.3661458
0.6051776 0.3666667
0.6214116 0.3671875
0.6202723 0.3671875
0.6191331 0.3671875
0.6179939 0.3671875
0.6168547 0.3671875
0.6157154 0.3671875
0.6145762 0.3671875
0.6134369 0.3671875
0.6122978 0.3671875
0.6111585 0.3671875
0.6100193 0.3671875
0.60888 0.3671875
0.6077408 0.3671875
0.6066016 0.3671875
0.6054624 0.3671875
0.6214116 0.375
0.6205571 0.375
0.6197027 0.375
0.6188483 0.375
0.6179939 0.375
0.6171395 0.375
0.616285 0.375
0.6154306 0.375
0.6145762 0.375
0.6137218 0.375
0.6128674 0.375
0.6120129 0.375
0.6111585 0.375
0.6103041 0.375
0.6094497 0.375
0.6513163 0.296875
0.6490378 0.296875
0.6467594 0.296875
0.6444809 0.296875
0.6422025 0.296875
0.639924 0.296875
0.6376455 0.296875
0.6353671 0.296875
0.6330886 0.296875
0.6308102 0.296875
0.6285317 0.296875
0.6262532 0.296875
0.6239748 0.296875
0.6216964 0.296875
0.6194179 0.296875
0.6256837 0.3828125
0.6251141 0.3828125
0.6245444 0.3828125
0.6239748 0.3828125
0.6234052 0.3828125
0.6228356 0.3828125
0.622266 0.3828125
0.6216964 0.3828125
0.6211268 0.3828125
0.6205571 0.3828125
0.6199875 0.3828125
0.6194179 0.3828125
0.6188483 0.3828125
0.6182787 0.3828125
0.617709 0.3828125
0.6214116 0.53125
0.6211268 0.5307292
0.620842 0.5302083
0.6205571 0.5296875
0.6202723 0.5291666
0.6199875 0.5286458
0.6197027 0.528125
0.6194179 0.5276042
0.6191331 0.5270833
0.6188483 0.5265625
0.6185635 0.5260417
0.6182787 0.5255209
0.6179939 0.525
0.617709 0.5244792
0.6174242 0.5239583
0.6214116 0.5390625
0.6211268 0.5385417
0.620842 0.5380208
0.6205571 0.5375
0.6202723 0.5369791
0.6199875 0.5364583
0.6197027 0.5359375
0.6194179 0.5354167
0.6191331 0.5348958
0.6188483 0.534375
0.6185635 0.5338542
0.6182787 0.5333333
0.6179939 0.5328125
0.617709 0.5322917
0.6174242 0.5317708
0.6214116 0.5390625
0.6211268 0.5390625
0.620842 0.5390625
0.6205571 0.5390625
0.6202723 0.5390625
0.6199875 0.5390625
0.6197027 0.5390625
0.6194179 0.5390625
0.6191331 0.5390625
0.6188483 0.5390625
0.6185635 0.5390625
0.6182787 0.5390625
0.6179939 0.5390625
0.617709 0.5390625
0.6174242 0.5390625
0.6299558 0.40625
0.6293862 0.4057292
0.6288165 0.4052083
0.6282469 0.4046875
0.6276773 0.4041667
0.6271077 0.4036458
0.6265381 0.403125
0.6259685 0.4026042
0.6253989 0.4020833
0.6248292 0.4015625
0.6242596 0.4010417
0.62369 0.4005208
0.6231204 0.4
0.6225508 0.3994792
0.6219811 0.3989583
0.6256837 0.5078125
0.6253989 0.5072917
0.6251141 0.5067708
0.6248292 0.50625
0.6245444 0.5057291
0.6242596 0.5052083
0.6239748 0.5046875
0.62369 0.5041667
0.6234052 0.5036458
0.6231204 0.503125
0.6228356 0.5026042
0.6225508 0.5020834
0.622266 0.5015625
0.6219811 0.5010417
0.6216964 0.5005208
0.6256837 0.5078125
0.6253989 0.5078125
0.6251141 0.5078125
0.6248292 0.5078125
0.6245444 0.5078125
0.6242596 0.5078125
0.6239748 0.5078125
0.62369 0.5078125
0.6234052 0.5078125
0.6231204 0.5078125
0.6228356 0.5078125
0.6225508 0.5078125
0.622266 0.5078125
0.6219811 0.5078125
0.6216964 0.5078125
0.6256837 0.546875
0.6253989 0.546875
0.6251141 0.546875
0.6248292 0.546875
0.6245444 0.546875
0.6242596 0.546875
0.6239748 0.546875
0.62369 0.546875
0.6234052 0.546875
0.6231204 0.546875
0.6228356 0.546875
0.6225508 0.546875
0.622266 0.546875
0.6219811 0.546875
0.6216964 0.546875
0.6342279 0.4375
0.6339431 0.4380208
0.6336583 0.4385417
0.6333734 0.4390625
0.6330886 0.4395833
0.6328038 0.4401042
0.632519 0.440625
0.6322342 0.4411458
0.6319494 0.4416667
0.6316646 0.4421875
0.6313798 0.4427083
0.631095 0.4432292
0.6308102 0.44375
0.6305254 0.4442708
0.6302406 0.4447917
0.6342279 0.4453125
0.6339431 0.4463542
0.6336583 0.4473958
0.6333734 0.4484375
0.6330886 0.4494792
0.6328038 0.4505208
0.632519 0.4515625
0.6322342 0.4526042
0.6319494 0.4536458
0.6316646 0.4546875
0.6313798 0.4557292
0.631095 0.4567708
0.6308102 0.4578125
0.6305254 0.4588542
0.6302406 0.4598958
0.6342279 0.4609375
0.6339431 0.4619792
0.6336583 0.4630208
0.6333734 0.4640625
0.6330886 0.4651042
0.6328038 0.4661458
0.632519 0.4671875
0.6322342 0.4682292
0.6319494 0.4692708
0.6316646 0.4703125
0.6313798 0.4713542
0.631095 0.4723958
0.6308102 0.4734375
0.6305254 0.4744792
0.6302406 0.4755208
0.6427721 0.4140625
0.6422025 0.4135417
0.6416329 0.4130208
0.6410633 0.4125
0.6404936 0.4119792
0.639924 0.4114583
0.6393544 0.4109375
0.6387848 0.4104167
0.6382152 0.4098958
0.6376455 0.409375
0.6370759 0.4088542
0.6365063 0.4083333
0.6359367 0.4078125
0.6353671 0.4072917
0.6347975 0.4067708
0.6427721 0.4140625
0.6422025 0.4140625
0.6416329 0.4140625
0.6410633 0.4140625
0.6404936 0.4140625
0.639924 0.4140625
0.6393544 0.4140625
0.6387848 0.4140625
0.6382152 0.4140625
0.6376455 0.4140625
0.6370759 0.4140625
0.6365063 0.4140625
0.6359367 0.4140625
0.6353671 0.4140625
0.6347975 0.4140625
0.6470442 0.6953125
0.6461897 0.6953125
0.6453354 0.6953125
0.6444809 0.6953125
0.6436265 0.6953125
0.6427721 0.6953125
0.6419176 0.6953125
0.6410633 0.6953125
0.6402088 0.6953125
0.6393544 0.6953125
0.6385 0.6953125
0.6376455 0.6953125
0.6367911 0.6953125
0.6359367 0.6953125
0.6350823 0.6953125
0.6385 0.84375
0.6382152 0.84375
0.6379304 0.84375
0.6376455 0.84375
0.6373608 0.84375
0.6370759 0.84375
0.6367911 0.84375
0.6365063 0.84375
0.6362215 0.84375
0.6359367 0.84375
0.6356519 0.84375
0.6353671 0.84375
0.6350823 0.84375
0.6347975 0.84375
0.6345127 0.84375
0.6470442 0.671875
0.6467594 0.671875
0.6464746 0.671875
0.6461897 0.671875
0.645905 0.671875
0.6456202 0.671875
0.6453354 0.671875
0.6450506 0.671875
0.6447657 0.671875
0.6444809 0.671875
0.6441961 0.671875
0.6439113 0.671875
0.6436265 0.671875
0.6433417 0.671875
0.6430569 0.671875
0.6769489 0.375
0.6763793 0.375
0.6758097 0.375
0.6752401 0.375
0.6746704 0.375
0.6741008 0.375
0.6735312 0.375
0.6729616 0.375
0.672392 0.375
0.6718224 0.375
0.6712528 0.375
0.6706832 0.375
0.6701135 0.375
0.6695439 0.375
0.6689743 0.375
0.6769489 0.5625
0.6763793 0.5625
0.6758097 0.5625
0.6752401 0.5625
0.6746704 0.5625
0.6741008 0.5625
0.6735312 0.5625
0.6729616 0.5625
0.672392 0.5625
0.6718224 0.5625
0.6712528 0.5625
0.6706832 0.5625
0.6701135 0.5625
0.6695439 0.5625
0.6689743 0.5625
0.6897652 0.7109375
0.6883412 0.7109375
0.6869171 0.7109375
0.6854931 0.7109375
0.6840691 0.7109375
0.682645 0.7109375
0.681221 0.7109375
0.679797 0.7109375
0.6783729 0.7109375
0.6769489 0.7109375
0.6755249 0.7109375
0.6741008 0.7109375
0.6726768 0.7109375
0.6712528 0.7109375
0.6698287 0.7109375
0.6854931 0.71875
0.6846387 0.71875
0.6837843 0.71875
0.6829298 0.71875
0.6820754 0.71875
0.681221 0.71875
0.6803666 0.71875
0.6795122 0.71875
0.6786577 0.71875
0.6778033 0.71875
0.6769489 0.71875
0.6760945 0.71875
0.6752401 0.71875
0.6743856 0.71875
0.6735312 0.71875
0.6983094 0.40625
0.6968854 0.40625
0.6954613 0.40625
0.6940373 0.40625
0.6926133 0.40625
0.6911892 0.40625
0.6897652 0.40625
0.6883412 0.40625
0.6869171 0.40625
0.6854931 0.40625
0.6840691 0.40625
0.682645 0.40625
0.681221 0.40625
0.679797 0.40625
0.6783729 0.40625
0.6983094 0.421875
0.6980246 0.4213542
0.6977398 0.4208333
0.697455 0.4203125
0.6971702 0.4197917
0.6968854 0.4192708
0.6966006 0.41875
0.6963158 0.4182292
0.6960309 0.4177083
0.6957461 0.4171875
0.6954613 0.4166667
0.6951765 0.4161458
0.6948918 0.415625
0.6946069 0.4151042
0.6943221 0.4145833
0.6983094 0.421875
0.6980246 0.421875
0.6977398 0.421875
0.697455 0.421875
0.6971702 0.421875
0.6968854 0.421875
0.6966006 0.421875
0.6963158 0.421875
0.6960309 0.421875
0.6957461 0.421875
0.6954613 0.421875
0.6951765 0.421875
0.6948918 0.421875
0.6946069 0.421875
0.6943221 0.421875
0.7196699 0.4296875
0.7193851 0.4296875
0.7191004 0.4296875
0.7188156 0.4296875
0.7185307 0.4296875
0.7182459 0.4296875
0.7179611 0.4296875
0.7176763 0.4296875
0.7173916 0.4296875
0.7171066 0.4296875
0.7168218 0.4296875
0.7165371 0.4296875
0.7162523 0.4296875
0.7159675 0.4296875
0.7156826 0.4296875
0.7324862 0.4921875
0.7316319 0.4921875
0.7307774 0.4921875
0.729923 0.4921875
0.7290686 0.4921875
0.7282141 0.4921875
0.7273598 0.4921875
0.7265053 0.4921875
0.7256508 0.4921875
0.7247965 0.4921875
0.723942 0.4921875
0.7230877 0.4921875
0.7222332 0.4921875
0.7213787 0.4921875
0.7205244 0.4921875
0.7324862 0.5
0.7319167 0.5
0.731347 0.5
0.7307774 0.5
0.7302079 0.5
0.7296382 0.5
0.7290686 0.5
0.7284989 0.5
0.7279294 0.5
0.7273598 0.5
0.7267901 0.5
0.7262205 0.5
0.7256508 0.5
0.7250813 0.5
0.7245117 0.5
0.7453026 0.359375
0.744733 0.359375
0.7441633 0.359375
0.7435938 0.359375
0.7430242 0.359375
0.7424545 0.359375
0.7418849 0.359375
0.7413152 0.359375
0.7407457 0.359375
0.7401761 0.359375
0.7396064 0.359375
0.7390368 0.359375
0.7384672 0.359375
0.7378976 0.359375
0.737328 0.359375
0.7794794 0.4609375
0.7777706 0.4609375
0.7760617 0.4609375
0.7743529 0.4609375
0.772644 0.4609375
0.7709352 0.4609375
0.7692264 0.4609375
0.7675175 0.4609375
0.7658087 0.4609375
0.7640998 0.4609375
0.762391 0.4609375
0.7606822 0.4609375
0.7589733 0.4609375
0.7572645 0.4609375
0.7555556 0.4609375
0.7752073 0.5078125
0.7743529 0.5078125
0.7734985 0.5078125
0.772644 0.5078125
0.7717896 0.5078125
0.7709352 0.5078125
0.7700808 0.5078125
0.7692264 0.5078125
0.7683719 0.5078125
0.7675175 0.5078125
0.7666631 0.5078125
0.7658087 0.5078125
0.7649543 0.5078125
0.7640998 0.5078125
0.7632454 0.5078125
0.7880236 0.390625
0.7877388 0.390625
0.787454 0.390625
0.7871692 0.390625
0.7868844 0.390625
0.7865996 0.390625
0.7863148 0.390625
0.7860299 0.390625
0.7857452 0.390625
0.7854603 0.390625
0.7851755 0.390625
0.7848907 0.390625
0.7846059 0.390625
0.7843211 0.390625
0.7840363 0.390625
0.7965678 0.5390625
0.7959982 0.5390625
0.7954286 0.5390625
0.794859 0.5390625
0.7942894 0.5390625
0.7937197 0.5390625
0.7931501 0.5390625
0.7925805 0.5390625
0.7920109 0.5390625
0.7914413 0.5390625
0.7908717 0.5390625
0.790302 0.5390625
0.7897324 0.5390625
0.7891628 0.5390625
0.7885932 0.5390625
0.8093841 0.6015625
0.8088145 0.6015625
0.8082449 0.6015625
0.8076753 0.6015625
0.8071057 0.6015625
0.806536 0.6015625
0.8059664 0.6015625
0.8053968 0.6015625
0.8048272 0.6015625
0.8042576 0.6015625
0.803688 0.6015625
0.8031183 0.6015625
0.8025487 0.6015625
0.8019791 0.6015625
0.8014095 0.6015625
0.8136562 0.609375
0.8130866 0.609375
0.812517 0.609375
0.8119474 0.609375
0.8113778 0.609375
0.8108081 0.609375
0.8102385 0.609375
0.809669 0.609375
0.8090993 0.609375
0.8085297 0.609375
0.8079601 0.609375
0.8073905 0.609375
0.8068208 0.609375
0.8062512 0.609375
0.8056816 0.609375
0.8222004 0.5546875
0.821346 0.5546875
0.8204916 0.5546875
0.8196371 0.5546875
0.8187827 0.5546875
0.8179283 0.5546875
0.8170739 0.5546875
0.8162195 0.5546875
0.815365 0.5546875
0.8145106 0.5546875
0.8136562 0.5546875
0.8128018 0.5546875
0.8119474 0.5546875
0.8110929 0.5546875
0.8102385 0.5546875
0.8264725 0.390625
0.8261877 0.390625
0.8259029 0.390625
0.8256181 0.390625
0.8253334 0.390625
0.8250485 0.390625
0.8247637 0.390625
0.8244789 0.390625
0.8241941 0.390625
0.8239093 0.390625
0.8236244 0.390625
0.8233396 0.390625
0.8230549 0.390625
0.8227701 0.390625
0.8224853 0.390625
0.8264725 0.5625
0.8261877 0.5625
0.8259029 0.5625
0.8256181 0.5625
0.8253334 0.5625
0.8250485 0.5625
0.8247637 0.5625
0.8244789 0.5625
0.8241941 0.5625
0.8239093 0.5625
0.8236244 0.5625
0.8233396 0.5625
0.8230549 0.5625
0.8227701 0.5625
0.8224853 0.5625
0.9290031 0.40625
0.9284334 0.4057292
0.9278638 0.4052083
0.9272942 0.4046875
0.9267246 0.4041667
0.926155 0.4036458
0.9255853 0.403125
0.9250157 0.4026042
0.9244461 0.4020833
0.9238765 0.4015625
0.9233068 0.4010417
0.9227372 0.4005208
0.9221677 0.4
0.921598 0.3994792
0.9210284 0.3989583
0.9290031 0.40625
0.9284334 0.40625
0.9278638 0.40625
0.9272942 0.40625
0.9267246 0.40625
0.926155 0.40625
0.9255853 0.40625
0.9250157 0.40625
0.9244461 0.40625
0.9238765 0.40625
0.9233068 0.40625
0.9227372 0.40625
0.9221677 0.40625
0.921598 0.40625
0.9210284 0.40625
0.9290031 0.4140625
0.9287182 0.4140625
0.9284334 0.4140625
0.9281486 0.4140625
0.9278638 0.4140625
0.9275789 0.4140625
0.9272942 0.4140625
0.9270093 0.4140625
0.9267246 0.4140625
0.9264398 0.4140625
0.926155 0.4140625
0.9258701 0.4140625
0.9255853 0.4140625
0.9253005 0.4140625
0.9250157 0.4140625
0.9375473 0.4375
0.9372624 0.4375
0.9369776 0.4375
0.9366928 0.4375
0.936408 0.4375
0.9361231 0.4375
0.9358384 0.4375
0.9355536 0.4375
0.9352688 0.4375
0.934984 0.4375
0.9346992 0.4375
0.9344143 0.4375
0.9341295 0.4375
0.9338447 0.4375
0.93356 0.4375
0.9631799 0.6640625
0.962895 0.6640625
0.9626102 0.6640625
0.9623255 0.6640625
0.9620407 0.6640625
0.9617558 0.6640625
0.961471 0.6640625
0.9611862 0.6640625
0.9609014 0.6640625
0.9606166 0.6640625
0.9603319 0.6640625
0.9600469 0.6640625
0.9597622 0.6640625
0.9594774 0.6640625
0.9591926 0.6640625
0.9845404 0.2109375
0.9839708 0.2109375
0.9834012 0.2109375
0.9828315 0.2109375
0.982262 0.2109375
0.9816924 0.2109375
0.9811227 0.2109375
0.9805531 0.2109375
0.9799834 0.2109375
0.9794139 0.2109375
0.9788442 0.2109375
0.9782746 0.2109375
0.977705 0.2109375
0.9771354 0.2109375
0.9765658 0.2109375
0.185657 0.1953125
0.1853722 0.1953125
0.1850874 0.1953125
0.1848026 0.1953125
0.1845177 0.1953125
0.1842329 0.1953125
0.1839481 0.1953125
0.1836633 0.1953125
0.1833785 0.1953125
0.1830937 0.1953125
0.1828089 0.1953125
0.1825241 0.1953125
0.1822393 0.1953125
0.1819545 0.1953125
0.1816697 0.1953125
0.3309085 0.015625
0.3294845 0.015625
0.3280604 0.015625
0.3266364 0.015625
0.3252124 0.015625
0.3237883 0.015625
0.3223643 0.015625
0.3209403 0.015625
0.3195162 0.015625
0.3180922 0.015625
0.3166682 0.015625
0.3152441 0.015625
0.3138201 0.015625
0.312396 0.015625
0.310972 0.015625
0.3479969 0.5234375
0.3471425 0.5234375
0.3462881 0.5234375
0.3454337 0.5234375
0.3445792 0.5234375
0.3437248 0.5234375
0.3428704 0.5234375
0.342016 0.5234375
0.3411615 0.5234375
0.3403071 0.5234375
0.3394527 0.5234375
0.3385983 0.5234375
0.3377439 0.5234375
0.3368894 0.5234375
0.336035 0.5234375
0.3437248 0.0078125
0.34344 0.0078125
0.3431552 0.0078125
0.3428704 0.0078125
0.3425856 0.0078125
0.3423008 0.0078125
0.342016 0.0078125
0.3417312 0.0078125
0.3414463 0.0078125
0.3411615 0.0078125
0.3408768 0.0078125
0.340592 0.0078125
0.3403071 0.0078125
0.3400223 0.0078125
0.3397375 0.0078125
0.5017927 0.4609375
0.4989446 0.4609375
0.4960966 0.4609375
0.4932484 0.4609375
0.4904003 0.4609375
0.4875523 0.4609375
0.4847042 0.4609375
0.4818561 0.4609375
0.4790081 0.4609375
0.47616 0.4609375
0.4733119 0.4609375
0.4704639 0.4609375
0.4676158 0.4609375
0.4647677 0.4609375
0.4619197 0.4609375
0.5188811 0.3828125
0.5154634 0.3828125
0.5120457 0.3828125
0.508628 0.3828125
0.5052103 0.3828125
0.5017927 0.3828125
0.498375 0.3828125
0.4949573 0.3828125
0.4915396 0.3828125
0.4881219 0.3828125
0.4847042 0.3828125
0.4812866 0.3828125
0.4778689 0.3828125
0.4744512 0.3828125
0.4710335 0.3828125
0.4847042 0.5859375
0.483565 0.5859375
0.4824258 0.5859375
0.4812866 0.5859375
0.4801473 0.5859375
0.4790081 0.5859375
0.4778689 0.5859375
0.4767296 0.5859375
0.4755904 0.5859375
0.4744512 0.5859375
0.4733119 0.5859375
0.4721727 0.5859375
0.4710335 0.5859375
0.4698943 0.5859375
0.468755 0.5859375
0.4889763 0.625
0.4875523 0.625
0.4861282 0.625
0.4847042 0.625
0.4832802 0.625
0.4818561 0.625
0.4804321 0.625
0.4790081 0.625
0.477584 0.625
0.47616 0.625
0.474736 0.625
0.4733119 0.625
0.4718879 0.625
0.4704639 0.625
0.4690398 0.625
0.5231532 0.453125
0.5197355 0.453125
0.5163178 0.453125
0.5129001 0.453125
0.5094824 0.453125
0.5060648 0.453125
0.502647 0.453125
0.4992294 0.453125
0.4958117 0.453125
0.492394 0.453125
0.4889763 0.453125
0.4855587 0.453125
0.482141 0.453125
0.4787233 0.453125
0.4753056 0.453125
0.47616 0.8515625
0.4758752 0.8515625
0.4755904 0.8515625
0.4753056 0.8515625
0.4750208 0.8515625
0.474736 0.8515625
0.4744512 0.8515625
0.4741664 0.8515625
0.4738816 0.8515625
0.4735968 0.8515625
0.4733119 0.8515625
0.4730271 0.8515625
0.4727423 0.8515625
0.4724575 0.8515625
0.4721727 0.8515625
0.5274253 0.375
0.5240076 0.375
0.5205899 0.375
0.5171722 0.375
0.5137545 0.375
0.5103369 0.375
0.5069191 0.375
0.5035015 0.375
0.5000838 0.375
0.4966661 0.375
0.4932484 0.375
0.4898308 0.375
0.4864131 0.375
0.4829954 0.375
0.4795777 0.375
0.4889763 0.6796875
0.4881219 0.6796875
0.4872675 0.6796875
0.4864131 0.6796875
0.4855587 0.6796875
0.4847042 0.6796875
0.4838498 0.6796875
0.4829954 0.6796875
0.482141 0.6796875
0.4812866 0.6796875
0.4804321 0.6796875
0.4795777 0.6796875
0.4787233 0.6796875
0.4778689 0.6796875
0.4770145 0.6796875
0.5017927 0.4375
0.5006534 0.4375
0.4995142 0.4375
0.498375 0.4375
0.4972357 0.4375
0.4960966 0.4375
0.4949573 0.4375
0.493818 0.4375
0.4926789 0.4375
0.4915396 0.4375
0.4904003 0.4375
0.4892612 0.4375
0.4881219 0.4375
0.4869827 0.4375
0.4858434 0.4375
0.5060648 0.625
0.50578 0.625
0.5054952 0.625
0.5052103 0.625
0.5049255 0.625
0.5046407 0.625
0.5043559 0.625
0.5040711 0.625
0.5037863 0.625
0.5035015 0.625
0.5032167 0.625
0.5029318 0.625
0.502647 0.625
0.5023623 0.625
0.5020775 0.625
0.5744184 0.2421875
0.5704311 0.2421875
0.5664438 0.2421875
0.5624565 0.2421875
0.5584692 0.2421875
0.554482 0.2421875
0.5504947 0.2421875
0.5465074 0.2421875
0.54252 0.2421875
0.5385327 0.2421875
0.5345454 0.2421875
0.5305582 0.2421875
0.5265709 0.2421875
0.5225836 0.2421875
0.5185963 0.2421875
0.5359695 0.234375
0.5356847 0.234375
0.5353999 0.234375
0.5351151 0.234375
0.5348303 0.234375
0.5345454 0.234375
0.5342606 0.234375
0.5339758 0.234375
0.533691 0.234375
0.5334063 0.234375
0.5331215 0.234375
0.5328366 0.234375
0.5325518 0.234375
0.532267 0.234375
0.5319822 0.234375
0.5786905 0.234375
0.5766969 0.234375
0.5747032 0.234375
0.5727096 0.234375
0.5707159 0.234375
0.5687222 0.234375
0.5667286 0.234375
0.564735 0.234375
0.5627413 0.234375
0.5607477 0.234375
0.5587541 0.234375
0.5567604 0.234375
0.5547668 0.234375
0.5527731 0.234375
0.5507795 0.234375
0.5616021 0.28125
0.5607477 0.28125
0.5598933 0.28125
0.5590389 0.28125
0.5581844 0.28125
0.55733 0.28125
0.5564756 0.28125
0.5556211 0.28125
0.5547668 0.28125
0.5539123 0.28125
0.5530579 0.28125
0.5522035 0.28125
0.551349 0.28125
0.5504947 0.28125
0.5496402 0.28125
0.5658742 0.2265625
0.5655894 0.2265625
0.5653046 0.2265625
0.5650198 0.2265625
0.564735 0.2265625
0.5644501 0.2265625
0.5641654 0.2265625
0.5638806 0.2265625
0.5635958 0.2265625
0.563311 0.2265625
0.5630262 0.2265625
0.5627413 0.2265625
0.5624565 0.2265625
0.5621717 0.2265625
0.5618869 0.2265625
0.6171395 0.8203125
0.6137218 0.8203125
0.6103041 0.8203125
0.6068864 0.8203125
0.6034687 0.8203125
0.600051 0.8203125
0.5966334 0.8203125
0.5932157 0.8203125
0.589798 0.8203125
0.5863804 0.8203125
0.5829626 0.8203125
0.5795449 0.8203125
0.5761273 0.8203125
0.5727096 0.8203125
0.5692919 0.8203125
0.6214116 0.8125
0.6182787 0.8125
0.6151458 0.8125
0.6120129 0.8125
0.60888 0.8125
0.6057472 0.8125
0.6026143 0.8125
0.5994815 0.8125
0.5963485 0.8125
0.5932157 0.8125
0.5900828 0.8125
0.5869499 0.8125
0.583817 0.8125
0.5806842 0.8125
0.5775513 0.8125
0.6214116 0.8046875
0.6185635 0.8046875
0.6157154 0.8046875
0.6128674 0.8046875
0.6100193 0.8046875
0.6071712 0.8046875
0.6043231 0.8046875
0.6014751 0.8046875
0.598627 0.8046875
0.5957789 0.8046875
0.5929309 0.8046875
0.5900828 0.8046875
0.5872347 0.8046875
0.5843867 0.8046875
0.5815386 0.8046875
0.6085953 0.7421875
0.6083105 0.7421875
0.6080257 0.7421875
0.6077408 0.7421875
0.607456 0.7421875
0.6071712 0.7421875
0.6068864 0.7421875
0.6066016 0.7421875
0.6063168 0.7421875
0.606032 0.7421875
0.6057472 0.7421875
0.6054624 0.7421875
0.6051776 0.7421875
0.6048927 0.7421875
0.6046079 0.7421875
0.6385 0.2109375
0.6379304 0.2109375
0.6373608 0.2109375
0.6367911 0.2109375
0.6362215 0.2109375
0.6356519 0.2109375
0.6350823 0.2109375
0.6345127 0.2109375
0.6339431 0.2109375
0.6333734 0.2109375
0.6328038 0.2109375
0.6322342 0.2109375
0.6316646 0.2109375
0.631095 0.2109375
0.6305254 0.2109375
0.6342279 0.6875
0.6339431 0.6875
0.6336583 0.6875
0.6333734 0.6875
0.6330886 0.6875
0.6328038 0.6875
0.632519 0.6875
0.6322342 0.6875
0.6319494 0.6875
0.6316646 0.6875
0.6313798 0.6875
0.631095 0.6875
0.6308102 0.6875
0.6305254 0.6875
0.6302406 0.6875
0.6385 0.203125
0.6382152 0.203125
0.6379304 0.203125
0.6376455 0.203125
0.6373608 0.203125
0.6370759 0.203125
0.6367911 0.203125
0.6365063 0.203125
0.6362215 0.203125
0.6359367 0.203125
0.6356519 0.203125
0.6353671 0.203125
0.6350823 0.203125
0.6347975 0.203125
0.6345127 0.203125
0.6641326 0.71875
0.6638478 0.71875
0.663563 0.71875
0.6632782 0.71875
0.6629934 0.71875
0.6627086 0.71875
0.6624238 0.71875
0.662139 0.71875
0.6618541 0.71875
0.6615693 0.71875
0.6612845 0.71875
0.6609997 0.71875
0.6607149 0.71875
0.6604301 0.71875
0.6601453 0.71875
0.6684047 0.3671875
0.6681199 0.3671875
0.6678351 0.3671875
0.6675503 0.3671875
0.6672655 0.3671875
0.6669807 0.3671875
0.6666959 0.3671875
0.6664111 0.3671875
0.6661262 0.3671875
0.6658414 0.3671875
0.6655566 0.3671875
0.6652718 0.3671875
0.664987 0.3671875
0.6647022 0.3671875
0.6644174 0.3671875
0.6940373 0.1953125
0.6923285 0.1953125
0.6906196 0.1953125
0.6889108 0.1953125
0.6872019 0.1953125
0.6854931 0.1953125
0.6837843 0.1953125
0.6820754 0.1953125
0.6803666 0.1953125
0.6786577 0.1953125
0.6769489 0.1953125
0.6752401 0.1953125
0.6735312 0.1953125
0.6718224 0.1953125
0.6701135 0.1953125
0.6897652 0.6015625
0.6894804 0.6015625
0.6891956 0.6015625
0.6889108 0.6015625
0.688626 0.6015625
0.6883412 0.6015625
0.6880564 0.6015625
0.6877716 0.6015625
0.6874867 0.6015625
0.6872019 0.6015625
0.6869171 0.6015625
0.6866323 0.6015625
0.6863475 0.6015625
0.6860627 0.6015625
0.6857779 0.6015625
0.7196699 0.203125
0.7193851 0.203125
0.7191004 0.203125
0.7188156 0.203125
0.7185307 0.203125
0.7182459 0.203125
0.7179611 0.203125
0.7176763 0.203125
0.7173916 0.203125
0.7171066 0.203125
0.7168218 0.203125
0.7165371 0.203125
0.7162523 0.203125
0.7159675 0.203125
0.7156826 0.203125
0.7324862 0.1875
0.7322015 0.1875
0.7319167 0.1875
0.7316319 0.1875
0.731347 0.1875
0.7310622 0.1875
0.7307774 0.1875
0.7304926 0.1875
0.7302079 0.1875
0.729923 0.1875
0.7296382 0.1875
0.7293534 0.1875
0.7290686 0.1875
0.7287838 0.1875
0.7284989 0.1875
0.7410305 0.4140625
0.7407457 0.4140625
0.7404609 0.4140625
0.7401761 0.4140625
0.7398912 0.4140625
0.7396064 0.4140625
0.7393216 0.4140625
0.7390368 0.4140625
0.7387521 0.4140625
0.7384672 0.4140625
0.7381824 0.4140625
0.7378976 0.4140625
0.7376128 0.4140625
0.737328 0.4140625
0.7370431 0.4140625
0.7709352 0.1953125
0.7706504 0.1953125
0.7703656 0.1953125
0.7700808 0.1953125
0.769796 0.1953125
0.7695112 0.1953125
0.7692264 0.1953125
0.7689415 0.1953125
0.7686568 0.1953125
0.7683719 0.1953125
0.7680871 0.1953125
0.7678023 0.1953125
0.7675175 0.1953125
0.7672327 0.1953125
0.7669479 0.1953125
0.8264725 0.578125
0.8247637 0.578125
0.8230549 0.578125
0.821346 0.578125
0.8196371 0.578125
0.8179283 0.578125
0.8162195 0.578125
0.8145106 0.578125
0.8128018 0.578125
0.8110929 0.578125
0.8093841 0.578125
0.8076753 0.578125
0.8059664 0.578125
0.8042576 0.578125
0.8025487 0.578125
0.8264725 0.3984375
0.8253334 0.3984375
0.8241941 0.3984375
0.8230549 0.3984375
0.8219156 0.3984375
0.8207764 0.3984375
0.8196371 0.3984375
0.818498 0.3984375
0.8173587 0.3984375
0.8162195 0.3984375
0.8150802 0.3984375
0.8139411 0.3984375
0.8128018 0.3984375
0.8116626 0.3984375
0.8105233 0.3984375
0.9033704 0.65625
0.9022312 0.65625
0.901092 0.65625
0.8999527 0.65625
0.8988135 0.65625
0.8976743 0.65625
0.896535 0.65625
0.8953958 0.65625
0.8942566 0.65625
0.8931174 0.65625
0.8919781 0.65625
0.8908389 0.65625
0.8896997 0.65625
0.8885604 0.65625
0.8874212 0.65625
0.9503636 0.6328125
0.9495091 0.6328125
0.9486547 0.6328125
0.9478003 0.6328125
0.9469458 0.6328125
0.9460915 0.6328125
0.945237 0.6328125
0.9443826 0.6328125
0.9435282 0.6328125
0.9426737 0.6328125
0.9418194 0.6328125
0.9409649 0.6328125
0.9401105 0.6328125
0.9392561 0.6328125
0.9384016 0.6328125
1.163969 0.2265625
1.163684 0.2265625
1.163399 0.2265625
1.163114 0.2265625
1.16283 0.2265625
1.162545 0.2265625
1.16226 0.2265625
1.161975 0.2265625
1.16169 0.2265625
1.161406 0.2265625
1.161121 0.2265625
1.160836 0.2265625
1.160551 0.2265625
1.160266 0.2265625
1.159981 0.2265625
0.1899291 0.171875
0.1893595 0.171875
0.1887898 0.171875
0.1882202 0.171875
0.1876506 0.171875
0.187081 0.171875
0.1865114 0.171875
0.1859418 0.171875
0.1853722 0.171875
0.1848026 0.171875
0.1842329 0.171875
0.1836633 0.171875
0.1830937 0.171875
0.1825241 0.171875
0.1819545 0.171875
0.2924595 0.03125
0.2901811 0.03125
0.2879027 0.03125
0.2856242 0.03125
0.2833458 0.03125
0.2810673 0.03125
0.2787889 0.03125
0.2765104 0.03125
0.2742319 0.03125
0.2719535 0.03125
0.269675 0.03125
0.2673966 0.03125
0.2651181 0.03125
0.2628396 0.03125
0.2605612 0.03125
0.6214116 0.796875
0.6199875 0.796875
0.6185635 0.796875
0.6171395 0.796875
0.6157154 0.796875
0.6142914 0.796875
0.6128674 0.796875
0.6114433 0.796875
0.6100193 0.796875
0.6085953 0.796875
0.6071712 0.796875
0.6057472 0.796875
0.6043231 0.796875
0.6028991 0.796875
0.6014751 0.796875
0.3223643 0.0078125
0.3220795 0.0078125
0.3217947 0.0078125
0.3215099 0.0078125
0.321225 0.0078125
0.3209403 0.0078125
0.3206555 0.0078125
0.3203706 0.0078125
0.3200858 0.0078125
0.319801 0.0078125
0.3195162 0.0078125
0.3192315 0.0078125
0.3189466 0.0078125
0.3186618 0.0078125
0.318377 0.0078125
0.47616 0.578125
0.4758752 0.578125
0.4755904 0.578125
0.4753056 0.578125
0.4750208 0.578125
0.474736 0.578125
0.4744512 0.578125
0.4741664 0.578125
0.4738816 0.578125
0.4735968 0.578125
0.4733119 0.578125
0.4730271 0.578125
0.4727423 0.578125
0.4724575 0.578125
0.4721727 0.578125
0.5274253 0.4453125
0.5242923 0.4453125
0.5211595 0.4453125
0.5180266 0.4453125
0.5148938 0.4453125
0.511761 0.4453125
0.508628 0.4453125
0.5054952 0.4453125
0.5023623 0.4453125
0.4992294 0.4453125
0.4960966 0.4453125
0.4929636 0.4453125
0.4898308 0.4453125
0.4866979 0.4453125
0.483565 0.4453125
0.5017927 0.53125
0.5006534 0.53125
0.4995142 0.53125
0.498375 0.53125
0.4972357 0.53125
0.4960966 0.53125
0.4949573 0.53125
0.493818 0.53125
0.4926789 0.53125
0.4915396 0.53125
0.4904003 0.53125
0.4892612 0.53125
0.4881219 0.53125
0.4869827 0.53125
0.4858434 0.53125
0.5060648 0.5234375
0.5049255 0.5234375
0.5037863 0.5234375
0.502647 0.5234375
0.5015079 0.5234375
0.5003687 0.5234375
0.4992294 0.5234375
0.4980901 0.5234375
0.496951 0.5234375
0.4958117 0.5234375
0.4946724 0.5234375
0.4935333 0.5234375
0.492394 0.5234375
0.4912548 0.5234375
0.4901156 0.5234375
0.514609 0.5
0.5131849 0.5
0.511761 0.5
0.5103369 0.5
0.5089128 0.5
0.5074888 0.5
0.5060648 0.5
0.5046407 0.5
0.5032167 0.5
0.5017927 0.5
0.5003687 0.5
0.4989446 0.5
0.4975205 0.5
0.4960966 0.5
0.4946724 0.5
0.600051 0.8828125
0.5935005 0.8828125
0.5869499 0.8828125
0.5803994 0.8828125
0.5738488 0.8828125
0.5672983 0.8828125
0.5607477 0.8828125
0.5541971 0.8828125
0.5476466 0.8828125
0.541096 0.8828125
0.5345454 0.8828125
0.5279949 0.8828125
0.5214443 0.8828125
0.5148938 0.8828125
0.5083432 0.8828125
0.600051 0.875
0.5937853 0.875
0.5875195 0.875
0.5812538 0.875
0.574988 0.875
0.5687222 0.875
0.5624565 0.875
0.5561908 0.875
0.549925 0.875
0.5436593 0.875
0.5373935 0.875
0.5311278 0.875
0.5248621 0.875
0.5185963 0.875
0.5123305 0.875
0.5616021 0.3125
0.5581844 0.3125
0.5547668 0.3125
0.551349 0.3125
0.5479314 0.3125
0.5445137 0.3125
0.541096 0.3125
0.5376784 0.3125
0.5342606 0.3125
0.530843 0.3125
0.5274253 0.3125
0.5240076 0.3125
0.5205899 0.3125
0.5171722 0.3125
0.5137545 0.3125
0.5188811 0.84375
0.5183115 0.84375
0.5177419 0.84375
0.5171722 0.84375
0.5166026 0.84375
0.5160331 0.84375
0.5154634 0.84375
0.5148938 0.84375
0.5143242 0.84375
0.5137545 0.84375
0.5131849 0.84375
0.5126153 0.84375
0.5120457 0.84375
0.511476 0.84375
0.5109065 0.84375
0.6085953 0.8671875
0.6020447 0.8671875
0.5954942 0.8671875
0.5889436 0.8671875
0.5823931 0.8671875
0.5758425 0.8671875
0.5692919 0.8671875
0.5627413 0.8671875
0.5561908 0.8671875
0.5496402 0.8671875
0.5430896 0.8671875
0.5365391 0.8671875
0.5299885 0.8671875
0.523438 0.8671875
0.5168874 0.8671875
0.5402416 0.8515625
0.5391024 0.8515625
0.5379632 0.8515625
0.5368239 0.8515625
0.5356847 0.8515625
0.5345454 0.8515625
0.5334063 0.8515625
0.532267 0.8515625
0.5311278 0.8515625
0.5299885 0.8515625
0.5288494 0.8515625
0.5277101 0.8515625
0.5265709 0.8515625
0.5254316 0.8515625
0.5242923 0.8515625
0.5530579 0.84375
0.5519187 0.84375
0.5507795 0.84375
0.5496402 0.84375
0.548501 0.84375
0.5473617 0.84375
0.5462226 0.84375
0.5450833 0.84375
0.5439441 0.84375
0.5428048 0.84375
0.5416657 0.84375
0.5405264 0.84375
0.5393872 0.84375
0.5382479 0.84375
0.5371087 0.84375
0.5786905 0.3046875
0.5761273 0.3046875
0.5735641 0.3046875
0.5710007 0.3046875
0.5684375 0.3046875
0.5658742 0.3046875
0.563311 0.3046875
0.5607477 0.3046875
0.5581844 0.3046875
0.5556211 0.3046875
0.5530579 0.3046875
0.5504947 0.3046875
0.5479314 0.3046875
0.5453681 0.3046875
0.5428048 0.3046875
0.5915068 0.296875
0.5886588 0.296875
0.5858107 0.296875
0.5829626 0.296875
0.5801146 0.296875
0.5772665 0.296875
0.5744184 0.296875
0.5715704 0.296875
0.5687222 0.296875
0.5658742 0.296875
0.5630262 0.296875
0.560178 0.296875
0.55733 0.296875
0.554482 0.296875
0.5516338 0.296875
0.6427721 0.8359375
0.6376455 0.8359375
0.632519 0.8359375
0.6273925 0.8359375
0.622266 0.8359375
0.6171395 0.8359375
0.6120129 0.8359375
0.6068864 0.8359375
0.6017599 0.8359375
0.5966334 0.8359375
0.5915068 0.8359375
0.5863804 0.8359375
0.5812538 0.8359375
0.5761273 0.8359375
0.5710007 0.8359375
0.5957789 0.7109375
0.5954942 0.7109375
0.5952094 0.7109375
0.5949245 0.7109375
0.5946397 0.7109375
0.5943549 0.7109375
0.5940701 0.7109375
0.5937853 0.7109375
0.5935005 0.7109375
0.5932157 0.7109375
0.5929309 0.7109375
0.5926461 0.7109375
0.5923612 0.7109375
0.5920764 0.7109375
0.5917916 0.7109375
0.6085953 0.7109375
0.6083105 0.7109375
0.6080257 0.7109375
0.6077408 0.7109375
0.607456 0.7109375
0.6071712 0.7109375
0.6068864 0.7109375
0.6066016 0.7109375
0.6063168 0.7109375
0.606032 0.7109375
0.6057472 0.7109375
0.6054624 0.7109375
0.6051776 0.7109375
0.6048927 0.7109375
0.6046079 0.7109375
0.6342279 0.390625
0.632519 0.390625
0.6308102 0.390625
0.6291013 0.390625
0.6273925 0.390625
0.6256837 0.390625
0.6239748 0.390625
0.622266 0.390625
0.6205571 0.390625
0.6188483 0.390625
0.6171395 0.390625
0.6154306 0.390625
0.6137218 0.390625
0.6120129 0.390625
0.6103041 0.390625
0.6256837 0.515625
0.6251141 0.515625
0.6245444 0.515625
0.6239748 0.515625
0.6234052 0.515625
0.6228356 0.515625
0.622266 0.515625
0.6216964 0.515625
0.6211268 0.515625
0.6205571 0.515625
0.6199875 0.515625
0.6194179 0.515625
0.6188483 0.515625
0.6182787 0.515625
0.617709 0.515625
0.6214116 0.5546875
0.6211268 0.5546875
0.620842 0.5546875
0.6205571 0.5546875
0.6202723 0.5546875
0.6199875 0.5546875
0.6197027 0.5546875
0.6194179 0.5546875
0.6191331 0.5546875
0.6188483 0.5546875
0.6185635 0.5546875
0.6182787 0.5546875
0.6179939 0.5546875
0.617709 0.5546875
0.6174242 0.5546875
0.6256837 0.4921875
0.6253989 0.4921875
0.6251141 0.4921875
0.6248292 0.4921875
0.6245444 0.4921875
0.6242596 0.4921875
0.6239748 0.4921875
0.62369 0.4921875
0.6234052 0.4921875
0.6231204 0.4921875
0.6228356 0.4921875
0.6225508 0.4921875
0.622266 0.4921875
0.6219811 0.4921875
0.6216964 0.4921875
0.6342279 0.46875
0.6336583 0.46875
0.6330886 0.46875
0.632519 0.46875
0.6319494 0.46875
0.6313798 0.46875
0.6308102 0.46875
0.6302406 0.46875
0.629671 0.46875
0.6291013 0.46875
0.6285317 0.46875
0.6279621 0.46875
0.6273925 0.46875
0.6268229 0.46875
0.6262532 0.46875
0.6427721 0.4296875
0.6419176 0.4296875
0.6410633 0.4296875
0.6402088 0.4296875
0.6393544 0.4296875
0.6385 0.4296875
0.6376455 0.4296875
0.6367911 0.4296875
0.6359367 0.4296875
0.6350823 0.4296875
0.6342279 0.4296875
0.6333734 0.4296875
0.632519 0.4296875
0.6316646 0.4296875
0.6308102 0.4296875
0.6940373 0.65625
0.6931829 0.65625
0.6923285 0.65625
0.691474 0.65625
0.6906196 0.65625
0.6897652 0.65625
0.6889108 0.65625
0.6880564 0.65625
0.6872019 0.65625
0.6863475 0.65625
0.6854931 0.65625
0.6846387 0.65625
0.6837843 0.65625
0.6829298 0.65625
0.6820754 0.65625
0.7153978 0.421875
0.7148283 0.421875
0.7142586 0.421875
0.713689 0.421875
0.7131194 0.421875
0.7125497 0.421875
0.7119802 0.421875
0.7114105 0.421875
0.7108409 0.421875
0.7102714 0.421875
0.7097017 0.421875
0.7091321 0.421875
0.7085624 0.421875
0.7079929 0.421875
0.7074233 0.421875
0.7453026 0.421875
0.7444482 0.421875
0.7435938 0.421875
0.7427393 0.421875
0.7418849 0.421875
0.7410305 0.421875
0.7401761 0.421875
0.7393216 0.421875
0.7384672 0.421875
0.7376128 0.421875
0.7367584 0.421875
0.735904 0.421875
0.7350495 0.421875
0.7341951 0.421875
0.7333407 0.421875
0.7367584 0.515625
0.7364736 0.515625
0.7361888 0.515625
0.735904 0.515625
0.7356191 0.515625
0.7353343 0.515625
0.7350495 0.515625
0.7347647 0.515625
0.73448 0.515625
0.7341951 0.515625
0.7339103 0.515625
0.7336255 0.515625
0.7333407 0.515625
0.7330559 0.515625
0.732771 0.515625
0.7453026 0.625
0.744733 0.625
0.7441633 0.625
0.7435938 0.625
0.7430242 0.625
0.7424545 0.625
0.7418849 0.625
0.7413152 0.625
0.7407457 0.625
0.7401761 0.625
0.7396064 0.625
0.7390368 0.625
0.7384672 0.625
0.7378976 0.625
0.737328 0.625
0.7495747 0.53125
0.7492899 0.53125
0.7490051 0.53125
0.7487203 0.53125
0.7484354 0.53125
0.7481506 0.53125
0.7478659 0.53125
0.747581 0.53125
0.7472963 0.53125
0.7470114 0.53125
0.7467266 0.53125
0.7464418 0.53125
0.746157 0.53125
0.7458722 0.53125
0.7455873 0.53125
0.7794794 0.4140625
0.7780554 0.4140625
0.7766313 0.4140625
0.7752073 0.4140625
0.7737833 0.4140625
0.7723592 0.4140625
0.7709352 0.4140625
0.7695112 0.4140625
0.7680871 0.4140625
0.7666631 0.4140625
0.7652391 0.4140625
0.763815 0.4140625
0.762391 0.4140625
0.760967 0.4140625
0.7595429 0.4140625
0.7794794 0.40625
0.7783402 0.40625
0.777201 0.40625
0.7760617 0.40625
0.7749225 0.40625
0.7737833 0.40625
0.772644 0.40625
0.7715048 0.40625
0.7703656 0.40625
0.7692264 0.40625
0.7680871 0.40625
0.7669479 0.40625
0.7658087 0.40625
0.7646694 0.40625
0.7635302 0.40625
0.8222004 0.5703125
0.8216308 0.5703125
0.8210613 0.5703125
0.8204916 0.5703125
0.819922 0.5703125
0.8193523 0.5703125
0.8187827 0.5703125
0.8182132 0.5703125
0.8176435 0.5703125
0.8170739 0.5703125
0.8165043 0.5703125
0.8159347 0.5703125
0.815365 0.5703125
0.8147954 0.5703125
0.8142259 0.5703125
0.9631799 0.3671875
0.962895 0.3671875
0.9626102 0.3671875
0.9623255 0.3671875
0.9620407 0.3671875
0.9617558 0.3671875
0.961471 0.3671875
0.9611862 0.3671875
0.9609014 0.3671875
0.9606166 0.3671875
0.9603319 0.3671875
0.9600469 0.3671875
0.9597622 0.3671875
0.9594774 0.3671875
0.9591926 0.3671875
0.9717241 0.359375
0.9711545 0.359375
0.9705849 0.359375
0.9700152 0.359375
0.9694456 0.359375
0.9688761 0.359375
0.9683064 0.359375
0.9677368 0.359375
0.9671671 0.359375
0.9665976 0.359375
0.9660279 0.359375
0.9654583 0.359375
0.9648887 0.359375
0.9643191 0.359375
0.9637495 0.359375
0.7410305 0.6328125
0.7401761 0.6328125
0.7393216 0.6328125
0.7384672 0.6328125
0.7376128 0.6328125
0.7367584 0.6328125
0.735904 0.6328125
0.7350495 0.6328125
0.7341951 0.6328125
0.7333407 0.6328125
0.7324862 0.6328125
0.7316319 0.6328125
0.7307774 0.6328125
0.729923 0.6328125
0.7290686 0.6328125
0.1087591 0.2578125
0.1076199 0.2578125
0.1064807 0.2578125
0.1053414 0.2578125
0.1042022 0.2578125
0.103063 0.2578125
0.1019237 0.2578125
0.1007845 0.2578125
0.09964529 0.2578125
0.09850605 0.2578125
0.09736684 0.2578125
0.0962276 0.2578125
0.09508839 0.2578125
0.09394915 0.2578125
0.09280994 0.2578125
0.1130312 0.25
0.1127464 0.25
0.1124616 0.25
0.1121768 0.25
0.111892 0.25
0.1116072 0.25
0.1113224 0.25
0.1110376 0.25
0.1107528 0.25
0.110468 0.25
0.1101831 0.25
0.1098984 0.25
0.1096135 0.25
0.1093287 0.25
0.1090439 0.25
0.1685686 0.2109375
0.167999 0.2109375
0.1674293 0.2109375
0.1668597 0.2109375
0.1662901 0.2109375
0.1657205 0.2109375
0.1651509 0.2109375
0.1645813 0.2109375
0.1640117 0.2109375
0.163442 0.2109375
0.1628724 0.2109375
0.1623028 0.2109375
0.1617332 0.2109375
0.1611636 0.2109375
0.160594 0.2109375
0.2027454 0.1796875
0.2024606 0.1796875
0.2021758 0.1796875
0.201891 0.1796875
0.2016062 0.1796875
0.2013213 0.1796875
0.2010365 0.1796875
0.2007517 0.1796875
0.2004669 0.1796875
0.2001821 0.1796875
0.1998973 0.1796875
0.1996125 0.1796875
0.1993277 0.1796875
0.1990429 0.1796875
0.1987581 0.1796875
0.5701463 0.3359375
0.5695767 0.3359375
0.5690071 0.3359375
0.5684375 0.3359375
0.5678679 0.3359375
0.5672983 0.3359375
0.5667286 0.3359375
0.566159 0.3359375
0.5655894 0.3359375
0.5650198 0.3359375
0.5644501 0.3359375
0.5638806 0.3359375
0.563311 0.3359375
0.5627413 0.3359375
0.5621717 0.3359375
0.600051 0.2890625
0.5991966 0.2890625
0.5983422 0.2890625
0.5974878 0.2890625
0.5966334 0.2890625
0.5957789 0.2890625
0.5949245 0.2890625
0.5940701 0.2890625
0.5932157 0.2890625
0.5923612 0.2890625
0.5915068 0.2890625
0.5906525 0.2890625
0.589798 0.2890625
0.5889436 0.2890625
0.5880891 0.2890625
0.6043231 0.3515625
0.6034687 0.3515625
0.6026143 0.3515625
0.6017599 0.3515625
0.6009055 0.3515625
0.600051 0.3515625
0.5991966 0.3515625
0.5983422 0.3515625
0.5974878 0.3515625
0.5966334 0.3515625
0.5957789 0.3515625
0.5949245 0.3515625
0.5940701 0.3515625
0.5932157 0.3515625
0.5923612 0.3515625
0.6513163 0.2890625
0.6490378 0.2890625
0.6467594 0.2890625
0.6444809 0.2890625
0.6422025 0.2890625
0.639924 0.2890625
0.6376455 0.2890625
0.6353671 0.2890625
0.6330886 0.2890625
0.6308102 0.2890625
0.6285317 0.2890625
0.6262532 0.2890625
0.6239748 0.2890625
0.6216964 0.2890625
0.6194179 0.2890625
0.6598605 0.359375
0.6595757 0.359375
0.6592909 0.359375
0.6590061 0.359375
0.6587213 0.359375
0.6584365 0.359375
0.6581517 0.359375
0.6578669 0.359375
0.657582 0.359375
0.6572972 0.359375
0.6570124 0.359375
0.6567276 0.359375
0.6564428 0.359375
0.656158 0.359375
0.6558732 0.359375
0.6897652 0.703125
0.6880564 0.703125
0.6863475 0.703125
0.6846387 0.703125
0.6829298 0.703125
0.681221 0.703125
0.6795122 0.703125
0.6778033 0.703125
0.6760945 0.703125
0.6743856 0.703125
0.6726768 0.703125
0.670968 0.703125
0.6692591 0.703125
0.6675503 0.703125
0.6658414 0.703125
0.6726768 0.34375
0.672392 0.34375
0.6721072 0.34375
0.6718224 0.34375
0.6715376 0.34375
0.6712528 0.34375
0.670968 0.34375
0.6706832 0.34375
0.6703983 0.34375
0.6701135 0.34375
0.6698287 0.34375
0.6695439 0.34375
0.6692591 0.34375
0.6689743 0.34375
0.6686895 0.34375
0.6940373 0.3984375
0.6923285 0.3984375
0.6906196 0.3984375
0.6889108 0.3984375
0.6872019 0.3984375
0.6854931 0.3984375
0.6837843 0.3984375
0.6820754 0.3984375
0.6803666 0.3984375
0.6786577 0.3984375
0.6769489 0.3984375
0.6752401 0.3984375
0.6735312 0.3984375
0.6718224 0.3984375
0.6701135 0.3984375
0.723942 0.484375
0.7236573 0.484375
0.7233725 0.484375
0.7230877 0.484375
0.7228028 0.484375
0.722518 0.484375
0.7222332 0.484375
0.7219484 0.484375
0.7216637 0.484375
0.7213787 0.484375
0.721094 0.484375
0.7208092 0.484375
0.7205244 0.484375
0.7202396 0.484375
0.7199547 0.484375
0.7794794 0.453125
0.7777706 0.453125
0.7760617 0.453125
0.7743529 0.453125
0.772644 0.453125
0.7709352 0.453125
0.7692264 0.453125
0.7675175 0.453125
0.7658087 0.453125
0.7640998 0.453125
0.762391 0.453125
0.7606822 0.453125
0.7589733 0.453125
0.7572645 0.453125
0.7555556 0.453125
0.7709352 0.5
0.769796 0.5
0.7686568 0.5
0.7675175 0.5
0.7663783 0.5
0.7652391 0.5
0.7640998 0.5
0.7629606 0.5
0.7618214 0.5
0.7606822 0.5
0.7595429 0.5
0.7584037 0.5
0.7572645 0.5
0.7561252 0.5
0.754986 0.5
0.7794794 0.4453125
0.7791946 0.4453125
0.7789098 0.4453125
0.778625 0.4453125
0.7783402 0.4453125
0.7780554 0.4453125
0.7777706 0.4453125
0.7774857 0.4453125
0.777201 0.4453125
0.7769161 0.4453125
0.7766313 0.4453125
0.7763465 0.4453125
0.7760617 0.4453125
0.7757769 0.4453125
0.7754921 0.4453125
0.7922957 0.53125
0.7920109 0.53125
0.7917261 0.53125
0.7914413 0.53125
0.7911565 0.53125
0.7908717 0.53125
0.7905869 0.53125
0.790302 0.53125
0.7900173 0.53125
0.7897324 0.53125
0.7894476 0.53125
0.7891628 0.53125
0.788878 0.53125
0.7885932 0.53125
0.7883084 0.53125
0.8222004 0.59375
0.8204916 0.59375
0.8187827 0.59375
0.8170739 0.59375
0.815365 0.59375
0.8136562 0.59375
0.8119474 0.59375
0.8102385 0.59375
0.8085297 0.59375
0.8068208 0.59375
0.805112 0.59375
0.8034032 0.59375
0.8016943 0.59375
0.7999855 0.59375
0.7982766 0.59375
0.8093841 0.546875
0.8088145 0.546875
0.8082449 0.546875
0.8076753 0.546875
0.8071057 0.546875
0.806536 0.546875
0.8059664 0.546875
0.8053968 0.546875
0.8048272 0.546875
0.8042576 0.546875
0.803688 0.546875
0.8031183 0.546875
0.8025487 0.546875
0.8019791 0.546875
0.8014095 0.546875
0.8136562 0.6328125
0.8128018 0.6328125
0.8119474 0.6328125
0.8110929 0.6328125
0.8102385 0.6328125
0.8093841 0.6328125
0.8085297 0.6328125
0.8076753 0.6328125
0.8068208 0.6328125
0.8059664 0.6328125
0.805112 0.6328125
0.8042576 0.6328125
0.8034032 0.6328125
0.8025487 0.6328125
0.8016943 0.6328125
0.8093841 0.625
0.8090993 0.625
0.8088145 0.625
0.8085297 0.625
0.8082449 0.625
0.8079601 0.625
0.8076753 0.625
0.8073905 0.625
0.8071057 0.625
0.8068208 0.625
0.806536 0.625
0.8062512 0.625
0.8059664 0.625
0.8056816 0.625
0.8053968 0.625
0.9033704 0.671875
0.901092 0.671875
0.8988135 0.671875
0.896535 0.671875
0.8942566 0.671875
0.8919781 0.671875
0.8896997 0.671875
0.8874212 0.671875
0.8851428 0.671875
0.8828643 0.671875
0.8805858 0.671875
0.8783074 0.671875
0.876029 0.671875
0.8737505 0.671875
0.871472 0.671875
0.8990983 0.6640625
0.8976743 0.6640625
0.8962502 0.6640625
0.8948262 0.6640625
0.8934022 0.6640625
0.8919781 0.6640625
0.8905541 0.6640625
0.8891301 0.6640625
0.887706 0.6640625
0.886282 0.6640625
0.884858 0.6640625
0.8834339 0.6640625
0.8820099 0.6640625
0.8805858 0.6640625
0.8791618 0.6640625
0.9546357 0.390625
0.9523572 0.390625
0.9500787 0.390625
0.9478003 0.390625
0.9455218 0.390625
0.9432434 0.390625
0.9409649 0.390625
0.9386864 0.390625
0.936408 0.390625
0.9341295 0.390625
0.931851 0.390625
0.9295726 0.390625
0.9272942 0.390625
0.9250157 0.390625
0.9227372 0.390625
0.9332752 0.4296875
0.9327055 0.4296875
0.9321359 0.4296875
0.9315663 0.4296875
0.9309967 0.4296875
0.9304271 0.4296875
0.9298574 0.4296875
0.9292879 0.4296875
0.9287182 0.4296875
0.9281486 0.4296875
0.9275789 0.4296875
0.9270093 0.4296875
0.9264398 0.4296875
0.9258701 0.4296875
0.9253005 0.4296875
0.9418194 0.5234375
0.9415345 0.5234375
0.9412497 0.5234375
0.9409649 0.5234375
0.9406801 0.5234375
0.9403952 0.5234375
0.9401105 0.5234375
0.9398257 0.5234375
0.9395409 0.5234375
0.9392561 0.5234375
0.9389713 0.5234375
0.9386864 0.5234375
0.9384016 0.5234375
0.9381168 0.5234375
0.9378321 0.5234375
0.9546357 0.3828125
0.9537812 0.3828125
0.9529268 0.3828125
0.9520724 0.3828125
0.9512179 0.3828125
0.9503636 0.3828125
0.9495091 0.3828125
0.9486547 0.3828125
0.9478003 0.3828125
0.9469458 0.3828125
0.9460915 0.3828125
0.945237 0.3828125
0.9443826 0.3828125
0.9435282 0.3828125
0.9426737 0.3828125
0.967452 0.328125
0.9660279 0.328125
0.964604 0.328125
0.9631799 0.328125
0.9617558 0.328125
0.9603319 0.328125
0.9589078 0.328125
0.9574837 0.328125
0.9560598 0.328125
0.9546357 0.328125
0.9532116 0.328125
0.9517877 0.328125
0.9503636 0.328125
0.9489395 0.328125
0.9475155 0.328125
1.176785 0.234375
1.1765 0.234375
1.176215 0.234375
1.175931 0.234375
1.175646 0.234375
1.175361 0.234375
1.175076 0.234375
1.174791 0.234375
1.174507 0.234375
1.174222 0.234375
1.173937 0.234375
1.173652 0.234375
1.173367 0.234375
1.173083 0.234375
1.172798 0.234375
0.2369222 0.1640625
0.2366374 0.1640625
0.2363526 0.1640625
0.2360678 0.1640625
0.235783 0.1640625
0.2354982 0.1640625
0.2352134 0.1640625
0.2349286 0.1640625
0.2346438 0.1640625
0.234359 0.1640625
0.2340742 0.1640625
0.2337894 0.1640625
0.2335045 0.1640625
0.2332197 0.1640625
0.2329349 0.1640625
0.2326501 0.1640625
