0.1484375 0.5234375
0.4765625 0.203125
0.4447917 0.203125
0.4130208 0.203125
0.38125 0.203125
0.3494791 0.203125
0.3177083 0.203125
0.2859375 0.203125
0.2541667 0.203125
0.2223958 0.203125
0.190625 0.203125
0.1588542 0.203125
0.1270833 0.203125
0.09531251 0.203125
0.06354165 0.203125
0.03177083 0.203125
0.3671875 0.1953125
0.3432292 0.1953125
0.3192708 0.1953125
0.2953125 0.1953125
0.2713542 0.1953125
0.2473958 0.1953125
0.2234375 0.1953125
0.1994792 0.1953125
0.1755208 0.1953125
0.1515625 0.1953125
0.1276042 0.1953125
0.1036458 0.1953125
0.07968751 0.1953125
0.05572915 0.1953125
0.03177083 0.1953125
0.0859375 0.1875
0.3984375 0.15625
0.3786458 0.15625
0.3588542 0.15625
0.3390625 0.15625
0.3192708 0.15625
0.2994792 0.15625
0.2796875 0.15625
0.2598958 0.15625
0.2401042 0.15625
0.2203125 0.15625
0.2005208 0.15625
0.1807292 0.15625
0.1609375 0.15625
0.1411458 0.15625
0.1213542 0.15625
0.1953125 0.1484375
0.1895833 0.1484375
0.1838542 0.1484375
0.178125 0.1484375
0.1723958 0.1484375
0.1666667 0.1484375
0.1609375 0.1484375
0.1552083 0.1484375
0.1494792 0.1484375
0.14375 0.1484375
0.1380208 0.1484375
0.1322917 0.1484375
0.1265625 0.1484375
0.1208333 0.1484375
0.1151042 0.1484375
0.40625 0.6484375
0.3932292 0.6484375
0.3802083 0.6484375
0.3671875 0.6484375
0.3541667 0.6484375
0.3411458 0.6484375
0.328125 0.6484375
0.3151042 0.6484375
0.3020833 0.6484375
0.2890625 0.6484375
0.2760417 0.6484375
0.2630208 0.6484375
0.25 0.6484375
0.2369792 0.6484375
0.2239583 0.6484375
0.265625 0.1484375
0.4296875 0.296875
0.4171875 0.296875
0.4046875 0.296875
0.3921875 0.296875
0.3796875 0.296875
0.3671875 0.296875
0.3546875 0.296875
0.3421875 0.296875
0.3296875 0.296875
0.3171875 0.296875
0.3046875 0.296875
0.2921875 0.296875
0.2796875 0.296875
0.2671875 0.296875
0.2546875 0.296875
0.421875 0.1484375
0.415625 0.1484375
0.409375 0.1484375
0.403125 0.1484375
0.396875 0.1484375
0.390625 0.1484375
0.384375 0.1484375
0.378125 0.1484375
0.371875 0.1484375
0.365625 0.1484375
0.359375 0.1484375
0.353125 0.1484375
0.346875 0.1484375
0.340625 0.1484375
0.334375 0.1484375
0.421875 0.140625
0.4140625 0.1328125
0.4765625 0.1953125
0.4723958 0.1953125
0.4682292 0.1953125
0.4640625 0.1953125
0.4598958 0.1953125
0.4557292 0.1953125
0.4515625 0.1953125
0.4473958 0.1953125
0.4432292 0.1953125
0.4390625 0.1953125
0.4348958 0.1953125
0.4307292 0.1953125
0.4265625 0.1953125
0.4223958 0.1953125
0.4182292 0.1953125
0.484375 0.1875
0.4765625 0.1796875
0.5625 0.109375
0.8203125 0.3515625
0.8125 0.3515625
0.8046875 0.3515625
0.796875 0.3515625
0.7890625 0.3515625
0.78125 0.3515625
0.7734375 0.3515625
0.765625 0.3515625
0.7578125 0.3515625
0.75 0.3515625
0.7421875 0.3515625
0.734375 0.3515625
0.7265625 0.3515625
0.71875 0.3515625
0.7109375 0.3515625
0.75 0.3203125
0.84375 0.3125
0.84375 0.3046875
0.6875 0.296875
0.75 0.4140625
0.3984375 0.75
0.390625 0.734375
0.4140625 0.4765625
0.8984375 0.6484375
0.8864583 0.6484375
0.8744792 0.6484375
0.8625 0.6484375
0.8505208 0.6484375
0.8385416 0.6484375
0.8265625 0.6484375
0.8145833 0.6484375
0.8026042 0.6484375
0.790625 0.6484375
0.7786459 0.6484375
0.7666667 0.6484375
0.7546875 0.6484375
0.7427083 0.6484375
0.7307292 0.6484375
0.8984375 0.640625
0.8885417 0.640625
0.8786458 0.640625
0.86875 0.640625
0.8588542 0.640625
0.8489584 0.640625
0.8390625 0.640625
0.8291667 0.640625
0.8192708 0.640625
0.809375 0.640625
0.7994791 0.640625
0.7895833 0.640625
0.7796875 0.640625
0.7697917 0.640625
0.7598958 0.640625
0.4609375 0.2109375
0.4302083 0.2114583
0.3994792 0.2119792
0.36875 0.2125
0.3380208 0.2130208
0.3072917 0.2135417
0.2765625 0.2140625
0.2458333 0.2145833
0.2151042 0.2151042
0.184375 0.215625
0.1536458 0.2161458
0.1229167 0.2166667
0.09218749 0.2171875
0.06145832 0.2177083
0.03072917 0.2182292
0.4609375 0.21875
0.4302083 0.2192708
0.3994792 0.2197917
0.36875 0.2203125
0.3380208 0.2208333
0.3072917 0.2213542
0.2765625 0.221875
0.2458333 0.2223958
0.2151042 0.2229167
0.184375 0.2234375
0.1536458 0.2239583
0.1229167 0.2244792
0.09218749 0.225
0.06145832 0.2255208
0.03072917 0.2260417
0.453125 0.2265625
0.4229167 0.2270833
0.3927083 0.2276042
0.3625 0.228125
0.3322917 0.2286458
0.3020833 0.2291667
0.271875 0.2296875
0.2416667 0.2302083
0.2114583 0.2307292
0.18125 0.23125
0.1510417 0.2317708
0.1208333 0.2322917
0.09062499 0.2328125
0.06041667 0.2333333
0.03020832 0.2338542
0.453125 0.234375
0.4229167 0.2348958
0.3927083 0.2354167
0.3625 0.2359375
0.3322917 0.2364583
0.3020833 0.2369792
0.271875 0.2375
0.2416667 0.2380208
0.2114583 0.2385417
0.18125 0.2390625
0.1510417 0.2395833
0.1208333 0.2401042
0.09062499 0.240625
0.06041667 0.2411458
0.03020832 0.2416667
0.453125 0.2421875
0.4229167 0.2427083
0.3927083 0.2432292
0.3625 0.24375
0.3322917 0.2442708
0.3020833 0.2447917
0.271875 0.2453125
0.2416667 0.2458333
0.2114583 0.2463542
0.18125 0.246875
0.1510417 0.2473958
0.1208333 0.2479167
0.09062499 0.2484375
0.06041667 0.2489583
0.03020832 0.2494792
0.453125 0.25
0.4229167 0.2505208
0.3927083 0.2510417
0.3625 0.2515625
0.3322917 0.2520833
0.3020833 0.2526042
0.271875 0.253125
0.2416667 0.2536458
0.2114583 0.2541667
0.18125 0.2546875
0.1510417 0.2552083
0.1208333 0.2557292
0.09062499 0.25625
0.06041667 0.2567708
0.03020832 0.2572917
0.4453125 0.2578125
0.415625 0.2583333
0.3859375 0.2588542
0.35625 0.259375
0.3265625 0.2598958
0.296875 0.2604167
0.2671875 0.2609375
0.2375 0.2614583
0.2078125 0.2619792
0.178125 0.2625
0.1484375 0.2630208
0.11875 0.2635417
0.08906248 0.2640625
0.05937499 0.2645833
0.02968749 0.2651042
0.4375 0.265625
0.4083333 0.2661458
0.3791667 0.2666667
0.35 0.2671875
0.3208333 0.2677083
0.2916667 0.2682292
0.2625 0.26875
0.2333333 0.2692708
0.2041667 0.2697917
0.175 0.2703125
0.1458333 0.2708333
0.1166667 0.2713542
0.08750001 0.271875
0.05833334 0.2723958
0.02916667 0.2729167
0.203125 0.2734375
0.1895833 0.2739583
0.1760417 0.2744792
0.1625 0.275
0.1489583 0.2755208
0.1354167 0.2760417
0.121875 0.2765625
0.1083333 0.2770833
0.09479165 0.2776042
0.08124998 0.278125
0.06770834 0.2786458
0.05416667 0.2791667
0.04062501 0.2796875
0.02708334 0.2802083
0.01354167 0.2807292
0.1953125 0.28125
0.1822917 0.2817708
0.1692708 0.2822917
0.15625 0.2828125
0.1432292 0.2833333
0.1302083 0.2838542
0.1171875 0.284375
0.1041667 0.2848958
0.09114581 0.2854167
0.078125 0.2859375
0.06510416 0.2864583
0.05208334 0.2869792
0.0390625 0.2875
0.02604166 0.2880208
0.01302084 0.2885417
0.1328125 0.2890625
0.1239583 0.2895833
0.1151042 0.2901042
0.10625 0.290625
0.09739584 0.2911458
0.08854166 0.2916667
0.07968751 0.2921875
0.07083333 0.2927083
0.06197917 0.2932292
0.05312499 0.29375
0.04427084 0.2942708
0.03541666 0.2947917
0.02656251 0.2953125
0.01770833 0.2958333
0.008854181 0.2963542
0.1328125 0.296875
0.1239583 0.2973958
0.1151042 0.2979167
0.10625 0.2984375
0.09739584 0.2989583
0.08854166 0.2994792
0.07968751 0.3
0.07083333 0.3005208
0.06197917 0.3010417
0.05312499 0.3015625
0.04427084 0.3020833
0.03541666 0.3026042
0.02656251 0.303125
0.01770833 0.3036458
0.008854181 0.3041667
0.4296875 0.3046875
0.4010417 0.3052083
0.3723958 0.3057292
0.34375 0.30625
0.3151042 0.3067708
0.2864583 0.3072917
0.2578125 0.3078125
0.2291667 0.3083333
0.2005208 0.3088542
0.171875 0.309375
0.1432292 0.3098958
0.1145833 0.3104167
0.0859375 0.3109375
0.05729166 0.3114583
0.02864584 0.3119792
0.4296875 0.3125
0.4010417 0.3130208
0.3723958 0.3135417
0.34375 0.3140625
0.3151042 0.3145833
0.2864583 0.3151042
0.2578125 0.315625
0.2291667 0.3161458
0.2005208 0.3166667
0.171875 0.3171875
0.1432292 0.3177083
0.1145833 0.3182292
0.0859375 0.31875
0.05729166 0.3192708
0.02864584 0.3197917
0.4296875 0.3203125
0.4010417 0.3208333
0.3723958 0.3213542
0.34375 0.321875
0.3151042 0.3223958
0.2864583 0.3229167
0.2578125 0.3234375
0.2291667 0.3239583
0.2005208 0.3244792
0.171875 0.325
0.1432292 0.3255208
0.1145833 0.3260417
0.0859375 0.3265625
0.05729166 0.3270833
0.02864584 0.3276042
0.4296875 0.328125
0.4010417 0.3286458
0.3723958 0.3291667
0.34375 0.3296875
0.3151042 0.3302083
0.2864583 0.3307292
0.2578125 0.33125
0.2291667 0.3317708
0.2005208 0.3322917
0.171875 0.3328125
0.1432292 0.3333333
0.1145833 0.3338542
0.0859375 0.334375
0.05729166 0.3348958
0.02864584 0.3354167
0.4296875 0.3359375
0.4010417 0.3364583
0.3723958 0.3369792
0.34375 0.3375
0.3151042 0.3380208
0.2864583 0.3385417
0.2578125 0.3390625
0.2291667 0.3395833
0.2005208 0.3401042
0.171875 0.340625
0.1432292 0.3411458
0.1145833 0.3416667
0.0859375 0.3421875
0.05729166 0.3427083
0.02864584 0.3432292
0.421875 0.34375
0.39375 0.3442708
0.365625 0.3447917
0.3375 0.3453125
0.309375 0.3458333
0.28125 0.3463542
0.253125 0.346875
0.225 0.3473958
0.196875 0.3479167
0.16875 0.3484375
0.140625 0.3489583
0.1125 0.3494792
0.08437499 0.35
0.05625001 0.3505208
0.02812499 0.3510417
0.421875 0.3515625
0.39375 0.3520833
0.365625 0.3526042
0.3375 0.353125
0.309375 0.3536458
0.28125 0.3541667
0.253125 0.3546875
0.225 0.3552083
0.196875 0.3557292
0.16875 0.35625
0.140625 0.3567708
0.1125 0.3572917
0.08437499 0.3578125
0.05625001 0.3583333
0.02812499 0.3588542
0.4140625 0.359375
0.3864583 0.3598958
0.3588542 0.3604167
0.33125 0.3609375
0.3036458 0.3614583
0.2760417 0.3619792
0.2484375 0.3625
0.2208333 0.3630208
0.1932292 0.3635417
0.165625 0.3640625
0.1380208 0.3645833
0.1104167 0.3651042
0.08281249 0.365625
0.05520833 0.3661458
0.02760416 0.3666667
0.4140625 0.3671875
0.3864583 0.3677083
0.3588542 0.3682292
0.33125 0.36875
0.3036458 0.3692708
0.2760417 0.3697917
0.2484375 0.3703125
0.2208333 0.3708333
0.1932292 0.3713542
0.165625 0.371875
0.1380208 0.3723958
0.1104167 0.3729167
0.08281249 0.3734375
0.05520833 0.3739583
0.02760416 0.3744792
0.40625 0.375
0.3791667 0.3755208
0.3520833 0.3760417
0.325 0.3765625
0.2979167 0.3770833
0.2708333 0.3776042
0.24375 0.378125
0.2166667 0.3786458
0.1895833 0.3791667
0.1625 0.3796875
0.1354167 0.3802083
0.1083333 0.3807292
0.08124998 0.38125
0.05416667 0.3817708
0.02708334 0.3822917
0.4140625 0.3828125
0.3864583 0.3833333
0.3588542 0.3838542
0.33125 0.384375
0.3036458 0.3848958
0.2760417 0.3854167
0.2484375 0.3859375
0.2208333 0.3864583
0.1932292 0.3869792
0.165625 0.3875
0.1380208 0.3880208
0.1104167 0.3885417
0.08281249 0.3890625
0.05520833 0.3895833
0.02760416 0.3901042
0.4140625 0.390625
0.3864583 0.3911458
0.3588542 0.3916667
0.33125 0.3921875
0.3036458 0.3927083
0.2760417 0.3932292
0.2484375 0.39375
0.2208333 0.3942708
0.1932292 0.3947917
0.165625 0.3953125
0.1380208 0.3958333
0.1104167 0.3963542
0.08281249 0.396875
0.05520833 0.3973958
0.02760416 0.3979167
0.40625 0.3984375
0.3791667 0.3989583
0.3520833 0.3994792
0.325 0.4
0.2979167 0.4005208
0.2708333 0.4010417
0.24375 0.4015625
0.2166667 0.4020833
0.1895833 0.4026042
0.1625 0.403125
0.1354167 0.4036458
0.1083333 0.4041667
0.08124998 0.4046875
0.05416667 0.4052083
0.02708334 0.4057292
0.3984375 0.40625
0.371875 0.4067708
0.3453125 0.4072917
0.31875 0.4078125
0.2921875 0.4083333
0.265625 0.4088542
0.2390625 0.409375
0.2125 0.4098958
0.1859375 0.4104167
0.159375 0.4109375
0.1328125 0.4114583
0.10625 0.4119792
0.07968751 0.4125
0.05312499 0.4130208
0.02656251 0.4135417
0.3984375 0.4140625
0.371875 0.4145833
0.3453125 0.4151042
0.31875 0.415625
0.2921875 0.4161458
0.265625 0.4166667
0.2390625 0.4171875
0.2125 0.4177083
0.1859375 0.4182292
0.159375 0.41875
0.1328125 0.4192708
0.10625 0.4197917
0.07968751 0.4203125
0.05312499 0.4208333
0.02656251 0.4213542
0.3984375 0.421875
0.371875 0.4223958
0.3453125 0.4229167
0.31875 0.4234375
0.2921875 0.4239583
0.265625 0.4244792
0.2390625 0.425
0.2125 0.4255208
0.1859375 0.4260417
0.159375 0.4265625
0.1328125 0.4270833
0.10625 0.4276042
0.07968751 0.428125
0.05312499 0.4286458
0.02656251 0.4291667
0.40625 0.4296875
0.3791667 0.4302083
0.3520833 0.4307292
0.325 0.43125
0.2979167 0.4317708
0.2708333 0.4322917
0.24375 0.4328125
0.2166667 0.4333333
0.1895833 0.4338542
0.1625 0.434375
0.1354167 0.4348958
0.1083333 0.4354167
0.08124998 0.4359375
0.05416667 0.4364583
0.02708334 0.4369792
0.40625 0.4375
0.3791667 0.4380208
0.3520833 0.4385417
0.325 0.4390625
0.2979167 0.4395833
0.2708333 0.4401042
0.24375 0.440625
0.2166667 0.4411458
0.1895833 0.4416667
0.1625 0.4421875
0.1354167 0.4427083
0.1083333 0.4432292
0.08124998 0.44375
0.05416667 0.4442708
0.02708334 0.4447917
0.40625 0.4453125
0.3791667 0.4458333
0.3520833 0.4463542
0.325 0.446875
0.2979167 0.4473958
0.2708333 0.4479167
0.24375 0.4484375
0.2166667 0.4489583
0.1895833 0.4494792
0.1625 0.45
0.1354167 0.4505208
0.1083333 0.4510417
0.08124998 0.4515625
0.05416667 0.4520833
0.02708334 0.4526042
0.40625 0.453125
0.3791667 0.4536458
0.3520833 0.4541667
0.325 0.4546875
0.2979167 0.4552083
0.2708333 0.4557292
0.24375 0.45625
0.2166667 0.4567708
0.1895833 0.4572917
0.1625 0.4578125
0.1354167 0.4583333
0.1083333 0.4588542
0.08124998 0.459375
0.05416667 0.4598958
0.02708334 0.4604167
0.3828125 0.4609375
0.3572917 0.4614583
0.3317708 0.4619792
0.30625 0.4625
0.2807292 0.4630208
0.2552083 0.4635417
0.2296875 0.4640625
0.2041667 0.4645833
0.1786458 0.4651042
0.153125 0.465625
0.1276042 0.4661458
0.1020833 0.4666667
0.07656249 0.4671875
0.05104166 0.4677083
0.02552083 0.4682292
0.3671875 0.46875
0.3427083 0.4692708
0.3182292 0.4697917
0.29375 0.4703125
0.2692708 0.4708333
0.2447917 0.4713542
0.2203125 0.471875
0.1958333 0.4723958
0.1713541 0.4729167
0.146875 0.4734375
0.1223958 0.4739583
0.09791666 0.4744792
0.07343748 0.475
0.04895833 0.4755208
0.02447915 0.4760417
0.3671875 0.4765625
0.3427083 0.4770833
0.3182292 0.4776042
0.29375 0.478125
0.2692708 0.4786458
0.2447917 0.4791667
0.2203125 0.4796875
0.1958333 0.4802083
0.1713541 0.4807292
0.146875 0.48125
0.1223958 0.4817708
0.09791666 0.4822917
0.07343748 0.4828125
0.04895833 0.4833333
0.02447915 0.4838542
0.40625 0.484375
0.3791667 0.4848958
0.3520833 0.4854167
0.325 0.4859375
0.2979167 0.4864583
0.2708333 0.4869792
0.24375 0.4875
0.2166667 0.4880208
0.1895833 0.4885417
0.1625 0.4890625
0.1354167 0.4895833
0.1083333 0.4901042
0.08124998 0.490625
0.05416667 0.4911458
0.02708334 0.4916667
0.046875 0.4921875
0.046875 0.5
0.0546875 0.5078125
0.05104166 0.5083333
0.04739583 0.5088542
0.04374999 0.509375
0.04010418 0.5098959
0.03645834 0.5104167
0.03281251 0.5109375
0.02916667 0.5114583
0.02552083 0.5119792
0.02187499 0.5125
0.01822916 0.5130208
0.01458332 0.5135416
0.01093751 0.5140625
0.007291675 0.5145833
0.003645837 0.5151042
0.078125 0.515625
0.07291666 0.5161458
0.06770834 0.5166667
0.0625 0.5171875
0.05729166 0.5177084
0.05208334 0.5182292
0.046875 0.51875
0.04166666 0.5192708
0.03645834 0.5197917
0.03125 0.5203125
0.02604166 0.5208333
0.02083334 0.5213541
0.015625 0.521875
0.01041666 0.5223958
0.005208343 0.5229167
0.09375 0.5234375
0.08750001 0.5239583
0.08125001 0.5244792
0.07499999 0.525
0.06874999 0.5255209
0.0625 0.5260417
0.05625001 0.5265625
0.05000001 0.5270833
0.04374999 0.5276042
0.03749999 0.528125
0.03125 0.5286458
0.02500001 0.5291666
0.01875001 0.5296875
0.01249999 0.5302083
0.006249994 0.5307292
0.1796875 0.53125
0.1677083 0.5317708
0.1557292 0.5322917
0.14375 0.5328125
0.1317708 0.5333334
0.1197917 0.5338542
0.1078125 0.534375
0.09583333 0.5348958
0.08385417 0.5354167
0.07187501 0.5359375
0.05989584 0.5364583
0.04791665 0.5369792
0.03593749 0.5375
0.02395833 0.5380208
0.01197916 0.5385417
0.2734375 0.5390625
0.2552083 0.5395833
0.2369792 0.5401042
0.21875 0.540625
0.2005208 0.5411459
0.1822917 0.5416667
0.1640625 0.5421875
0.1458333 0.5427083
0.1276042 0.5432292
0.109375 0.54375
0.09114581 0.5442708
0.07291666 0.5447917
0.0546875 0.5453125
0.03645834 0.5458333
0.01822916 0.5463542
0.34375 0.546875
0.3208333 0.5473958
0.2979167 0.5479167
0.275 0.5484375
0.2520833 0.5489584
0.2291667 0.5494792
0.20625 0.55
0.1833333 0.5505208
0.1604167 0.5510417
0.1375 0.5515625
0.1145833 0.5520833
0.09166667 0.5526042
0.06874999 0.553125
0.04583332 0.5536458
0.02291667 0.5541667
0.40625 0.5546875
0.3791667 0.5552083
0.3520833 0.5557292
0.325 0.55625
0.2979167 0.5567709
0.2708333 0.5572917
0.24375 0.5578125
0.2166667 0.5583333
0.1895833 0.5588542
0.1625 0.559375
0.1354167 0.5598958
0.1083333 0.5604167
0.08124998 0.5609375
0.05416667 0.5614583
0.02708334 0.5619792
0.1328125 0.5625
0.1239583 0.5630208
0.1151042 0.5635417
0.10625 0.5640625
0.09739584 0.5645833
0.08854166 0.5651042
0.07968751 0.565625
0.07083333 0.5661458
0.06197917 0.5666667
0.05312499 0.5671875
0.04427084 0.5677083
0.03541666 0.5682292
0.02656251 0.56875
0.01770833 0.5692708
0.008854181 0.5697917
0.125 0.5703125
0.1166667 0.5708333
0.1083333 0.5713542
0.09999999 0.571875
0.09166667 0.5723958
0.08333334 0.5729167
0.07499999 0.5734375
0.06666666 0.5739583
0.05833334 0.5744792
0.05000001 0.575
0.04166666 0.5755208
0.03333333 0.5760417
0.02500001 0.5765625
0.01666665 0.5770833
0.008333325 0.5776042
0.1171875 0.578125
0.109375 0.5786458
0.1015625 0.5791667
0.09375 0.5796875
0.0859375 0.5802083
0.078125 0.5807292
0.0703125 0.58125
0.0625 0.5817708
0.0546875 0.5822917
0.046875 0.5828125
0.0390625 0.5833333
0.03125 0.5838542
0.0234375 0.584375
0.015625 0.5848958
0.0078125 0.5854167
0.109375 0.5859375
0.1020833 0.5864583
0.09479168 0.5869792
0.08750001 0.5875
0.08020833 0.5880208
0.07291666 0.5885417
0.06562501 0.5890625
0.05833334 0.5895833
0.05104166 0.5901042
0.04374999 0.590625
0.03645834 0.5911458
0.02916667 0.5916667
0.02187499 0.5921875
0.01458332 0.5927083
0.007291675 0.5932292
0.015625 0.59375
0.015625 0.6015625
0.0234375 0.609375
0.0234375 0.6171875
0.03125 0.625
0.0234375 0.6328125
0.109375 0.6015625
0.1057292 0.6010417
0.1020833 0.6005208
0.09843749 0.6
0.09479168 0.5994792
0.09114584 0.5989583
0.08750001 0.5984375
0.08385417 0.5979167
0.08020833 0.5973958
0.07656249 0.596875
0.07291666 0.5963542
0.06927082 0.5958333
0.06562501 0.5953125
0.06197917 0.5947917
0.05833334 0.5942708
0.109375 0.6015625
0.1057292 0.6015625
0.1020833 0.6015625
0.09843749 0.6015625
0.09479168 0.6015625
0.09114584 0.6015625
0.08750001 0.6015625
0.08385417 0.6015625
0.08020833 0.6015625
0.07656249 0.6015625
0.07291666 0.6015625
0.06927082 0.6015625
0.06562501 0.6015625
0.06197917 0.6015625
0.05833334 0.6015625
0.0859375 0.6171875
0.078125 0.625
0.078125 0.6328125
0.078125 0.6328125
0.40625 0.4921875
0.3848958 0.4921875
0.3635417 0.4921875
0.3421875 0.4921875
0.3208333 0.4921875
0.2994792 0.4921875
0.278125 0.4921875
0.2567708 0.4921875
0.2354167 0.4921875
0.2140625 0.4921875
0.1927083 0.4921875
0.1713542 0.4921875
0.15 0.4921875
0.1286458 0.4921875
0.1072917 0.4921875
0.3828125 0.1640625
0.3640625 0.1645833
0.3453125 0.1651042
0.3265625 0.165625
0.3078125 0.1661458
0.2890625 0.1666667
0.2703125 0.1671875
0.2515625 0.1677083
0.2328125 0.1682292
0.2140625 0.16875
0.1953125 0.1692708
0.1765625 0.1697917
0.1578125 0.1703125
0.1390625 0.1708333
0.1203125 0.1713542
0.375 0.171875
0.3567708 0.1723958
0.3385417 0.1729167
0.3203125 0.1734375
0.3020833 0.1739583
0.2838542 0.1744792
0.265625 0.175
0.2473958 0.1755208
0.2291667 0.1760417
0.2109375 0.1765625
0.1927083 0.1770833
0.1744792 0.1776042
0.15625 0.178125
0.1380208 0.1786458
0.1197917 0.1791667
0.359375 0.1796875
0.3421875 0.1802083
0.325 0.1807292
0.3078125 0.18125
0.290625 0.1817708
0.2734375 0.1822917
0.25625 0.1828125
0.2390625 0.1833333
0.221875 0.1838542
0.2046875 0.184375
0.1875 0.1848958
0.1703125 0.1854167
0.153125 0.1859375
0.1359375 0.1864583
0.11875 0.1869792
0.359375 0.1875
0.3421875 0.1875
0.325 0.1875
0.3078125 0.1875
0.290625 0.1875
0.2734375 0.1875
0.25625 0.1875
0.2390625 0.1875
0.221875 0.1875
0.2046875 0.1875
0.1875 0.1875
0.1703125 0.1875
0.153125 0.1875
0.1359375 0.1875
0.11875 0.1875
0.40625 0.5
0.3880208 0.5
0.3697917 0.5
0.3515625 0.5
0.3333333 0.5
0.3151042 0.5
0.296875 0.5
0.2786458 0.5
0.2604167 0.5
0.2421875 0.5
0.2239583 0.5
0.2057292 0.5
0.1875 0.5
0.1692708 0.5
0.1510417 0.5
0.40625 0.5625
0.3890625 0.5625
0.371875 0.5625
0.3546875 0.5625
0.3375 0.5625
0.3203125 0.5625
0.303125 0.5625
0.2859375 0.5625
0.26875 0.5625
0.2515625 0.5625
0.234375 0.5625
0.2171875 0.5625
0.2 0.5625
0.1828125 0.5625
0.165625 0.5625
0.40625 0.5703125
0.3901042 0.5703125
0.3739583 0.5703125
0.3578125 0.5703125
0.3416667 0.5703125
0.3255208 0.5703125
0.309375 0.5703125
0.2932292 0.5703125
0.2770833 0.5703125
0.2609375 0.5703125
0.2447917 0.5703125
0.2286458 0.5703125
0.2125 0.5703125
0.1963542 0.5703125
0.1802083 0.5703125
0.40625 0.578125
0.390625 0.578125
0.375 0.578125
0.359375 0.578125
0.34375 0.578125
0.328125 0.578125
0.3125 0.578125
0.296875 0.578125
0.28125 0.578125
0.265625 0.578125
0.25 0.578125
0.234375 0.578125
0.21875 0.578125
0.203125 0.578125
0.1875 0.578125
0.40625 0.5078125
0.3911458 0.5078125
0.3760417 0.5078125
0.3609375 0.5078125
0.3458333 0.5078125
0.3307292 0.5078125
0.315625 0.5078125
0.3005208 0.5078125
0.2854167 0.5078125
0.2703125 0.5078125
0.2552083 0.5078125
0.2401042 0.5078125
0.225 0.5078125
0.2098958 0.5078125
0.1947917 0.5078125
0.40625 0.5859375
0.3911458 0.5859375
0.3760417 0.5859375
0.3609375 0.5859375
0.3458333 0.5859375
0.3307292 0.5859375
0.315625 0.5859375
0.3005208 0.5859375
0.2854167 0.5859375
0.2703125 0.5859375
0.2552083 0.5859375
0.2401042 0.5859375
0.225 0.5859375
0.2098958 0.5859375
0.1947917 0.5859375
0.3984375 0.59375
0.384375 0.5942708
0.3703125 0.5947917
0.35625 0.5953125
0.3421875 0.5958333
0.328125 0.5963542
0.3140625 0.596875
0.3 0.5973958
0.2859375 0.5979167
0.271875 0.5984375
0.2578125 0.5989583
0.24375 0.5994792
0.2296875 0.6
0.215625 0.6005208
0.2015625 0.6010417
0.3828125 0.6015625
0.3697917 0.6015625
0.3567708 0.6015625
0.34375 0.6015625
0.3307292 0.6015625
0.3177083 0.6015625
0.3046875 0.6015625
0.2916667 0.6015625
0.2786458 0.6015625
0.265625 0.6015625
0.2526042 0.6015625
0.2395833 0.6015625
0.2265625 0.6015625
0.2135417 0.6015625
0.2005208 0.6015625
0.375 0.609375
0.3630208 0.609375
0.3510417 0.609375
0.3390625 0.609375
0.3270833 0.609375
0.3151042 0.609375
0.303125 0.609375
0.2911458 0.609375
0.2791667 0.609375
0.2671875 0.609375
0.2552083 0.609375
0.2432292 0.609375
0.23125 0.609375
0.2192708 0.609375
0.2072917 0.609375
0.3828125 0.625
0.3708333 0.6244792
0.3588542 0.6239583
0.346875 0.6234375
0.3348958 0.6229167
0.3229167 0.6223958
0.3109375 0.621875
0.2989583 0.6213542
0.2869792 0.6208333
0.275 0.6203125
0.2630208 0.6197917
0.2510417 0.6192708
0.2390625 0.61875
0.2270833 0.6182292
0.2151042 0.6177083
0.3828125 0.625
0.3708333 0.625
0.3588542 0.625
0.346875 0.625
0.3348958 0.625
0.3229167 0.625
0.3109375 0.625
0.2989583 0.625
0.2869792 0.625
0.275 0.625
0.2630208 0.625
0.2510417 0.625
0.2390625 0.625
0.2270833 0.625
0.2151042 0.625
0.40625 0.515625
0.3932292 0.515625
0.3802083 0.515625
0.3671875 0.515625
0.3541667 0.515625
0.3411458 0.515625
0.328125 0.515625
0.3151042 0.515625
0.3020833 0.515625
0.2890625 0.515625
0.2760417 0.515625
0.2630208 0.515625
0.25 0.515625
0.2369792 0.515625
0.2239583 0.515625
0.40625 0.6328125
0.3932292 0.6328125
0.3802083 0.6328125
0.3671875 0.6328125
0.3541667 0.6328125
0.3411458 0.6328125
0.328125 0.6328125
0.3151042 0.6328125
0.3020833 0.6328125
0.2890625 0.6328125
0.2760417 0.6328125
0.2630208 0.6328125
0.25 0.6328125
0.2369792 0.6328125
0.2239583 0.6328125
0.40625 0.640625
0.39375 0.6416667
0.38125 0.6427083
0.36875 0.64375
0.35625 0.6447917
0.34375 0.6458333
0.33125 0.646875
0.31875 0.6479167
0.30625 0.6489583
0.29375 0.65
0.28125 0.6510417
0.26875 0.6520833
0.25625 0.653125
0.24375 0.6541667
0.23125 0.6552083
0.40625 0.65625
0.39375 0.65625
0.38125 0.65625
0.36875 0.65625
0.35625 0.65625
0.34375 0.65625
0.33125 0.65625
0.31875 0.65625
0.30625 0.65625
0.29375 0.65625
0.28125 0.65625
0.26875 0.65625
0.25625 0.65625
0.24375 0.65625
0.23125 0.65625
0.34375 0.6640625
0.3359375 0.6640625
0.328125 0.6640625
0.3203125 0.6640625
0.3125 0.6640625
0.3046875 0.6640625
0.296875 0.6640625
0.2890625 0.6640625
0.28125 0.6640625
0.2734375 0.6640625
0.265625 0.6640625
0.2578125 0.6640625
0.25 0.6640625
0.2421875 0.6640625
0.234375 0.6640625
0.4375 0.2734375
0.4244792 0.2734375
0.4114583 0.2734375
0.3984375 0.2734375
0.3854167 0.2734375
0.3723958 0.2734375
0.359375 0.2734375
0.3463542 0.2734375
0.3333333 0.2734375
0.3203125 0.2734375
0.3072917 0.2734375
0.2942708 0.2734375
0.28125 0.2734375
0.2682292 0.2734375
0.2552083 0.2734375
0.34375 0.671875
0.3369792 0.6723958
0.3302083 0.6729167
0.3234375 0.6734375
0.3166667 0.6739583
0.3098958 0.6744792
0.303125 0.675
0.2963542 0.6755208
0.2895833 0.6760417
0.2828125 0.6765625
0.2760417 0.6770833
0.2692708 0.6776042
0.2625 0.678125
0.2557292 0.6786458
0.2489583 0.6791667
0.40625 0.6796875
0.3953125 0.6802083
0.384375 0.6807292
0.3734375 0.68125
0.3625 0.6817708
0.3515625 0.6822917
0.340625 0.6828125
0.3296875 0.6833333
0.31875 0.6838542
0.3078125 0.684375
0.296875 0.6848958
0.2859375 0.6854167
0.275 0.6859375
0.2640625 0.6864583
0.253125 0.6869792
0.40625 0.6875
0.3953125 0.6880208
0.384375 0.6885417
0.3734375 0.6890625
0.3625 0.6895833
0.3515625 0.6901042
0.340625 0.690625
0.3296875 0.6911458
0.31875 0.6916667
0.3078125 0.6921875
0.296875 0.6927083
0.2859375 0.6932292
0.275 0.69375
0.2640625 0.6942708
0.253125 0.6947917
0.421875 0.2890625
0.4104167 0.2885417
0.3989583 0.2880208
0.3875 0.2875
0.3760417 0.2869792
0.3645833 0.2864583
0.353125 0.2859375
0.3416667 0.2854167
0.3302083 0.2848958
0.31875 0.284375
0.3072917 0.2838542
0.2958333 0.2833333
0.284375 0.2828125
0.2729167 0.2822917
0.2614583 0.2817708
0.421875 0.2890625
0.4104167 0.2890625
0.3989583 0.2890625
0.3875 0.2890625
0.3760417 0.2890625
0.3645833 0.2890625
0.353125 0.2890625
0.3416667 0.2890625
0.3302083 0.2890625
0.31875 0.2890625
0.3072917 0.2890625
0.2958333 0.2890625
0.284375 0.2890625
0.2729167 0.2890625
0.2614583 0.2890625
0.40625 0.6953125
0.396875 0.6953125
0.3875 0.6953125
0.378125 0.6953125
0.36875 0.6953125
0.359375 0.6953125
0.35 0.6953125
0.340625 0.6953125
0.33125 0.6953125
0.321875 0.6953125
0.3125 0.6953125
0.303125 0.6953125
0.29375 0.6953125
0.284375 0.6953125
0.275 0.6953125
0.40625 0.5234375
0.3979167 0.5234375
0.3895833 0.5234375
0.38125 0.5234375
0.3729167 0.5234375
0.3645833 0.5234375
0.35625 0.5234375
0.3479167 0.5234375
0.3395833 0.5234375
0.33125 0.5234375
0.3229167 0.5234375
0.3145833 0.5234375
0.30625 0.5234375
0.2979167 0.5234375
0.2895833 0.5234375
0.40625 0.703125
0.3979167 0.703125
0.3895833 0.703125
0.38125 0.703125
0.3729167 0.703125
0.3645833 0.703125
0.35625 0.703125
0.3479167 0.703125
0.3395833 0.703125
0.33125 0.703125
0.3229167 0.703125
0.3145833 0.703125
0.30625 0.703125
0.2979167 0.703125
0.2895833 0.703125
0.40625 0.7109375
0.3989583 0.7114583
0.3916667 0.7119792
0.384375 0.7125
0.3770833 0.7130208
0.3697917 0.7135417
0.3625 0.7140625
0.3552083 0.7145833
0.3479167 0.7151042
0.340625 0.715625
0.3333333 0.7161458
0.3260417 0.7166667
0.31875 0.7171875
0.3114583 0.7177083
0.3041667 0.7182292
0.359375 0.71875
0.3552083 0.71875
0.3510417 0.71875
0.346875 0.71875
0.3427083 0.71875
0.3385417 0.71875
0.334375 0.71875
0.3302083 0.71875
0.3260417 0.71875
0.321875 0.71875
0.3177083 0.71875
0.3135417 0.71875
0.309375 0.71875
0.3052083 0.71875
0.3010417 0.71875
0.359375 0.7265625
0.3557292 0.7265625
0.3520833 0.7265625
0.3484375 0.7265625
0.3447917 0.7265625
0.3411458 0.7265625
0.3375 0.7265625
0.3338542 0.7265625
0.3302083 0.7265625
0.3265625 0.7265625
0.3229167 0.7265625
0.3192708 0.7265625
0.315625 0.7265625
0.3119792 0.7265625
0.3083333 0.7265625
0.359375 0.734375
0.40625 0.53125
0.4026042 0.53125
0.3989583 0.53125
0.3953125 0.53125
0.3916667 0.53125
0.3880208 0.53125
0.384375 0.53125
0.3807292 0.53125
0.3770833 0.53125
0.3734375 0.53125
0.3697917 0.53125
0.3661458 0.53125
0.3625 0.53125
0.3588542 0.53125
0.3552083 0.53125
0.40625 0.6640625
0.40625 0.671875
0.3984375 0.7421875
0.390625 0.7578125
0.40625 0.4609375
0.5859375 0.15625
0.6015625 0.1640625
0.609375 0.171875
0.6171875 0.1796875
0.6640625 0.234375
0.6640625 0.234375
0.6953125 0.2421875
0.703125 0.25
0.703125 0.265625
0.703125 0.265625
0.6875 0.2734375
0.6953125 0.3046875
0.6953125 0.3125
0.6953125 0.3203125
0.9765625 0.390625
0.9588542 0.390625
0.9411458 0.390625
0.9234375 0.390625
0.9057292 0.390625
0.8880209 0.390625
0.8703125 0.390625
0.8526042 0.390625
0.8348958 0.390625
0.8171875 0.390625
0.7994791 0.390625
0.7817708 0.390625
0.7640625 0.390625
0.7463542 0.390625
0.7286458 0.390625
0.75 0.4296875
0.7578125 0.4375
0.7734375 0.4453125
0.7692708 0.4447917
0.7651042 0.4442708
0.7609375 0.44375
0.7567708 0.4432292
0.7526041 0.4427083
0.7484375 0.4421875
0.7442708 0.4416667
0.7401042 0.4411458
0.7359375 0.440625
0.7317708 0.4401042
0.7276042 0.4395833
0.7234375 0.4390625
0.7192708 0.4385417
0.7151042 0.4380208
0.7890625 0.453125
0.7838541 0.4526042
0.7786459 0.4520833
0.7734375 0.4515625
0.7682291 0.4510417
0.7630209 0.4505208
0.7578125 0.45
0.7526041 0.4494792
0.7473958 0.4489583
0.7421875 0.4484375
0.7369792 0.4479167
0.7317708 0.4473958
0.7265625 0.446875
0.7213542 0.4463542
0.7161458 0.4458333
0.7890625 0.453125
0.7838541 0.453125
0.7786459 0.453125
0.7734375 0.453125
0.7682291 0.453125
0.7630209 0.453125
0.7578125 0.453125
0.7526041 0.453125
0.7473958 0.453125
0.7421875 0.453125
0.7369792 0.453125
0.7317708 0.453125
0.7265625 0.453125
0.7213542 0.453125
0.7161458 0.453125
0.78125 0.40625
0.7770833 0.4057292
0.7729167 0.4052083
0.76875 0.4046875
0.7645833 0.4041667
0.7604166 0.4036458
0.75625 0.403125
0.7520833 0.4026042
0.7479167 0.4020833
0.74375 0.4015625
0.7395833 0.4010417
0.7354167 0.4005208
0.73125 0.4
0.7270833 0.3994792
0.7229167 0.3989583
0.78125 0.40625
0.7770833 0.40625
0.7729167 0.40625
0.76875 0.40625
0.7645833 0.40625
0.7604166 0.40625
0.75625 0.40625
0.7520833 0.40625
0.7479167 0.40625
0.74375 0.40625
0.7395833 0.40625
0.7354167 0.40625
0.73125 0.40625
0.7270833 0.40625
0.7229167 0.40625
0.7890625 0.6953125
0.784375 0.6947917
0.7796875 0.6942708
0.775 0.69375
0.7703125 0.6932292
0.765625 0.6927083
0.7609375 0.6921875
0.75625 0.6916667
0.7515625 0.6911458
0.746875 0.690625
0.7421875 0.6901042
0.7375 0.6895833
0.7328125 0.6890625
0.728125 0.6885417
0.7234375 0.6880208
0.7890625 0.6953125
0.784375 0.6953125
0.7796875 0.6953125
0.775 0.6953125
0.7703125 0.6953125
0.765625 0.6953125
0.7609375 0.6953125
0.75625 0.6953125
0.7515625 0.6953125
0.746875 0.6953125
0.7421875 0.6953125
0.7375 0.6953125
0.7328125 0.6953125
0.728125 0.6953125
0.7234375 0.6953125
0.8359375 0.7109375
0.828125 0.7104167
0.8203125 0.7098958
0.8125 0.709375
0.8046875 0.7088542
0.796875 0.7083333
0.7890625 0.7078125
0.78125 0.7072917
0.7734375 0.7067708
0.765625 0.70625
0.7578125 0.7057292
0.75 0.7052083
0.7421875 0.7046875
0.734375 0.7041667
0.7265625 0.7036458
0.8203125 0.71875
0.8135417 0.7182292
0.8067708 0.7177083
0.8 0.7171875
0.7932292 0.7166667
0.7864584 0.7161458
0.7796875 0.715625
0.7729167 0.7151042
0.7661458 0.7145833
0.759375 0.7140625
0.7526041 0.7135417
0.7458333 0.7130208
0.7390625 0.7125
0.7322917 0.7119792
0.7255208 0.7114583
0.8203125 0.71875
0.8135417 0.71875
0.8067708 0.71875
0.8 0.71875
0.7932292 0.71875
0.7864584 0.71875
0.7796875 0.71875
0.7729167 0.71875
0.7661458 0.71875
0.759375 0.71875
0.7526041 0.71875
0.7458333 0.71875
0.7390625 0.71875
0.7322917 0.71875
0.7255208 0.71875
0.7734375 0.7265625
0.7697917 0.7265625
0.7661458 0.7265625
0.7625 0.7265625
0.7588542 0.7265625
0.7552084 0.7265625
0.7515625 0.7265625
0.7479167 0.7265625
0.7442708 0.7265625
0.740625 0.7265625
0.7369792 0.7265625
0.7333333 0.7265625
0.7296875 0.7265625
0.7260417 0.7265625
0.7223958 0.7265625
0.7265625 0.734375
0.7421875 0.328125
0.8984375 0.3984375
0.890625 0.40625
0.9765625 0.703125
0.9723958 0.703125
0.9682292 0.703125
0.9640625 0.703125
0.9598958 0.703125
0.9557291 0.703125
0.9515625 0.703125
0.9473958 0.703125
0.9432292 0.703125
0.9390625 0.703125
0.9348959 0.703125
0.9307292 0.703125
0.9265625 0.703125
0.9223958 0.703125
0.9182292 0.703125
0.953125 0.7109375
0.921875 0.7109375
