0.0859375 0.6640625
0.08020833 0.6645833
0.07447916 0.6651042
0.06874999 0.665625
0.06302083 0.6661458
0.05729166 0.6666667
0.05156249 0.6671875
0.04583332 0.6677083
0.04010415 0.6682292
0.03437501 0.66875
0.02864584 0.6692708
0.02291667 0.6697917
0.01718751 0.6703125
0.01145834 0.6708333
0.005729169 0.6713542
0.0703125 0.671875
0.06562501 0.6723958
0.06093749 0.6729167
0.05625001 0.6734375
0.05156249 0.6739583
0.046875 0.6744792
0.04218751 0.675
0.03749999 0.6755208
0.03281251 0.6760417
0.02812499 0.6765625
0.0234375 0.6770833
0.01875001 0.6776042
0.01406249 0.678125
0.009375006 0.6786458
0.004687488 0.6791667
0.0625 0.6796875
0.05833334 0.6802083
0.05416667 0.6807292
0.05000001 0.68125
0.04583332 0.6817708
0.04166666 0.6822917
0.03749999 0.6828125
0.03333333 0.6833333
0.02916667 0.6838542
0.02500001 0.684375
0.02083334 0.6848958
0.01666665 0.6854167
0.01249999 0.6859375
0.008333325 0.6864583
0.004166663 0.6869792
0.0625 0.6875
0.05833334 0.6880208
0.05416667 0.6885417
0.05000001 0.6890625
0.04583332 0.6895833
0.04166666 0.6901042
0.03749999 0.690625
0.03333333 0.6911458
0.02916667 0.6916667
0.02500001 0.6921875
0.02083334 0.6927083
0.01666665 0.6932292
0.01249999 0.69375
0.008333325 0.6942708
0.004166663 0.6947917
0.0625 0.6953125
0.05833334 0.6958333
0.05416667 0.6963542
0.05000001 0.696875
0.04583332 0.6973958
0.04166666 0.6979167
0.03749999 0.6984375
0.03333333 0.6989583
0.02916667 0.6994792
0.02500001 0.7
0.02083334 0.7005208
0.01666665 0.7010417
0.01249999 0.7015625
0.008333325 0.7020833
0.004166663 0.7026042
0.0703125 0.703125
0.06562501 0.7036458
0.06093749 0.7041667
0.05625001 0.7046875
0.05156249 0.7052083
0.046875 0.7057292
0.04218751 0.70625
0.03749999 0.7067708
0.03281251 0.7072917
0.02812499 0.7078125
0.0234375 0.7083333
0.01875001 0.7088542
0.01406249 0.709375
0.009375006 0.7098958
0.004687488 0.7104167
0.0703125 0.7109375
0.06562501 0.7114583
0.06093749 0.7119792
0.05625001 0.7125
0.05156249 0.7130208
0.046875 0.7135417
0.04218751 0.7140625
0.03749999 0.7145833
0.03281251 0.7151042
0.02812499 0.715625
0.0234375 0.7161458
0.01875001 0.7166667
0.01406249 0.7171875
0.009375006 0.7177083
0.004687488 0.7182292
0.0625 0.71875
0.05833334 0.7192708
0.05416667 0.7197917
0.05000001 0.7203125
0.04583332 0.7208333
0.04166666 0.7213542
0.03749999 0.721875
0.03333333 0.7223958
0.02916667 0.7229167
0.02500001 0.7234375
0.02083334 0.7239583
0.01666665 0.7244792
0.01249999 0.725
0.008333325 0.7255208
0.004166663 0.7260417
0.0625 0.7265625
0.05833334 0.7270833
0.05416667 0.7276042
0.05000001 0.728125
0.04583332 0.7286458
0.04166666 0.7291667
0.03749999 0.7296875
0.03333333 0.7302083
0.02916667 0.7307292
0.02500001 0.73125
0.02083334 0.7317708
0.01666665 0.7322917
0.01249999 0.7328125
0.008333325 0.7333333
0.004166663 0.7338542
0.046875 0.734375
0.0390625 0.7421875
0.03125 0.75
0.0234375 0.7578125
0.015625 0.765625
0.015625 0.7734375
0.0234375 0.78125
0.0234375 0.7890625
0.0390625 0.796875
0.0703125 0.8046875
0.06562501 0.8052083
0.06093749 0.8057292
0.05625001 0.80625
0.05156249 0.8067708
0.046875 0.8072916
0.04218751 0.8078125
0.03749999 0.8083333
0.03281251 0.8088542
0.02812499 0.809375
0.0234375 0.8098959
0.01875001 0.8104167
0.01406249 0.8109375
0.009375006 0.8114583
0.004687488 0.8119792
0.078125 0.8125
0.07291666 0.8125
0.06770834 0.8125
0.0625 0.8125
0.05729166 0.8125
0.05208334 0.8125
0.046875 0.8125
0.04166666 0.8125
0.03645834 0.8125
0.03125 0.8125
0.02604166 0.8125
0.02083334 0.8125
0.015625 0.8125
0.01041666 0.8125
0.005208343 0.8125
0.078125 0.8515625
0.07291666 0.8510417
0.06770834 0.8505208
0.0625 0.85
0.05729166 0.8494792
0.05208334 0.8489584
0.046875 0.8484375
0.04166666 0.8479167
0.03645834 0.8473958
0.03125 0.846875
0.02604166 0.8463541
0.02083334 0.8458333
0.015625 0.8453125
0.01041666 0.8447917
0.005208343 0.8442708
0.078125 0.859375
0.07291666 0.8588542
0.06770834 0.8583333
0.0625 0.8578125
0.05729166 0.8572917
0.05208334 0.8567709
0.046875 0.85625
0.04166666 0.8557292
0.03645834 0.8552083
0.03125 0.8546875
0.02604166 0.8541666
0.02083334 0.8536458
0.015625 0.853125
0.01041666 0.8526042
0.005208343 0.8520833
0.078125 0.8671875
0.07291666 0.8666667
0.06770834 0.8661458
0.0625 0.865625
0.05729166 0.8651042
0.05208334 0.8645834
0.046875 0.8640625
0.04166666 0.8635417
0.03645834 0.8630208
0.03125 0.8625
0.02604166 0.8619791
0.02083334 0.8614583
0.015625 0.8609375
0.01041666 0.8604167
0.005208343 0.8598958
0.0859375 0.875
0.08020833 0.8744792
0.07447916 0.8739583
0.06874999 0.8734375
0.06302083 0.8729167
0.05729166 0.8723959
0.05156249 0.871875
0.04583332 0.8713542
0.04010415 0.8708333
0.03437501 0.8703125
0.02864584 0.8697916
0.02291667 0.8692708
0.01718751 0.86875
0.01145834 0.8682292
0.005729169 0.8677083
0.09375 0.8828125
0.08750001 0.8822917
0.08125001 0.8817708
0.07499999 0.88125
0.06874999 0.8807292
0.0625 0.8802084
0.05625001 0.8796875
0.05000001 0.8791667
0.04374999 0.8786458
0.03749999 0.878125
0.03125 0.8776041
0.02500001 0.8770833
0.01875001 0.8765625
0.01249999 0.8760417
0.006249994 0.8755208
0.09375 0.8828125
0.08750001 0.8828125
0.08125001 0.8828125
0.07499999 0.8828125
0.06874999 0.8828125
0.0625 0.8828125
0.05625001 0.8828125
0.05000001 0.8828125
0.04374999 0.8828125
0.03749999 0.8828125
0.03125 0.8828125
0.02500001 0.8828125
0.01875001 0.8828125
0.01249999 0.8828125
0.006249994 0.8828125
0.28125 0.8984375
0.2625 0.8979167
0.24375 0.8973958
0.225 0.896875
0.20625 0.8963542
0.1875 0.8958334
0.16875 0.8953125
0.15 0.8947917
0.13125 0.8942708
0.1125 0.89375
0.09375 0.8932291
0.07499999 0.8927083
0.05625001 0.8921875
0.03749999 0.8916667
0.01875001 0.8911458
0.28125 0.8984375
0.2625 0.8984375
0.24375 0.8984375
0.225 0.8984375
0.20625 0.8984375
0.1875 0.8984375
0.16875 0.8984375
0.15 0.8984375
0.13125 0.8984375
0.1125 0.8984375
0.09375 0.8984375
0.07499999 0.8984375
0.05625001 0.8984375
0.03749999 0.8984375
0.01875001 0.8984375
0.0859375 0.9140625
0.08020833 0.9135417
0.07447916 0.9130208
0.06874999 0.9125
0.06302083 0.9119792
0.05729166 0.9114584
0.05156249 0.9109375
0.04583332 0.9104167
0.04010415 0.9098958
0.03437501 0.909375
0.02864584 0.9088541
0.02291667 0.9083333
0.01718751 0.9078125
0.01145834 0.9072917
0.005729169 0.9067708
0.0625 0.921875
0.05833334 0.9213542
0.05416667 0.9208333
0.05000001 0.9203125
0.04583332 0.9197917
0.04166666 0.9192709
0.03749999 0.91875
0.03333333 0.9182292
0.02916667 0.9177083
0.02500001 0.9171875
0.02083334 0.9166666
0.01666665 0.9161458
0.01249999 0.915625
0.008333325 0.9151042
0.004166663 0.9145833
0.0546875 0.9296875
0.05104166 0.9291667
0.04739583 0.9286458
0.04374999 0.928125
0.04010418 0.9276042
0.03645834 0.9270834
0.03281251 0.9265625
0.02916667 0.9260417
0.02552083 0.9255208
0.02187499 0.925
0.01822916 0.9244791
0.01458332 0.9239583
0.01093751 0.9234375
0.007291675 0.9229167
0.003645837 0.9223958
0.0546875 0.9375
0.05104166 0.9369792
0.04739583 0.9364583
0.04374999 0.9359375
0.04010418 0.9354167
0.03645834 0.9348959
0.03281251 0.934375
0.02916667 0.9338542
0.02552083 0.9333333
0.02187499 0.9328125
0.01822916 0.9322916
0.01458332 0.9317708
0.01093751 0.93125
0.007291675 0.9307292
0.003645837 0.9302083
0.0625 0.9453125
0.05833334 0.9447917
0.05416667 0.9442708
0.05000001 0.94375
0.04583332 0.9432292
0.04166666 0.9427084
0.03749999 0.9421875
0.03333333 0.9416667
0.02916667 0.9411458
0.02500001 0.940625
0.02083334 0.9401041
0.01666665 0.9395833
0.01249999 0.9390625
0.008333325 0.9385417
0.004166663 0.9380208
0.0703125 0.953125
0.06562501 0.9526042
0.06093749 0.9520833
0.05625001 0.9515625
0.05156249 0.9510417
0.046875 0.9505209
0.04218751 0.95
0.03749999 0.9494792
0.03281251 0.9489583
0.02812499 0.9484375
0.0234375 0.9479166
0.01875001 0.9473958
0.01406249 0.946875
0.009375006 0.9463542
0.004687488 0.9458333
0.0703125 0.953125
0.06562501 0.953125
0.06093749 0.953125
0.05625001 0.953125
0.05156249 0.953125
0.046875 0.953125
0.04218751 0.953125
0.03749999 0.953125
0.03281251 0.953125
0.02812499 0.953125
0.0234375 0.953125
0.01875001 0.953125
0.01406249 0.953125
0.009375006 0.953125
0.004687488 0.953125
0.03125 0.96875
0.078125 0.8203125
0.07343751 0.8208333
0.06874999 0.8213542
0.06406251 0.821875
0.05937499 0.8223958
0.0546875 0.8229166
0.05000001 0.8234375
0.04531249 0.8239583
0.04062501 0.8244792
0.03593749 0.825
0.03125 0.8255209
0.02656251 0.8260417
0.02187499 0.8265625
0.01718751 0.8270833
0.01249999 0.8276042
0.078125 0.828125
0.07343751 0.828125
0.06874999 0.828125
0.06406251 0.828125
0.05937499 0.828125
0.0546875 0.828125
0.05000001 0.828125
0.04531249 0.828125
0.04062501 0.828125
0.03593749 0.828125
0.03125 0.828125
0.02656251 0.828125
0.02187499 0.828125
0.01718751 0.828125
0.01249999 0.828125
0.046875 0.6015625
0.0546875 0.609375
0.0546875 0.6171875
0.078125 0.9609375
0.0546875 0.625
0.0859375 0.96875
0.078125 0.78125
0.078125 0.8359375
0.1875 0.6171875
0.1822917 0.6171875
0.1770833 0.6171875
0.171875 0.6171875
0.1666667 0.6171875
0.1614583 0.6171875
0.15625 0.6171875
0.1510417 0.6171875
0.1458333 0.6171875
0.140625 0.6171875
0.1354167 0.6171875
0.1302083 0.6171875
0.125 0.6171875
0.1197917 0.6171875
0.1145833 0.6171875
0.1953125 0.703125
0.1895833 0.7036458
0.1838542 0.7041667
0.178125 0.7046875
0.1723958 0.7052083
0.1666667 0.7057292
0.1609375 0.70625
0.1552083 0.7067708
0.1494792 0.7072917
0.14375 0.7078125
0.1380208 0.7083333
0.1322917 0.7088542
0.1265625 0.709375
0.1208333 0.7098958
0.1151042 0.7104167
0.1953125 0.7109375
0.1895833 0.7109375
0.1838542 0.7109375
0.178125 0.7109375
0.1723958 0.7109375
0.1666667 0.7109375
0.1609375 0.7109375
0.1552083 0.7109375
0.1494792 0.7109375
0.14375 0.7109375
0.1380208 0.7109375
0.1322917 0.7109375
0.1265625 0.7109375
0.1208333 0.7109375
0.1151042 0.7109375
0.1171875 0.90625
0.1796875 0.6015625
0.1755208 0.6010417
0.1713542 0.6005208
0.1671875 0.6
0.1630208 0.5994792
0.1588542 0.5989583
0.1546875 0.5984375
0.1505208 0.5979167
0.1463542 0.5973958
0.1421875 0.596875
0.1380208 0.5963542
0.1338542 0.5958333
0.1296875 0.5953125
0.1255208 0.5947917
0.1213542 0.5942708
0.1796875 0.6015625
0.1755208 0.6015625
0.1713542 0.6015625
0.1671875 0.6015625
0.1630208 0.6015625
0.1588542 0.6015625
0.1546875 0.6015625
0.1505208 0.6015625
0.1463542 0.6015625
0.1421875 0.6015625
0.1380208 0.6015625
0.1338542 0.6015625
0.1296875 0.6015625
0.1255208 0.6015625
0.1213542 0.6015625
0.125 0.625
0.1953125 0.71875
0.1901042 0.71875
0.1848958 0.71875
0.1796875 0.71875
0.1744792 0.71875
0.1692708 0.71875
0.1640625 0.71875
0.1588542 0.71875
0.1536458 0.71875
0.1484375 0.71875
0.1432292 0.71875
0.1380208 0.71875
0.1328125 0.71875
0.1276042 0.71875
0.1223958 0.71875
0.203125 0.859375
0.1973958 0.8588542
0.1916667 0.8583333
0.1859375 0.8578125
0.1802083 0.8572917
0.1744792 0.8567709
0.16875 0.85625
0.1630208 0.8557292
0.1572917 0.8552083
0.1515625 0.8546875
0.1458333 0.8541666
0.1401042 0.8536458
0.134375 0.853125
0.1286458 0.8526042
0.1229167 0.8520833
0.203125 0.859375
0.1973958 0.859375
0.1916667 0.859375
0.1859375 0.859375
0.1802083 0.859375
0.1744792 0.859375
0.16875 0.859375
0.1630208 0.859375
0.1572917 0.859375
0.1515625 0.859375
0.1458333 0.859375
0.1401042 0.859375
0.134375 0.859375
0.1286458 0.859375
0.1229167 0.859375
0.21875 0.8359375
0.2125 0.8380208
0.20625 0.8401042
0.2 0.8421875
0.19375 0.8442708
0.1875 0.8463541
0.18125 0.8484375
0.175 0.8505208
0.16875 0.8526042
0.1625 0.8546875
0.15625 0.8567709
0.15 0.8588542
0.14375 0.8609375
0.1375 0.8630208
0.13125 0.8651042
0.2109375 0.8671875
0.2052083 0.8671875
0.1994792 0.8671875
0.19375 0.8671875
0.1880208 0.8671875
0.1822917 0.8671875
0.1765625 0.8671875
0.1708333 0.8671875
0.1651042 0.8671875
0.159375 0.8671875
0.1536458 0.8671875
0.1479167 0.8671875
0.1421875 0.8671875
0.1364583 0.8671875
0.1307292 0.8671875
0.2265625 0.796875
0.2203125 0.7973958
0.2140625 0.7979167
0.2078125 0.7984375
0.2015625 0.7989583
0.1953125 0.7994791
0.1890625 0.8
0.1828125 0.8005208
0.1765625 0.8010417
0.1703125 0.8015625
0.1640625 0.8020834
0.1578125 0.8026042
0.1515625 0.803125
0.1453125 0.8036458
0.1390625 0.8041667
0.21875 0.8046875
0.2130208 0.8052083
0.2072917 0.8057292
0.2015625 0.80625
0.1958333 0.8067708
0.1901042 0.8072916
0.184375 0.8078125
0.1786458 0.8083333
0.1729167 0.8088542
0.1671875 0.809375
0.1614583 0.8098959
0.1557292 0.8104167
0.15 0.8109375
0.1442708 0.8114583
0.1385417 0.8119792
0.21875 0.8125
0.2130208 0.8130208
0.2072917 0.8135417
0.2015625 0.8140625
0.1958333 0.8145833
0.1901042 0.8151041
0.184375 0.815625
0.1786458 0.8161458
0.1729167 0.8166667
0.1671875 0.8171875
0.1614583 0.8177084
0.1557292 0.8182292
0.15 0.81875
0.1442708 0.8192708
0.1385417 0.8197917
0.21875 0.8203125
0.2130208 0.8203125
0.2072917 0.8203125
0.2015625 0.8203125
0.1958333 0.8203125
0.1901042 0.8203125
0.184375 0.8203125
0.1786458 0.8203125
0.1729167 0.8203125
0.1671875 0.8203125
0.1614583 0.8203125
0.1557292 0.8203125
0.15 0.8203125
0.1442708 0.8203125
0.1385417 0.8203125
0.1875 0.6875
0.1953125 0.7265625
0.2109375 0.7734375
0.2067708 0.7734375
0.2026042 0.7734375
0.1984375 0.7734375
0.1942708 0.7734375
0.1901042 0.7734375
0.1859375 0.7734375
0.1817708 0.7734375
0.1776042 0.7734375
0.1734375 0.7734375
0.1692708 0.7734375
0.1651042 0.7734375
0.1609375 0.7734375
0.1567708 0.7734375
0.1526042 0.7734375
0.28125 0.90625
0.2723958 0.90625
0.2635417 0.90625
0.2546875 0.90625
0.2458333 0.90625
0.2369792 0.90625
0.228125 0.90625
0.2192708 0.90625
0.2104167 0.90625
0.2015625 0.90625
0.1927083 0.90625
0.1838542 0.90625
0.175 0.90625
0.1661458 0.90625
0.1572917 0.90625
0.171875 0.625
0.171875 0.6328125
0.171875 0.640625
0.203125 0.6484375
0.203125 0.65625
0.1953125 0.6640625
0.1875 0.671875
0.1953125 0.734375
0.1953125 0.7421875
0.203125 0.75
0.2109375 0.7578125
0.2072917 0.7578125
0.2036458 0.7578125
0.2 0.7578125
0.1963542 0.7578125
0.1927083 0.7578125
0.1890625 0.7578125
0.1854167 0.7578125
0.1817708 0.7578125
0.178125 0.7578125
0.1744792 0.7578125
0.1708333 0.7578125
0.1671875 0.7578125
0.1635417 0.7578125
0.1598958 0.7578125
0.2890625 0.9140625
0.2807292 0.9145833
0.2723958 0.9151042
0.2640625 0.915625
0.2557292 0.9161458
0.2473958 0.9166666
0.2390625 0.9171875
0.2307292 0.9177083
0.2223958 0.9182292
0.2140625 0.91875
0.2057292 0.9192709
0.1973958 0.9197917
0.1890625 0.9203125
0.1807292 0.9208333
0.1723958 0.9213542
0.3046875 0.921875
0.2953125 0.921875
0.2859375 0.921875
0.2765625 0.921875
0.2671875 0.921875
0.2578125 0.921875
0.2484375 0.921875
0.2390625 0.921875
0.2296875 0.921875
0.2203125 0.921875
0.2109375 0.921875
0.2015625 0.921875
0.1921875 0.921875
0.1828125 0.921875
0.1734375 0.921875
0.1953125 0
0.3125 0.765625
0.3203125 0.7734375
0.3203125 0.78125
0.3125 0.7890625
0.4140625 0.890625
0.4072917 0.8911458
0.4005208 0.8916667
0.39375 0.8921875
0.3869792 0.8927083
0.3802083 0.8932291
0.3734375 0.89375
0.3666667 0.8942708
0.3598958 0.8947917
0.353125 0.8953125
0.3463542 0.8958334
0.3395833 0.8963542
0.3328125 0.896875
0.3260417 0.8973958
0.3192708 0.8979167
0.421875 0.8984375
0.4145833 0.8984375
0.4072917 0.8984375
0.4 0.8984375
0.3927083 0.8984375
0.3854167 0.8984375
0.378125 0.8984375
0.3708333 0.8984375
0.3635417 0.8984375
0.35625 0.8984375
0.3489583 0.8984375
0.3416667 0.8984375
0.334375 0.8984375
0.3270833 0.8984375
0.3197917 0.8984375
0.4296875 0.859375
0.4234375 0.8588542
0.4171875 0.8583333
0.4109375 0.8578125
0.4046875 0.8572917
0.3984375 0.8567709
0.3921875 0.85625
0.3859375 0.8557292
0.3796875 0.8552083
0.3734375 0.8546875
0.3671875 0.8541666
0.3609375 0.8536458
0.3546875 0.853125
0.3484375 0.8526042
0.3421875 0.8520833
0.4296875 0.859375
0.4234375 0.859375
0.4171875 0.859375
0.4109375 0.859375
0.4046875 0.859375
0.3984375 0.859375
0.3921875 0.859375
0.3859375 0.859375
0.3796875 0.859375
0.3734375 0.859375
0.3671875 0.859375
0.3609375 0.859375
0.3546875 0.859375
0.3484375 0.859375
0.3421875 0.859375
0.4375 0.9140625
0.4322917 0.9135417
0.4270833 0.9130208
0.421875 0.9125
0.4166667 0.9119792
0.4114583 0.9114584
0.40625 0.9109375
0.4010417 0.9104167
0.3958333 0.9098958
0.390625 0.909375
0.3854167 0.9088541
0.3802083 0.9083333
0.375 0.9078125
0.3697917 0.9072917
0.3645833 0.9067708
0.4375 0.9140625
0.4322917 0.9140625
0.4270833 0.9140625
0.421875 0.9140625
0.4166667 0.9140625
0.4114583 0.9140625
0.40625 0.9140625
0.4010417 0.9140625
0.3958333 0.9140625
0.390625 0.9140625
0.3854167 0.9140625
0.3802083 0.9140625
0.375 0.9140625
0.3697917 0.9140625
0.3645833 0.9140625
0.4453125 0.4140625
0.4765625 0.421875
0.471875 0.421875
0.4671875 0.421875
0.4625 0.421875
0.4578125 0.421875
0.453125 0.421875
0.4484375 0.421875
0.44375 0.421875
0.4390625 0.421875
0.434375 0.421875
0.4296875 0.421875
0.425 0.421875
0.4203125 0.421875
0.415625 0.421875
0.4109375 0.421875
0.4765625 0.6015625
0.471875 0.6015625
0.4671875 0.6015625
0.4625 0.6015625
0.4578125 0.6015625
0.453125 0.6015625
0.4484375 0.6015625
0.44375 0.6015625
0.4390625 0.6015625
0.434375 0.6015625
0.4296875 0.6015625
0.425 0.6015625
0.4203125 0.6015625
0.415625 0.6015625
0.4109375 0.6015625
0.4765625 0.4296875
0.4723958 0.4302083
0.4682292 0.4307292
0.4640625 0.43125
0.4598958 0.4317708
0.4557292 0.4322917
0.4515625 0.4328125
0.4473958 0.4333333
0.4432292 0.4338542
0.4390625 0.434375
0.4348958 0.4348958
0.4307292 0.4354167
0.4265625 0.4359375
0.4223958 0.4364583
0.4182292 0.4369792
0.4765625 0.4375
0.4723958 0.4380208
0.4682292 0.4385417
0.4640625 0.4390625
0.4598958 0.4395833
0.4557292 0.4401042
0.4515625 0.440625
0.4473958 0.4411458
0.4432292 0.4416667
0.4390625 0.4421875
0.4348958 0.4427083
0.4307292 0.4432292
0.4265625 0.44375
0.4223958 0.4442708
0.4182292 0.4447917
0.46875 0.4453125
0.4651042 0.4458333
0.4614583 0.4463542
0.4578125 0.446875
0.4541667 0.4473958
0.4505208 0.4479167
0.446875 0.4484375
0.4432292 0.4489583
0.4395833 0.4494792
0.4359375 0.45
0.4322917 0.4505208
0.4286458 0.4510417
0.425 0.4515625
0.4213542 0.4520833
0.4177083 0.4526042
0.46875 0.453125
0.4651042 0.4536458
0.4614583 0.4541667
0.4578125 0.4546875
0.4541667 0.4552083
0.4505208 0.4557292
0.446875 0.45625
0.4432292 0.4567708
0.4395833 0.4572917
0.4359375 0.4578125
0.4322917 0.4583333
0.4286458 0.4588542
0.425 0.459375
0.4213542 0.4598958
0.4177083 0.4604167
0.4609375 0.4609375
0.4765625 0.5
0.4723958 0.4994792
0.4682292 0.4989583
0.4640625 0.4984375
0.4598958 0.4979167
0.4557292 0.4973958
0.4515625 0.496875
0.4473958 0.4963542
0.4432292 0.4958333
0.4390625 0.4953125
0.4348958 0.4947917
0.4307292 0.4942708
0.4265625 0.49375
0.4223958 0.4932292
0.4182292 0.4927083
0.4765625 0.5078125
0.4723958 0.5072917
0.4682292 0.5067708
0.4640625 0.50625
0.4598958 0.5057291
0.4557292 0.5052083
0.4515625 0.5046875
0.4473958 0.5041667
0.4432292 0.5036458
0.4390625 0.503125
0.4348958 0.5026042
0.4307292 0.5020834
0.4265625 0.5015625
0.4223958 0.5010417
0.4182292 0.5005208
0.4765625 0.515625
0.4723958 0.5151042
0.4682292 0.5145833
0.4640625 0.5140625
0.4598958 0.5135416
0.4557292 0.5130208
0.4515625 0.5125
0.4473958 0.5119792
0.4432292 0.5114583
0.4390625 0.5109375
0.4348958 0.5104167
0.4307292 0.5098959
0.4265625 0.509375
0.4223958 0.5088542
0.4182292 0.5083333
0.4765625 0.5234375
0.4723958 0.5229167
0.4682292 0.5223958
0.4640625 0.521875
0.4598958 0.5213541
0.4557292 0.5208333
0.4515625 0.5203125
0.4473958 0.5197917
0.4432292 0.5192708
0.4390625 0.51875
0.4348958 0.5182292
0.4307292 0.5177084
0.4265625 0.5171875
0.4223958 0.5166667
0.4182292 0.5161458
0.4765625 0.53125
0.4723958 0.5307292
0.4682292 0.5302083
0.4640625 0.5296875
0.4598958 0.5291666
0.4557292 0.5286458
0.4515625 0.528125
0.4473958 0.5276042
0.4432292 0.5270833
0.4390625 0.5265625
0.4348958 0.5260417
0.4307292 0.5255209
0.4265625 0.525
0.4223958 0.5244792
0.4182292 0.5239583
0.4765625 0.5390625
0.4723958 0.5385417
0.4682292 0.5380208
0.4640625 0.5375
0.4598958 0.5369791
0.4557292 0.5364583
0.4515625 0.5359375
0.4473958 0.5354167
0.4432292 0.5348958
0.4390625 0.534375
0.4348958 0.5338542
0.4307292 0.5333333
0.4265625 0.5328125
0.4223958 0.5322917
0.4182292 0.5317708
0.4765625 0.546875
0.4723958 0.5463542
0.4682292 0.5458333
0.4640625 0.5453125
0.4598958 0.5447916
0.4557292 0.5442708
0.4515625 0.54375
0.4473958 0.5432292
0.4432292 0.5427083
0.4390625 0.5421875
0.4348958 0.5416667
0.4307292 0.5411458
0.4265625 0.540625
0.4223958 0.5401042
0.4182292 0.5395833
0.4765625 0.5546875
0.4723958 0.5541667
0.4682292 0.5536458
0.4640625 0.553125
0.4598958 0.5526041
0.4557292 0.5520833
0.4515625 0.5515625
0.4473958 0.5510417
0.4432292 0.5505208
0.4390625 0.55
0.4348958 0.5494792
0.4307292 0.5489583
0.4265625 0.5484375
0.4223958 0.5479167
0.4182292 0.5473958
0.4765625 0.5625
0.4723958 0.5619792
0.4682292 0.5614583
0.4640625 0.5609375
0.4598958 0.5604166
0.4557292 0.5598958
0.4515625 0.559375
0.4473958 0.5588542
0.4432292 0.5583333
0.4390625 0.5578125
0.4348958 0.5572917
0.4307292 0.5567708
0.4265625 0.55625
0.4223958 0.5557292
0.4182292 0.5552083
0.4765625 0.5703125
0.4723958 0.5697917
0.4682292 0.5692708
0.4640625 0.56875
0.4598958 0.5682292
0.4557292 0.5677083
0.4515625 0.5671875
0.4473958 0.5666667
0.4432292 0.5661458
0.4390625 0.565625
0.4348958 0.5651042
0.4307292 0.5645833
0.4265625 0.5640625
0.4223958 0.5635417
0.4182292 0.5630208
0.4765625 0.578125
0.4723958 0.5776042
0.4682292 0.5770833
0.4640625 0.5765625
0.4598958 0.5760417
0.4557292 0.5755208
0.4515625 0.575
0.4473958 0.5744792
0.4432292 0.5739583
0.4390625 0.5734375
0.4348958 0.5729167
0.4307292 0.5723958
0.4265625 0.571875
0.4223958 0.5713542
0.4182292 0.5708333
0.4765625 0.5859375
0.4723958 0.5854167
0.4682292 0.5848958
0.4640625 0.584375
0.4598958 0.5838542
0.4557292 0.5833333
0.4515625 0.5828125
0.4473958 0.5822917
0.4432292 0.5817708
0.4390625 0.58125
0.4348958 0.5807292
0.4307292 0.5802083
0.4265625 0.5796875
0.4223958 0.5791667
0.4182292 0.5786458
0.4765625 0.609375
0.4723958 0.6078125
0.4682292 0.60625
0.4640625 0.6046875
0.4598958 0.603125
0.4557292 0.6015625
0.4515625 0.6
0.4473958 0.5984375
0.4432292 0.596875
0.4390625 0.5953125
0.4348958 0.59375
0.4307292 0.5921875
0.4265625 0.590625
0.4223958 0.5890625
0.4182292 0.5875
0.4765625 0.6171875
0.4723958 0.6166667
0.4682292 0.6161458
0.4640625 0.615625
0.4598958 0.6151042
0.4557292 0.6145833
0.4515625 0.6140625
0.4473958 0.6135417
0.4432292 0.6130208
0.4390625 0.6125
0.4348958 0.6119792
0.4307292 0.6114583
0.4265625 0.6109375
0.4223958 0.6104167
0.4182292 0.6098958
0.4765625 0.6328125
0.4723958 0.6317708
0.4682292 0.6307292
0.4640625 0.6296875
0.4598958 0.6286458
0.4557292 0.6276042
0.4515625 0.6265625
0.4473958 0.6255208
0.4432292 0.6244792
0.4390625 0.6234375
0.4348958 0.6223958
0.4307292 0.6213542
0.4265625 0.6203125
0.4223958 0.6192708
0.4182292 0.6182292
0.4765625 0.640625
0.4723958 0.6401042
0.4682292 0.6395833
0.4640625 0.6390625
0.4598958 0.6385417
0.4557292 0.6380208
0.4515625 0.6375
0.4473958 0.6369792
0.4432292 0.6364583
0.4390625 0.6359375
0.4348958 0.6354167
0.4307292 0.6348958
0.4265625 0.634375
0.4223958 0.6338542
0.4182292 0.6333333
0.4765625 0.6484375
0.4723958 0.6479167
0.4682292 0.6473958
0.4640625 0.646875
0.4598958 0.6463542
0.4557292 0.6458333
0.4515625 0.6453125
0.4473958 0.6447917
0.4432292 0.6442708
0.4390625 0.64375
0.4348958 0.6432292
0.4307292 0.6427083
0.4265625 0.6421875
0.4223958 0.6416667
0.4182292 0.6411458
0.4765625 0.65625
0.4723958 0.6557292
0.4682292 0.6552083
0.4640625 0.6546875
0.4598958 0.6541667
0.4557292 0.6536458
0.4515625 0.653125
0.4473958 0.6526042
0.4432292 0.6520833
0.4390625 0.6515625
0.4348958 0.6510417
0.4307292 0.6505208
0.4265625 0.65
0.4223958 0.6494792
0.4182292 0.6489583
0.4765625 0.6640625
0.4723958 0.6635417
0.4682292 0.6630208
0.4640625 0.6625
0.4598958 0.6619792
0.4557292 0.6614583
0.4515625 0.6609375
0.4473958 0.6604167
0.4432292 0.6598958
0.4390625 0.659375
0.4348958 0.6588542
0.4307292 0.6583333
0.4265625 0.6578125
0.4223958 0.6572917
0.4182292 0.6567708
0.4765625 0.671875
0.4723958 0.6713542
0.4682292 0.6708333
0.4640625 0.6703125
0.4598958 0.6697917
0.4557292 0.6692708
0.4515625 0.66875
0.4473958 0.6682292
0.4432292 0.6677083
0.4390625 0.6671875
0.4348958 0.6666667
0.4307292 0.6661458
0.4265625 0.665625
0.4223958 0.6651042
0.4182292 0.6645833
0.4765625 0.6796875
0.4723958 0.6791667
0.4682292 0.6786458
0.4640625 0.678125
0.4598958 0.6776042
0.4557292 0.6770833
0.4515625 0.6765625
0.4473958 0.6760417
0.4432292 0.6755208
0.4390625 0.675
0.4348958 0.6744792
0.4307292 0.6739583
0.4265625 0.6734375
0.4223958 0.6729167
0.4182292 0.6723958
0.4765625 0.6875
0.4723958 0.6869792
0.4682292 0.6864583
0.4640625 0.6859375
0.4598958 0.6854167
0.4557292 0.6848958
0.4515625 0.684375
0.4473958 0.6838542
0.4432292 0.6833333
0.4390625 0.6828125
0.4348958 0.6822917
0.4307292 0.6817708
0.4265625 0.68125
0.4223958 0.6807292
0.4182292 0.6802083
0.4765625 0.6953125
0.4723958 0.6947917
0.4682292 0.6942708
0.4640625 0.69375
0.4598958 0.6932292
0.4557292 0.6927083
0.4515625 0.6921875
0.4473958 0.6916667
0.4432292 0.6911458
0.4390625 0.690625
0.4348958 0.6901042
0.4307292 0.6895833
0.4265625 0.6890625
0.4223958 0.6885417
0.4182292 0.6880208
0.4765625 0.703125
0.4723958 0.7026042
0.4682292 0.7020833
0.4640625 0.7015625
0.4598958 0.7010417
0.4557292 0.7005208
0.4515625 0.7
0.4473958 0.6994792
0.4432292 0.6989583
0.4390625 0.6984375
0.4348958 0.6979167
0.4307292 0.6973958
0.4265625 0.696875
0.4223958 0.6963542
0.4182292 0.6958333
0.4765625 0.7109375
0.4723958 0.7104167
0.4682292 0.7098958
0.4640625 0.709375
0.4598958 0.7088542
0.4557292 0.7083333
0.4515625 0.7078125
0.4473958 0.7072917
0.4432292 0.7067708
0.4390625 0.70625
0.4348958 0.7057292
0.4307292 0.7052083
0.4265625 0.7046875
0.4223958 0.7041667
0.4182292 0.7036458
0.4765625 0.7265625
0.4723958 0.7255208
0.4682292 0.7244792
0.4640625 0.7234375
0.4598958 0.7223958
0.4557292 0.7213542
0.4515625 0.7203125
0.4473958 0.7192708
0.4432292 0.7182292
0.4390625 0.7171875
0.4348958 0.7161458
0.4307292 0.7151042
0.4265625 0.7140625
0.4223958 0.7130208
0.4182292 0.7119792
0.4765625 0.734375
0.4723958 0.7338542
0.4682292 0.7333333
0.4640625 0.7328125
0.4598958 0.7322917
0.4557292 0.7317708
0.4515625 0.73125
0.4473958 0.7307292
0.4432292 0.7302083
0.4390625 0.7296875
0.4348958 0.7291667
0.4307292 0.7286458
0.4265625 0.728125
0.4223958 0.7276042
0.4182292 0.7270833
0.4609375 0.75
0.453125 0.7578125
0.453125 0.765625
0.453125 0.765625
0.4765625 0.3671875
0.4729167 0.3682292
0.4692708 0.3692708
0.465625 0.3703125
0.4619792 0.3713542
0.4583333 0.3723958
0.4546875 0.3734375
0.4510417 0.3744792
0.4473958 0.3755208
0.44375 0.3765625
0.4401042 0.3776042
0.4364583 0.3786458
0.4328125 0.3796875
0.4291667 0.3807292
0.4255208 0.3817708
0.4765625 0.3828125
0.4729167 0.3833333
0.4692708 0.3838542
0.465625 0.384375
0.4619792 0.3848958
0.4583333 0.3854167
0.4546875 0.3859375
0.4510417 0.3864583
0.4473958 0.3869792
0.44375 0.3875
0.4401042 0.3880208
0.4364583 0.3885417
0.4328125 0.3890625
0.4291667 0.3895833
0.4255208 0.3901042
0.4765625 0.390625
0.4729167 0.390625
0.4692708 0.390625
0.465625 0.390625
0.4619792 0.390625
0.4583333 0.390625
0.4546875 0.390625
0.4510417 0.390625
0.4473958 0.390625
0.44375 0.390625
0.4401042 0.390625
0.4364583 0.390625
0.4328125 0.390625
0.4291667 0.390625
0.4255208 0.390625
0.4609375 0.4765625
0.453125 0.7734375
0.4765625 0.3515625
0.453125 0.3125
0.4609375 0.3203125
0.46875 0.328125
0.4765625 0.3359375
0.4765625 0.3359375
0.5234375 0.2734375
0.5182292 0.2734375
0.5130208 0.2734375
0.5078125 0.2734375
0.5026042 0.2734375
0.4973958 0.2734375
0.4921875 0.2734375
0.4869792 0.2734375
0.4817708 0.2734375
0.4765625 0.2734375
0.4713542 0.2734375
0.4661458 0.2734375
0.4609375 0.2734375
0.4557292 0.2734375
0.4505208 0.2734375
0.453125 0.2890625
0.453125 0.2890625
0.5546875 0
0.5479167 0.0005208254
0.5411458 0.001041681
0.534375 0.001562506
0.5276042 0.002083331
0.5208333 0.002604157
0.5140625 0.003125012
0.5072917 0.003645837
0.5005208 0.004166663
0.49375 0.004687488
0.4869792 0.005208343
0.4802083 0.005729169
0.4734375 0.006249994
0.4666667 0.006770819
0.4598958 0.007291675
0.546875 0.0078125
0.540625 0.0078125
0.534375 0.0078125
0.528125 0.0078125
0.521875 0.0078125
0.515625 0.0078125
0.509375 0.0078125
0.503125 0.0078125
0.496875 0.0078125
0.490625 0.0078125
0.484375 0.0078125
0.478125 0.0078125
0.471875 0.0078125
0.465625 0.0078125
0.459375 0.0078125
0.46875 0.8203125
0.4765625 0.828125
0.4765625 0.828125
0.5390625 0.25
0.5338542 0.25
0.5286458 0.25
0.5234375 0.25
0.5182292 0.25
0.5130208 0.25
0.5078125 0.25
0.5026042 0.25
0.4973958 0.25
0.4921875 0.25
0.4869792 0.25
0.4817708 0.25
0.4765625 0.25
0.4713542 0.25
0.4661458 0.25
0.4765625 0.8359375
0.4765625 0.84375
0.5390625 0.234375
0.534375 0.2333333
0.5296875 0.2322917
0.525 0.23125
0.5203125 0.2302083
0.515625 0.2291667
0.5109375 0.228125
0.50625 0.2270833
0.5015625 0.2260417
0.496875 0.225
0.4921875 0.2239583
0.4875 0.2229167
0.4828125 0.221875
0.478125 0.2208333
0.4734375 0.2197917
0.5390625 0.234375
0.534375 0.234375
0.5296875 0.234375
0.525 0.234375
0.5203125 0.234375
0.515625 0.234375
0.5109375 0.234375
0.50625 0.234375
0.5015625 0.234375
0.496875 0.234375
0.4921875 0.234375
0.4875 0.234375
0.4828125 0.234375
0.478125 0.234375
0.4734375 0.234375
0.4765625 0.4140625
0.5546875 0.203125
0.55 0.203125
0.5453125 0.203125
0.540625 0.203125
0.5359375 0.203125
0.53125 0.203125
0.5265625 0.203125
0.521875 0.203125
0.5171875 0.203125
0.5125 0.203125
0.5078125 0.203125
0.503125 0.203125
0.4984375 0.203125
0.49375 0.203125
0.4890625 0.203125
0.5234375 0.28125
0.546875 0.1875
0.5432292 0.1875
0.5395833 0.1875
0.5359375 0.1875
0.5322917 0.1875
0.5286458 0.1875
0.525 0.1875
0.5213541 0.1875
0.5177083 0.1875
0.5140625 0.1875
0.5104167 0.1875
0.5067708 0.1875
0.503125 0.1875
0.4994792 0.1875
0.4958333 0.1875
0.5234375 0.2890625
0.5234375 0.296875
0.5234375 0.3046875
0.546875 0.1796875
0.515625 0.3203125
0.515625 0.3203125
0.5390625 0.015625
0.5625 0.171875
0.546875 0.4375
0.546875 0.4375
0.5546875 0.1484375
0.5625 0.15625
0.5703125 0.1640625
0.546875 0.125
0.546875 0.1328125
0.5546875 0.140625
0.5546875 0.1171875
0.609375 0.8046875
0.6052083 0.8052083
0.6010417 0.8057292
0.596875 0.80625
0.5927083 0.8067708
0.5885417 0.8072916
0.584375 0.8078125
0.5802083 0.8083333
0.5760417 0.8088542
0.571875 0.809375
0.5677083 0.8098959
0.5635417 0.8104167
0.559375 0.8109375
0.5552083 0.8114583
0.5510417 0.8119792
0.59375 0.8125
0.609375 0.3125
0.609375 0.3203125
0.609375 0.3203125
0.609375 0.2890625
0.609375 0.328125
0.5859375 0.8203125
0.6015625 0.3359375
0.609375 0.4296875
0.609375 0.4375
0.609375 0.4453125
0.6171875 0.453125
0.609375 0.4609375
0.6171875 0.7265625
0.6640625 0.3125
0.6640625 0.3203125
0.6640625 0.328125
0.671875 0.4375
0.6640625 0.3359375
0.6640625 0.34375
0.6640625 0.3515625
0.671875 0.4453125
0.6796875 0.53125
0.6796875 0.5390625
0.6796875 0.546875
0.6796875 0.5546875
0.6796875 0.5625
0.6796875 0.5703125
0.6796875 0.578125
0.6796875 0.5859375
0.6875 0.59375
0.6875 0.6015625
0.6875 0.609375
0.6875 0.6171875
0.6796875 0.625
0.6796875 0.6328125
0.6796875 0.640625
0.9296875 0.8046875
0.9244791 0.8046875
0.9192709 0.8046875
0.9140625 0.8046875
0.9088541 0.8046875
0.9036459 0.8046875
0.8984375 0.8046875
0.8932291 0.8046875
0.8880209 0.8046875
0.8828125 0.8046875
0.8776041 0.8046875
0.8723959 0.8046875
0.8671875 0.8046875
0.8619791 0.8046875
0.8567709 0.8046875
0.8984375 0.765625
0.8984375 0.765625
0.8984375 0.7734375
0.921875 0.78125
0.9182292 0.78125
0.9145833 0.78125
0.9109375 0.78125
0.9072917 0.78125
0.9036459 0.78125
0.9 0.78125
0.8963542 0.78125
0.8927083 0.78125
0.8890625 0.78125
0.8854166 0.78125
0.8817708 0.78125
0.878125 0.78125
0.8744792 0.78125
0.8708333 0.78125
0.921875 0.8125
0.921875 0.8203125
0.0859375 0.65625
0.08020833 0.65625
0.07447916 0.65625
0.06874999 0.65625
0.06302083 0.65625
0.05729166 0.65625
0.05156249 0.65625
0.04583332 0.65625
0.04010415 0.65625
0.03437501 0.65625
0.02864584 0.65625
0.02291667 0.65625
0.01718751 0.65625
0.01145834 0.65625
0.005729169 0.65625
0.0390625 0.8359375
0.078125 0.9921875
0.078125 0.7734375
0.0703125 0.796875
0.078125 0.765625
0.1171875 0.6953125
0.4140625 0.8828125
0.39375 0.8828125
0.3734375 0.8828125
0.353125 0.8828125
0.3328125 0.8828125
0.3125 0.8828125
0.2921875 0.8828125
0.271875 0.8828125
0.2515625 0.8828125
0.23125 0.8828125
0.2109375 0.8828125
0.190625 0.8828125
0.1703125 0.8828125
0.15 0.8828125
0.1296875 0.8828125
0.2109375 0.84375
0.2046875 0.84375
0.1984375 0.84375
0.1921875 0.84375
0.1859375 0.84375
0.1796875 0.84375
0.1734375 0.84375
0.1671875 0.84375
0.1609375 0.84375
0.1546875 0.84375
0.1484375 0.84375
0.1421875 0.84375
0.1359375 0.84375
0.1296875 0.84375
0.1234375 0.84375
0.21875 0.875
0.2119792 0.875
0.2052083 0.875
0.1984375 0.875
0.1916667 0.875
0.1848958 0.875
0.178125 0.875
0.1713542 0.875
0.1645833 0.875
0.1578125 0.875
0.1510417 0.875
0.1442708 0.875
0.1375 0.875
0.1307292 0.875
0.1239583 0.875
0.140625 0.96875
0.21875 0.828125
0.2125 0.828125
0.20625 0.828125
0.2 0.828125
0.19375 0.828125
0.1875 0.828125
0.18125 0.828125
0.175 0.828125
0.16875 0.828125
0.1625 0.828125
0.15625 0.828125
0.15 0.828125
0.14375 0.828125
0.1375 0.828125
0.13125 0.828125
0.2265625 0.7890625
0.2203125 0.7890625
0.2140625 0.7890625
0.2078125 0.7890625
0.2015625 0.7890625
0.1953125 0.7890625
0.1890625 0.7890625
0.1828125 0.7890625
0.1765625 0.7890625
0.1703125 0.7890625
0.1640625 0.7890625
0.1578125 0.7890625
0.1515625 0.7890625
0.1453125 0.7890625
0.1390625 0.7890625
0.1875 0.6953125
0.21875 0.78125
0.2135417 0.78125
0.2083333 0.78125
0.203125 0.78125
0.1979167 0.78125
0.1927083 0.78125
0.1875 0.78125
0.1822917 0.78125
0.1770833 0.78125
0.171875 0.78125
0.1666667 0.78125
0.1614583 0.78125
0.15625 0.78125
0.1510417 0.78125
0.1458333 0.78125
0.1796875 0.6796875
0.2109375 0.765625
0.2067708 0.765625
0.2026042 0.765625
0.1984375 0.765625
0.1942708 0.765625
0.1901042 0.765625
0.1859375 0.765625
0.1817708 0.765625
0.1776042 0.765625
0.1734375 0.765625
0.1692708 0.765625
0.1651042 0.765625
0.1609375 0.765625
0.1567708 0.765625
0.1526042 0.765625
0.3359375 0.9609375
0.3244792 0.9609375
0.3130208 0.9609375
0.3015625 0.9609375
0.2901042 0.9609375
0.2786458 0.9609375
0.2671875 0.9609375
0.2557292 0.9609375
0.2442708 0.9609375
0.2328125 0.9609375
0.2213542 0.9609375
0.2098958 0.9609375
0.1984375 0.9609375
0.1869792 0.9609375
0.1755208 0.9609375
0.2109375 0.640625
0.421875 0.875
0.4098958 0.875
0.3979167 0.875
0.3859375 0.875
0.3739583 0.875
0.3619792 0.875
0.35 0.875
0.3380208 0.875
0.3260417 0.875
0.3140625 0.875
0.3020833 0.875
0.2901042 0.875
0.278125 0.875
0.2661458 0.875
0.2541667 0.875
0.3046875 0.8515625
0.3010417 0.8515625
0.2973958 0.8515625
0.29375 0.8515625
0.2901042 0.8515625
0.2864583 0.8515625
0.2828125 0.8515625
0.2791667 0.8515625
0.2755208 0.8515625
0.271875 0.8515625
0.2682292 0.8515625
0.2645833 0.8515625
0.2609375 0.8515625
0.2572917 0.8515625
0.2536458 0.8515625
0.265625 0.8359375
0.3125 0.7578125
0.3984375 0.8359375
0.390625 0.8359375
0.3828125 0.8359375
0.375 0.8359375
0.3671875 0.8359375
0.359375 0.8359375
0.3515625 0.8359375
0.34375 0.8359375
0.3359375 0.8359375
0.328125 0.8359375
0.3203125 0.8359375
0.3125 0.8359375
0.3046875 0.8359375
0.296875 0.8359375
0.2890625 0.8359375
0.3125 0.75
0.3125 0.7421875
0.3984375 0.828125
0.3927083 0.828125
0.3869792 0.828125
0.38125 0.828125
0.3755208 0.828125
0.3697917 0.828125
0.3640625 0.828125
0.3583333 0.828125
0.3526042 0.828125
0.346875 0.828125
0.3411458 0.828125
0.3354167 0.828125
0.3296875 0.828125
0.3239583 0.828125
0.3182292 0.828125
0.3984375 0.8203125
0.4453125 0.9375
0.4395833 0.9375
0.4338542 0.9375
0.428125 0.9375
0.4223958 0.9375
0.4166667 0.9375
0.4109375 0.9375
0.4052083 0.9375
0.3994792 0.9375
0.39375 0.9375
0.3880208 0.9375
0.3822917 0.9375
0.3765625 0.9375
0.3708333 0.9375
0.3651042 0.9375
0.3984375 0.8046875
0.3984375 0.796875
0.3984375 0.7890625
0.453125 0.296875
0.46875 0.8046875
0.5390625 0.2421875
0.5338542 0.2421875
0.5286458 0.2421875
0.5234375 0.2421875
0.5182292 0.2421875
0.5130208 0.2421875
0.5078125 0.2421875
0.5026042 0.2421875
0.4973958 0.2421875
0.4921875 0.2421875
0.4869792 0.2421875
0.4817708 0.2421875
0.4765625 0.2421875
0.4713542 0.2421875
0.4661458 0.2421875
0.46875 0.796875
0.8046875 0.921875
0.784375 0.921875
0.7640625 0.921875
0.74375 0.921875
0.7234375 0.921875
0.703125 0.921875
0.6828125 0.921875
0.6625 0.921875
0.6421875 0.921875
0.621875 0.921875
0.6015625 0.921875
0.58125 0.921875
0.5609375 0.921875
0.540625 0.921875
0.5203125 0.921875
0.8046875 0.9140625
0.7854167 0.9140625
0.7661458 0.9140625
0.746875 0.9140625
0.7276042 0.9140625
0.7083333 0.9140625
0.6890625 0.9140625
0.6697917 0.9140625
0.6505208 0.9140625
0.63125 0.9140625
0.6119792 0.9140625
0.5927083 0.9140625
0.5734375 0.9140625
0.5541667 0.9140625
0.5348958 0.9140625
0.53125 0.421875
0.9765625 0.8828125
0.9473958 0.8828125
0.9182292 0.8828125
0.8890625 0.8828125
0.8598958 0.8828125
0.8307291 0.8828125
0.8015625 0.8828125
0.7723958 0.8828125
0.7432292 0.8828125
0.7140625 0.8828125
0.6848958 0.8828125
0.6557292 0.8828125
0.6265625 0.8828125
0.5973958 0.8828125
0.5682292 0.8828125
0.609375 0.796875
0.6052083 0.796875
0.6010417 0.796875
0.596875 0.796875
0.5927083 0.796875
0.5885417 0.796875
0.584375 0.796875
0.5802083 0.796875
0.5760417 0.796875
0.571875 0.796875
0.5677083 0.796875
0.5635417 0.796875
0.559375 0.796875
0.5552083 0.796875
0.5510417 0.796875
0.5625 0.8671875
0.609375 0.296875
0.609375 0.28125
0.609375 0.2734375
0.609375 0.421875
0.609375 0.7890625
0.6171875 0.71875
0.875 0.8515625
0.8578125 0.8515625
0.840625 0.8515625
0.8234375 0.8515625
0.80625 0.8515625
0.7890625 0.8515625
0.771875 0.8515625
0.7546875 0.8515625
0.7375 0.8515625
0.7203125 0.8515625
0.703125 0.8515625
0.6859375 0.8515625
0.66875 0.8515625
0.6515625 0.8515625
0.634375 0.8515625
0.8125 0.84375
0.8005208 0.84375
0.7885417 0.84375
0.7765625 0.84375
0.7645833 0.84375
0.7526041 0.84375
0.740625 0.84375
0.7286458 0.84375
0.7166667 0.84375
0.7046875 0.84375
0.6927083 0.84375
0.6807292 0.84375
0.66875 0.84375
0.6567708 0.84375
0.6447917 0.84375
0.671875 0.4296875
0.65625 0.3046875
0.6640625 0.421875
0.6796875 0.5234375
0.8125 0.8359375
0.80625 0.8359375
0.8 0.8359375
0.79375 0.8359375
0.7875 0.8359375
0.78125 0.8359375
0.775 0.8359375
0.76875 0.8359375
0.7625 0.8359375
0.75625 0.8359375
0.75 0.8359375
0.74375 0.8359375
0.7375 0.8359375
0.73125 0.8359375
0.725 0.8359375
0.75 0.828125
0.8046875 0.828125
0.8671875 0.84375
0.859375 0.8359375
0.9296875 0.7890625
0.925 0.7890625
0.9203125 0.7890625
0.915625 0.7890625
0.9109375 0.7890625
0.90625 0.7890625
0.9015625 0.7890625
0.896875 0.7890625
0.8921875 0.7890625
0.8875 0.7890625
0.8828125 0.7890625
0.878125 0.7890625
0.8734375 0.7890625
0.86875 0.7890625
0.8640625 0.7890625
0.4765625 0.625
0.471875 0.625
0.4671875 0.625
0.4625 0.625
0.4578125 0.625
0.453125 0.625
0.4484375 0.625
0.44375 0.625
0.4390625 0.625
0.434375 0.625
0.4296875 0.625
0.425 0.625
0.4203125 0.625
0.415625 0.625
0.4109375 0.625
0.46875 0.7421875
0.4645833 0.7421875
0.4604167 0.7421875
0.45625 0.7421875
0.4520833 0.7421875
0.4479167 0.7421875
0.44375 0.7421875
0.4395833 0.7421875
0.4354167 0.7421875
0.43125 0.7421875
0.4270833 0.7421875
0.4229167 0.7421875
0.41875 0.7421875
0.4145833 0.7421875
0.4104167 0.7421875
0.9296875 0.796875
0.9244791 0.796875
0.9192709 0.796875
0.9140625 0.796875
0.9088541 0.796875
0.9036459 0.796875
0.8984375 0.796875
0.8932291 0.796875
0.8880209 0.796875
0.8828125 0.796875
0.8776041 0.796875
0.8723959 0.796875
0.8671875 0.796875
0.8619791 0.796875
0.8567709 0.796875
0.9140625 0.734375
0.0859375 0.6484375
0.08125001 0.6484375
0.07656249 0.6484375
0.07187501 0.6484375
0.06718749 0.6484375
0.0625 0.6484375
0.05781251 0.6484375
0.05312499 0.6484375
0.04843751 0.6484375
0.04374999 0.6484375
0.0390625 0.6484375
0.03437501 0.6484375
0.02968749 0.6484375
0.02500001 0.6484375
0.02031249 0.6484375
0.046875 0.59375
0.078125 0.640625
0.07447916 0.640625
0.07083333 0.640625
0.06718749 0.640625
0.06354168 0.640625
0.05989584 0.640625
0.05625001 0.640625
0.05260417 0.640625
0.04895833 0.640625
0.04531249 0.640625
0.04166666 0.640625
0.03802082 0.640625
0.03437501 0.640625
0.03072917 0.640625
0.02708334 0.640625
0.0546875 0.6328125
0.1875 0.609375
0.1822917 0.609375
0.1770833 0.609375
0.171875 0.609375
0.1666667 0.609375
0.1614583 0.609375
0.15625 0.609375
0.1510417 0.609375
0.1458333 0.609375
0.140625 0.609375
0.1354167 0.609375
0.1302083 0.609375
0.125 0.609375
0.1197917 0.609375
0.1145833 0.609375
0.1640625 0.5859375
0.1640625 0.578125
0.15625 0.5703125
0.4765625 0.40625
0.471875 0.40625
0.4671875 0.40625
0.4625 0.40625
0.4578125 0.40625
0.453125 0.40625
0.4484375 0.40625
0.44375 0.40625
0.4390625 0.40625
0.434375 0.40625
0.4296875 0.40625
0.425 0.40625
0.4203125 0.40625
0.415625 0.40625
0.4109375 0.40625
0.4609375 0.46875
0.4572917 0.46875
0.4536458 0.46875
0.45 0.46875
0.4463542 0.46875
0.4427083 0.46875
0.4390625 0.46875
0.4354167 0.46875
0.4317708 0.46875
0.428125 0.46875
0.4244792 0.46875
0.4208333 0.46875
0.4171875 0.46875
0.4135417 0.46875
0.4098958 0.46875
0.4765625 0.59375
0.471875 0.59375
0.4671875 0.59375
0.4625 0.59375
0.4578125 0.59375
0.453125 0.59375
0.4484375 0.59375
0.44375 0.59375
0.4390625 0.59375
0.434375 0.59375
0.4296875 0.59375
0.425 0.59375
0.4203125 0.59375
0.415625 0.59375
0.4109375 0.59375
0.4765625 0.71875
0.471875 0.71875
0.4671875 0.71875
0.4625 0.71875
0.4578125 0.71875
0.453125 0.71875
0.4484375 0.71875
0.44375 0.71875
0.4390625 0.71875
0.434375 0.71875
0.4296875 0.71875
0.425 0.71875
0.4203125 0.71875
0.415625 0.71875
0.4109375 0.71875
0.4765625 0.375
0.4723958 0.375
0.4682292 0.375
0.4640625 0.375
0.4598958 0.375
0.4557292 0.375
0.4515625 0.375
0.4473958 0.375
0.4432292 0.375
0.4390625 0.375
0.4348958 0.375
0.4307292 0.375
0.4265625 0.375
0.4223958 0.375
0.4182292 0.375
0.4765625 0.3984375
0.4723958 0.3984375
0.4682292 0.3984375
0.4640625 0.3984375
0.4598958 0.3984375
0.4557292 0.3984375
0.4515625 0.3984375
0.4473958 0.3984375
0.4432292 0.3984375
0.4390625 0.3984375
0.4348958 0.3984375
0.4307292 0.3984375
0.4265625 0.3984375
0.4223958 0.3984375
0.4182292 0.3984375
0.46875 0.484375
0.4651042 0.484375
0.4614583 0.484375
0.4578125 0.484375
0.4541667 0.484375
0.4505208 0.484375
0.446875 0.484375
0.4432292 0.484375
0.4395833 0.484375
0.4359375 0.484375
0.4322917 0.484375
0.4286458 0.484375
0.425 0.484375
0.4213542 0.484375
0.4177083 0.484375
0.4765625 0.359375
0.4729167 0.359375
0.4692708 0.359375
0.465625 0.359375
0.4619792 0.359375
0.4583333 0.359375
0.4546875 0.359375
0.4510417 0.359375
0.4473958 0.359375
0.44375 0.359375
0.4401042 0.359375
0.4364583 0.359375
0.4328125 0.359375
0.4291667 0.359375
0.4255208 0.359375
0.4765625 0.34375
0.5234375 0.265625
0.5182292 0.265625
0.5130208 0.265625
0.5078125 0.265625
0.5026042 0.265625
0.4973958 0.265625
0.4921875 0.265625
0.4869792 0.265625
0.4817708 0.265625
0.4765625 0.265625
0.4713542 0.265625
0.4661458 0.265625
0.4609375 0.265625
0.4557292 0.265625
0.4505208 0.265625
0.5390625 0.2578125
0.5333333 0.2578125
0.5276042 0.2578125
0.521875 0.2578125
0.5161458 0.2578125
0.5104167 0.2578125
0.5046875 0.2578125
0.4989583 0.2578125
0.4932292 0.2578125
0.4875 0.2578125
0.4817708 0.2578125
0.4760417 0.2578125
0.4703125 0.2578125
0.4645833 0.2578125
0.4588542 0.2578125
0.546875 0.2265625
0.5411458 0.2265625
0.5354167 0.2265625
0.5296875 0.2265625
0.5239583 0.2265625
0.5182292 0.2265625
0.5125 0.2265625
0.5067708 0.2265625
0.5010417 0.2265625
0.4953125 0.2265625
0.4895833 0.2265625
0.4838542 0.2265625
0.478125 0.2265625
0.4723958 0.2265625
0.4666667 0.2265625
0.5546875 0.2109375
0.5489583 0.2109375
0.5432292 0.2109375
0.5375 0.2109375
0.5317708 0.2109375
0.5260417 0.2109375
0.5203125 0.2109375
0.5145833 0.2109375
0.5088542 0.2109375
0.503125 0.2109375
0.4973958 0.2109375
0.4916667 0.2109375
0.4859375 0.2109375
0.4802083 0.2109375
0.4744792 0.2109375
0.546875 0.1953125
0.5427083 0.1953125
0.5385417 0.1953125
0.534375 0.1953125
0.5302083 0.1953125
0.5260417 0.1953125
0.521875 0.1953125
0.5177084 0.1953125
0.5135416 0.1953125
0.509375 0.1953125
0.5052083 0.1953125
0.5010417 0.1953125
0.496875 0.1953125
0.4927083 0.1953125
0.4885417 0.1953125
0.484375 0.1953125
