0.078125 0.296875
0.078125 0.296875
0.078125 0.296875
0.078125 0.296875
0.078125 0.296875
0.078125 0.296875
0.078125 0.296875
0.078125 0.296875
0.078125 0.296875
0.078125 0.296875
0.078125 0.296875
0.078125 0.296875
0.078125 0.296875
0.078125 0.296875
0.078125 0.296875
0.078125 0.296875
0.078125 0.296875
0.078125 0.296875
0.078125 0.296875
0.078125 0.296875
0.078125 0.296875
0.078125 0.296875
0.078125 0.296875
0.078125 0.296875
0.078125 0.296875
0.078125 0.296875
0.078125 0.296875
0.078125 0.296875
0.078125 0.296875
0.078125 0.296875
0.078125 0.296875
0.078125 0.296875
0.078125 0.296875
0.078125 0.296875
0.078125 0.296875
0.078125 0.296875
0.078125 0.296875
0.078125 0.296875
0.078125 0.296875
0.078125 0.296875
0.078125 0.296875
0.078125 0.296875
0.078125 0.296875
0.078125 0.296875
0.078125 0.296875
0.078125 0.296875
0.078125 0.296875
0.078125 0.296875
0.078125 0.296875
0.078125 0.296875
0.078125 0.296875
0.078125 0.296875
0.078125 0.296875
0.078125 0.296875
0.078125 0.296875
0.078125 0.296875
0.09375 0.140625
0.09375 0.140625
0.09410864 0.1401753
0.093494 0.1395034
0.09219527 0.1398763
0.09167701 0.1416233
0.09311002 0.143429
0.09375 0.140625
0.09777647 0.140625
0.0966191 0.1370273
0.09259802 0.1355779
0.08856753 0.1381293
0.08804929 0.1433703
0.09221405 0.1473545
0.09375 0.140625
0.1018029 0.140625
0.09912956 0.1338792
0.09170207 0.1316524
0.08493981 0.1363823
0.08442158 0.1451173
0.09131807 0.15128
0.09375 0.140625
0.1058294 0.140625
0.10164 0.1307312
0.0908061 0.1277269
0.08131209 0.1346352
0.08079383 0.1468644
0.09042209 0.1552055
0.09375 0.140625
0.1098559 0.140625
0.1041505 0.1275832
0.08991012 0.1238014
0.07768437 0.1328882
0.07716611 0.1486114
0.08952612 0.159131
0.09375 0.140625
0.1138824 0.140625
0.106661 0.1244352
0.08901414 0.1198758
0.07405663 0.1311412
0.07353839 0.1503584
0.08863014 0.1630565
0.09375 0.140625
0.1179088 0.140625
0.1091714 0.1212872
0.08811817 0.1159503
0.07042891 0.1293942
0.06991068 0.1521054
0.08773416 0.1669821
0.09375 0.140625
0.1219353 0.140625
0.1116819 0.1181391
0.08722219 0.1120248
0.06680119 0.1276471
0.06628296 0.1538524
0.08683819 0.1709076
0.1328125 0.1875
0.1328125 0.1875
0.1333197 0.186864
0.1324505 0.1859139
0.1306138 0.1864412
0.1298808 0.1889118
0.1319074 0.1914654
0.1328125 0.1875
0.1385068 0.1875
0.13687 0.182412
0.1311834 0.1803623
0.1254834 0.1839705
0.1247505 0.1913825
0.1306403 0.1970169
0.1328125 0.1875
0.1442011 0.1875
0.1404203 0.1779601
0.1299163 0.1748108
0.120353 0.1814998
0.1196201 0.1938531
0.1293732 0.2025684
0.1328125 0.1875
0.1498954 0.1875
0.1439707 0.1735081
0.1286492 0.1692593
0.1152226 0.1790292
0.1144897 0.1963238
0.1281061 0.2081199
0.1328125 0.1875
0.1555896 0.1875
0.147521 0.1690561
0.1273821 0.1637078
0.1100923 0.1765585
0.1093594 0.1987945
0.126839 0.2136714
0.1328125 0.1875
0.1612839 0.1875
0.1510713 0.1646041
0.126115 0.1581562
0.1049619 0.1740879
0.104229 0.2012651
0.1255719 0.219223
0.1328125 0.1875
0.1669782 0.1875
0.1546217 0.1601522
0.1248479 0.1526047
0.09983152 0.1716172
0.09909859 0.2037358
0.1243048 0.2247745
0.1328125 0.1875
0.1726725 0.1875
0.158172 0.1557002
0.1235808 0.1470532
0.09470114 0.1691465
0.09396821 0.2062064
0.1230377 0.230326
0.1796875 0.1875
0.1796875 0.1875
0.1801947 0.186864
0.1793255 0.1859139
0.1774888 0.1864412
0.1767558 0.1889118
0.1787824 0.1914654
0.1796875 0.1875
0.1853818 0.1875
0.183745 0.182412
0.1780584 0.1803623
0.1723584 0.1839705
0.1716255 0.1913825
0.1775153 0.1970169
0.1796875 0.1875
0.1910761 0.1875
0.1872953 0.1779601
0.1767913 0.1748108
0.167228 0.1814998
0.1664951 0.1938531
0.1762482 0.2025684
0.1796875 0.1875
0.1967704 0.1875
0.1908457 0.1735081
0.1755242 0.1692593
0.1620976 0.1790292
0.1613647 0.1963238
0.1749811 0.2081199
0.1796875 0.1875
0.2024646 0.1875
0.194396 0.1690561
0.1742571 0.1637078
0.1569673 0.1765585
0.1562344 0.1987945
0.173714 0.2136714
0.1796875 0.1875
0.2081589 0.1875
0.1979463 0.1646041
0.17299 0.1581562
0.1518369 0.1740879
0.151104 0.2012651
0.1724469 0.219223
0.1796875 0.1875
0.2138532 0.1875
0.2014967 0.1601522
0.1717229 0.1526047
0.1467065 0.1716172
0.1459736 0.2037358
0.1711798 0.2247745
0.1796875 0.1875
0.2195475 0.1875
0.205047 0.1557002
0.1704558 0.1470532
0.1415761 0.1691465
0.1408432 0.2062064
0.1699127 0.230326
0.7265625 0.1484375
0.7265625 0.1484375
0.7271194 0.1477391
0.7261649 0.1466957
0.724148 0.1472747
0.7233432 0.1499878
0.7255687 0.152792
0.7265625 0.1484375
0.7328156 0.1484375
0.7310182 0.1428503
0.7247735 0.1405994
0.7185142 0.1445616
0.7177094 0.1527009
0.7241772 0.1588883
0.7265625 0.1484375
0.7390686 0.1484375
0.7349169 0.1379614
0.7233821 0.1345032
0.7128804 0.1418486
0.7120756 0.155414
0.7227857 0.1649845
0.7265625 0.1484375
0.7453216 0.1484375
0.7388156 0.1330726
0.7219906 0.1284069
0.7072466 0.1391355
0.7064418 0.1581271
0.7213943 0.1710808
0.7265625 0.1484375
0.7515747 0.1484375
0.7427143 0.1281838
0.7205992 0.1223106
0.7016128 0.1364224
0.7008079 0.1608402
0.7200029 0.1771771
0.7265625 0.1484375
0.7578278 0.1484375
0.746613 0.1232949
0.7192078 0.1162143
0.695979 0.1337093
0.6951742 0.1635533
0.7186115 0.1832733
0.7265625 0.1484375
0.7640808 0.1484375
0.7505118 0.1184061
0.7178164 0.1101181
0.6903452 0.1309962
0.6895404 0.1662664
0.71722 0.1893696
0.7265625 0.1484375
0.7703339 0.1484375
0.7544104 0.1135173
0.7164249 0.1040218
0.6847114 0.1282831
0.6839066 0.1689795
0.7158285 0.1954659
0.7571952 0.1868497
