0.671296296296300	0.750308641975333
0.738657407407333	0.717386831275667
0.730941358024667	0.709876543210000
0.765972222222333	0.686522633744867
0.817361111111000	0.686522633744867
0.844675925926000	0.681069958847733
0.875000000000000	0.683847736625500
0.907407407407333	0.683127572016467
0.937731481481333	0.696810699588467
0.964506172839667	0.737962962963000
0.960879629629667	0.742078189300333
0.984567901234667	0.767489711934000
0.996913580247000	0.794958847736667
0.980941358024667	0.816152263374333
0.964506172839667	0.842283950617333
0.948533950617333	0.867592592592667
0.921836419753000	0.883436213991667
0.928472222222333	0.863477366255000
0.932098765432000	0.843621399177000
0.903317901234667	0.826440329218000
0.874459876543333	0.840226337448667
0.860108024691333	0.905349794238667
0.884799382716000	0.923868312757333
0.909490740740667	0.909465020576000
0.932098765432000	0.889609053498000
0.920293209876667	0.930041152263333
0.935725308642000	0.926646090535000
0.902237654321000	0.963683127572000
0.863657407407333	0.978086419753000
0.832330246913667	0.962962962963000
0.847762345679000	0.957510288066000
0.832793209876667	0.944444444444333
0.811188271605000	0.960185185185333
0.805015432098667	0.975308641975333
0.809182098765333	0.988991769547333
0.775231481481333	0.952674897119333
0.738194444444333	0.850514403292333
0.706790123456667	0.786008230452667
0.671296296296300	0.750308641975333
