0.0546875 0.4921875
0.0546875 0.4921875
0.05604002 0.4904915
0.05372208 0.4879578
0.04882422 0.4893639
0.04686978 0.4959523
0.05227399 0.5027618
0.0546875 0.4921875
0.06987226 0.4921875
0.06550756 0.4786196
0.05034316 0.4731537
0.0351432 0.4827755
0.03318879 0.5025408
0.04889506 0.5175659
0.0546875 0.4921875
0.08505705 0.4921875
0.0749751 0.4667476
0.04696423 0.4583496
0.0214622 0.4761871
0.01950777 0.5091292
0.0455161 0.5323699
0.1015625 0.5
0.1015625 0.5
0.1027452 0.4985169
0.1007183 0.4963012
0.09643519 0.4975308
0.09472612 0.5032923
0.09945193 0.509247
0.1015625 0.5
0.1148412 0.5
0.1110244 0.4881352
0.09776348 0.4833554
0.08447152 0.4917694
0.08276242 0.5090536
0.09649715 0.5221928
0.1015625 0.5
0.1281199 0.5
0.1193035 0.4777535
0.0948087 0.4704097
0.07250783 0.486008
0.07079872 0.514815
0.09354237 0.5351385
0.1875 0.515625
0.1875 0.515625
0.1887491 0.5140586
0.1866084 0.5117186
0.182085 0.5130172
0.18028 0.519102
0.185271 0.5253909
0.1875 0.515625
0.2015239 0.515625
0.1974928 0.5030944
0.1834878 0.4980464
0.1694499 0.5069326
0.1676449 0.5251867
0.1821504 0.5390632
0.1875 0.515625
0.2155477 0.515625
0.2062366 0.4921301
0.1803672 0.4843741
0.1568148 0.5008478
0.1550098 0.5312715
0.1790298 0.5527354
0.234375 0.5234375
0.234375 0.5234375
0.2355577 0.5219544
0.2335308 0.5197387
0.2292477 0.5209683
0.2275386 0.5267298
0.2322644 0.5326845
0.234375 0.5234375
0.2476537 0.5234375
0.2438369 0.5115727
0.230576 0.506793
0.217284 0.5152069
0.2155749 0.5324911
0.2293096 0.5456303
0.234375 0.5234375
0.2609324 0.5234375
0.252116 0.501191
0.2276212 0.4938472
0.2053203 0.5094455
0.2036112 0.5382525
0.2263549 0.558576
0.2421875 0.6953125
0.2421875 0.6953125
0.2438276 0.6932558
0.2410168 0.6901832
0.2350772 0.6918884
0.2327071 0.699878
0.2392607 0.7081357
0.2421875 0.6953125
0.2606018 0.6953125
0.2553087 0.678859
0.2369192 0.6722307
0.2184865 0.6838987
0.2161165 0.7078676
0.2351631 0.7260883
0.2421875 0.6953125
0.279016 0.6953125
0.2667899 0.6644621
0.2328217 0.6542781
0.2018959 0.6759091
0.1995258 0.7158573
0.2310656 0.7440408
0.28125 0.53125
0.28125 0.53125
0.2824327 0.5297669
0.2804058 0.5275512
0.2761227 0.5287808
0.2744136 0.5345423
0.2791394 0.540497
0.28125 0.53125
0.2945287 0.53125
0.2907119 0.5193852
0.277451 0.5146055
0.264159 0.5230194
0.2624499 0.5403036
0.2761846 0.5534428
0.28125 0.53125
0.3078074 0.53125
0.298991 0.5090035
0.2744962 0.5016597
0.2521953 0.517258
0.2504862 0.546065
0.2732298 0.5663885
0.2890625 0.7109375
0.2890625 0.7109375
0.2903116 0.7093711
0.2881709 0.7070311
0.2836475 0.7083298
0.2818425 0.7144145
0.2868335 0.7207034
0.2890625 0.7109375
0.3030864 0.7109375
0.2990553 0.6984069
0.2850503 0.6933589
0.2710124 0.7022451
0.2692074 0.7204992
0.2837129 0.7343757
0.2890625 0.7109375
0.3171102 0.7109375
0.3077991 0.6874425
0.2819297 0.6796866
0.2583773 0.6961603
0.2565723 0.726584
0.2805923 0.7480479
0.328125 0.53125
0.328125 0.53125
0.3293077 0.5297669
0.3272808 0.5275512
0.3229977 0.5287808
0.3212886 0.5345423
0.3260144 0.540497
0.328125 0.53125
0.3414037 0.53125
0.3375869 0.5193852
0.324326 0.5146055
0.311034 0.5230194
0.3093249 0.5403036
0.3230596 0.5534428
0.328125 0.53125
0.3546824 0.53125
0.345866 0.5090035
0.3213712 0.5016597
0.2990703 0.517258
0.2973612 0.546065
0.3201048 0.5663885
0.3671875 0.71875
0.3671875 0.71875
0.3688276 0.7166933
0.3660168 0.7136207
0.3600772 0.7153259
0.3577071 0.7233155
0.3642607 0.7315732
0.3671875 0.71875
0.3856017 0.71875
0.3803087 0.7022965
0.3619192 0.6956682
0.3434865 0.7073362
0.3411165 0.7313051
0.3601631 0.7495258
0.3671875 0.71875
0.404016 0.71875
0.3917899 0.6878996
0.3578216 0.6777156
0.3268959 0.6993466
0.3245258 0.7392948
0.3560656 0.7674783
0.375 0.46875
0.375 0.46875
0.3756959 0.4678774
0.3745033 0.4665738
0.3719833 0.4672973
0.3709778 0.470687
0.3737583 0.4741904
0.375 0.46875
0.3828125 0.46875
0.3805669 0.4617694
0.3727649 0.4589572
0.3649445 0.4639075
0.363939 0.4740767
0.3720198 0.4818071
0.375 0.46875
0.390625 0.46875
0.3854379 0.4556613
0.3710264 0.4513406
0.3579057 0.4605178
0.3569002 0.4774664
0.3702814 0.4894237
0.3828125 0.609375
0.3828125 0.609375
0.383546 0.6084552
0.3822889 0.6070811
0.3796327 0.6078437
0.3785728 0.6114168
0.3815036 0.6151097
0.3828125 0.609375
0.3910476 0.609375
0.3886805 0.6020167
0.3804564 0.5990525
0.3722131 0.6042706
0.3711532 0.6149898
0.3796711 0.6231384
0.3828125 0.609375
0.3992827 0.609375
0.393815 0.5955783
0.378624 0.5910239
0.3647935 0.6006975
0.3637336 0.6185629
0.3778386 0.631167
0.390625 0.5390625
0.390625 0.5390625
0.3918077 0.5375794
0.3897808 0.5353637
0.3854977 0.5365933
0.3837886 0.5423548
0.3885144 0.5483095
0.390625 0.5390625
0.4039037 0.5390625
0.4000869 0.5271977
0.386826 0.522418
0.373534 0.5308319
0.3718249 0.5481161
0.3855596 0.5612553
0.390625 0.5390625
0.4171824 0.5390625
0.408366 0.516816
0.3838712 0.5094722
0.3615703 0.5250705
0.3598612 0.5538775
0.3826049 0.574201
0.3984375 0.765625
0.3984375 0.765625
0.3999227 0.7637626
0.3973774 0.7609802
0.3919989 0.7625243
0.3898526 0.7697592
0.3957871 0.7772369
0.3984375 0.765625
0.4151123 0.765625
0.4103193 0.7507257
0.3936669 0.7447235
0.3769754 0.7552894
0.3748292 0.7769942
0.3920767 0.7934937
0.3984375 0.765625
0.4317871 0.765625
0.4207159 0.7376888
0.3899564 0.7284667
0.3619519 0.7480545
0.3598057 0.7842291
0.3883662 0.8097504
0.7109375 0.59375
0.7109375 0.59375
0.7125776 0.5916933
0.7097667 0.5886207
0.7038272 0.5903259
0.7014571 0.5983155
0.7080107 0.6065732
0.7109375 0.59375
0.7293518 0.59375
0.7240587 0.5772965
0.7056692 0.5706682
0.6872365 0.5823362
0.6848665 0.6063051
0.7039131 0.6245258
0.7109375 0.59375
0.747766 0.59375
0.7355399 0.5628996
0.7015716 0.5527156
0.6706459 0.5743466
0.6682758 0.6142948
0.6998156 0.6424783
0.71875 0.640625
0.71875 0.640625
0.7203901 0.6385683
0.7175792 0.6354957
0.7116397 0.6372009
0.7092696 0.6451905
0.7158232 0.6534482
0.71875 0.640625
0.7371643 0.640625
0.7318712 0.6241715
0.7134817 0.6175432
0.695049 0.6292112
0.692679 0.6531801
0.7117256 0.6714008
0.71875 0.640625
0.7555785 0.640625
0.7433524 0.6097746
0.7093841 0.5995906
0.6784584 0.6212216
0.6760883 0.6611698
0.7076281 0.6893533
0.71875 0.7421875
0.71875 0.7421875
0.7203901 0.7401308
0.7175792 0.7370582
0.7116397 0.7387634
0.7092696 0.746753
0.7158232 0.7550107
0.71875 0.7421875
0.7371643 0.7421875
0.7318712 0.725734
0.7134817 0.7191057
0.695049 0.7307737
0.692679 0.7547426
0.7117256 0.7729633
0.71875 0.7421875
0.7555785 0.7421875
0.7433524 0.7113371
0.7093841 0.7011531
0.6784584 0.7227841
0.6760883 0.7627323
0.7076281 0.7909158
0.71875 0.7890625
0.71875 0.7890625
0.7203901 0.7870058
0.7175792 0.7839332
0.7116397 0.7856383
0.7092696 0.793628
0.7158232 0.8018857
0.71875 0.7890625
0.7371643 0.7890625
0.7318712 0.772609
0.7134817 0.7659806
0.695049 0.7776487
0.692679 0.8016176
0.7117256 0.8198383
0.71875 0.7890625
0.7555785 0.7890625
0.7433524 0.7582121
0.7093841 0.7480281
0.6784584 0.7696591
0.6760883 0.8096073
0.7076281 0.8377908
0.765625 0.6015625
0.765625 0.6015625
0.7672651 0.5995058
0.7644542 0.5964332
0.7585148 0.5981384
0.7561446 0.606128
0.7626982 0.6143857
0.765625 0.6015625
0.7840393 0.6015625
0.7787462 0.585109
0.7603567 0.5784807
0.741924 0.5901487
0.739554 0.6141176
0.7586006 0.6323383
0.765625 0.6015625
0.8024535 0.6015625
0.7902273 0.5707121
0.7562592 0.5605281
0.7253334 0.5821591
0.7229633 0.6221073
0.7545031 0.6502908
0.765625 0.734375
0.765625 0.734375
0.7672651 0.7323183
0.7644542 0.7292457
0.7585148 0.7309509
0.7561446 0.7389405
0.7626982 0.7471982
0.765625 0.734375
0.7840393 0.734375
0.7787462 0.7179215
0.7603567 0.7112932
0.741924 0.7229612
0.739554 0.7469301
0.7586006 0.7651508
0.765625 0.734375
0.8024535 0.734375
0.7902273 0.7035246
0.7562592 0.6933406
0.7253334 0.7149716
0.7229633 0.7549198
0.7545031 0.7831033
0.765625 0.78125
0.765625 0.78125
0.7672651 0.7791933
0.7644542 0.7761207
0.7585148 0.7778258
0.7561446 0.7858155
0.7626982 0.7940732
0.765625 0.78125
0.7840393 0.78125
0.7787462 0.7647965
0.7603567 0.7581681
0.741924 0.7698362
0.739554 0.7938051
0.7586006 0.8120258
0.765625 0.78125
0.8024535 0.78125
0.7902273 0.7503996
0.7562592 0.7402156
0.7253334 0.7618466
0.7229633 0.8017948
0.7545031 0.8299783
0.8125 0.6171875
0.8125 0.6171875
0.8137491 0.6156211
0.8116084 0.6132811
0.807085 0.6145797
0.80528 0.6206645
0.810271 0.6269534
0.8125 0.6171875
0.8265239 0.6171875
0.8224928 0.6046569
0.8084878 0.5996089
0.7944499 0.6084951
0.7926449 0.6267492
0.8071504 0.6406257
0.8125 0.6171875
0.8405477 0.6171875
0.8312366 0.5936925
0.8053672 0.5859366
0.7818148 0.6024103
0.7800099 0.632834
0.8040298 0.6542979
0.8125 0.7265625
0.8125 0.7265625
0.8141401 0.7245058
0.8113292 0.7214332
0.8053898 0.7231384
0.8030196 0.731128
0.8095732 0.7393857
0.8125 0.7265625
0.8309143 0.7265625
0.8256212 0.710109
0.8072317 0.7034807
0.788799 0.7151487
0.7864289 0.7391176
0.8054756 0.7573383
0.8125 0.7265625
0.8493285 0.7265625
0.8371023 0.6957121
0.8031342 0.6855281
0.7722084 0.7071591
0.7698383 0.7471073
0.8013781 0.7752908
0.8125 0.7734375
0.8125 0.7734375
0.8141401 0.7713808
0.8113292 0.7683082
0.8053898 0.7700133
0.8030196 0.778003
0.8095732 0.7862607
0.8125 0.7734375
0.8309143 0.7734375
0.8256212 0.756984
0.8072317 0.7503556
0.788799 0.7620237
0.7864289 0.7859926
0.8054756 0.8042133
0.8125 0.7734375
0.8493285 0.7734375
0.8371023 0.7425871
0.8031342 0.7324031
0.7722084 0.7540341
0.7698383 0.7939823
0.8013781 0.8221658
0.859375 0.7109375
0.859375 0.7109375
0.8610151 0.7088808
0.8582042 0.7058082
0.8522648 0.7075134
0.8498946 0.715503
0.8564482 0.7237607
0.859375 0.7109375
0.8777893 0.7109375
0.8724962 0.694484
0.8541067 0.6878557
0.835674 0.6995237
0.8333039 0.7234926
0.8523506 0.7417133
0.859375 0.7109375
0.8962035 0.7109375
0.8839773 0.6800871
0.8500092 0.6699031
0.8190834 0.6915341
0.8167133 0.7314823
0.8482531 0.7596658
0.859375 0.7734375
0.859375 0.7734375
0.8610151 0.7713808
0.8582042 0.7683082
0.8522648 0.7700133
0.8498946 0.778003
0.8564482 0.7862607
0.859375 0.7734375
0.8777893 0.7734375
0.8724962 0.756984
0.8541067 0.7503556
0.835674 0.7620237
0.8333039 0.7859926
0.8523506 0.8042133
0.859375 0.7734375
0.8962035 0.7734375
0.8839773 0.7425871
0.8500092 0.7324031
0.8190834 0.7540341
0.8167133 0.7939823
0.8482531 0.8221658
0.90625 0.640625
0.90625 0.640625
0.9074327 0.6391419
0.9054058 0.6369262
0.9011227 0.6381558
0.8994136 0.6439172
0.9041394 0.6498719
0.90625 0.640625
0.9195287 0.640625
0.9157119 0.6287602
0.902451 0.6239804
0.889159 0.6323944
0.8874499 0.6496786
0.9011847 0.6628177
0.90625 0.640625
0.9328074 0.640625
0.923991 0.6183785
0.8994962 0.6110346
0.8771954 0.626633
0.8754863 0.6554401
0.8982298 0.6757635
0.90625 0.703125
0.90625 0.703125
0.9078901 0.7010683
0.9050792 0.6979957
0.8991398 0.6997009
0.8967696 0.7076905
0.9033232 0.7159482
0.90625 0.703125
0.9246643 0.703125
0.9193712 0.6866715
0.9009817 0.6800432
0.882549 0.6917112
0.8801789 0.7156801
0.8992256 0.7339008
0.90625 0.703125
0.9430785 0.703125
0.9308523 0.6722746
0.8968842 0.6620906
0.8659584 0.6837216
0.8635883 0.7236698
0.8951281 0.7518533
0.9390531 0.7442588
