0 0.8867188
0 0.8867188
0.01041667 0.8867188
0 0.8789063
0.04166667 0.8164063
0.04166667 0.8164063
0.04166667 0.8164063
0.04166667 0.8125
0.1354167 0.1953125
0.1354167 0.1953125
0.1458333 0.1953125
0.1354167 0.1835938
0.171875 0.1054688
0.171875 0.1054688
0.171875 0.1054688
0.171875 0.1015625
0.1822917 0.1328125
0.1822917 0.1328125
0.1875 0.1328125
0.1822917 0.1289063
1.145833 0.3710938
1.145833 0.3710938
1.166667 0.3710938
1.145833 0.3398438
1.151042 0.390625
1.151042 0.390625
1.182292 0.390625
1.151042 0.359375
1.161458 0.546875
1.161458 0.546875
1.161458 0.546875
1.161458 0.5390625
1.151042 0.3515625
1.151042 0.3515625
1.192708 0.3515625
1.151042 0.3203125
1.151042 0.3710938
1.151042 0.3710938
1.192708 0.3710938
1.151042 0.3398438
1.166667 0.4101563
1.166667 0.4101563
1.192708 0.4101563
1.166667 0.3789063
1.177083 0.2851563
1.177083 0.2851563
1.197917 0.2851563
1.177083 0.2695313
1.177083 0.4296875
1.177083 0.4296875
1.197917 0.4296875
1.177083 0.3984375
1.177083 0.4492188
1.177083 0.4492188
1.197917 0.4492188
1.177083 0.4179688
1.177083 0.3203125
1.177083 0.3203125
1.203125 0.3203125
1.177083 0.2890625
1.182292 0.46875
1.182292 0.46875
1.203125 0.46875
1.182292 0.4453125
1.166667 0.390625
1.166667 0.390625
1.208333 0.390625
1.166667 0.359375
1.177083 0.3398438
1.177083 0.3398438
1.21875 0.3398438
1.177083 0.3085938
1.177083 0.359375
1.177083 0.359375
1.21875 0.359375
1.177083 0.328125
1.177083 0.4101563
1.177083 0.4101563
1.21875 0.4101563
1.177083 0.3789063
1.197917 0.5429688
1.197917 0.5429688
1.21875 0.5429688
1.197917 0.515625
1.182292 0.4296875
1.182292 0.4296875
1.223958 0.4296875
1.182292 0.3984375
1.1875 0.3203125
1.1875 0.3203125
1.229167 0.3203125
1.1875 0.2890625
1.1875 0.4492188
1.1875 0.4492188
1.223958 0.4492188
1.1875 0.4179688
1.192708 0.3789063
1.192708 0.3789063
1.234375 0.3789063
1.192708 0.3476563
1.197917 0.5664063
1.197917 0.5664063
1.239583 0.5664063
1.197917 0.5351563
1.203125 0.3398438
1.203125 0.3398438
1.244792 0.3398438
1.203125 0.3085938
1.203125 0.359375
1.203125 0.359375
1.244792 0.359375
1.203125 0.328125
1.203125 0.3984375
1.203125 0.3984375
1.244792 0.3984375
1.203125 0.3671875
1.203125 0.5429688
1.203125 0.5429688
1.244792 0.5429688
1.203125 0.5117188
1.223958 0.6054688
1.223958 0.6054688
1.244792 0.6054688
1.223958 0.5742188
1.229167 0.2421875
1.229167 0.2421875
1.25 0.2421875
1.229167 0.2109375
1.208333 0.4179688
1.208333 0.4179688
1.25 0.4179688
1.208333 0.3867188
1.223958 0.5859375
1.223958 0.5859375
1.25 0.5859375
1.223958 0.5546875
1.234375 0.2226563
1.234375 0.2226563
1.255208 0.2226563
1.234375 0.1992188
1.229167 0.2617188
1.229167 0.2617188
1.255208 0.2617188
1.229167 0.2304688
1.223958 0.625
1.223958 0.625
1.255208 0.625
1.223958 0.59375
1.239583 0.1835938
1.239583 0.1835938
1.25 0.1835938
1.239583 0.1679688
1.21875 0.3789063
1.21875 0.3789063
1.260417 0.3789063
1.21875 0.3476563
1.234375 0.6445313
1.234375 0.6445313
1.260417 0.6445313
1.234375 0.6132813
1.239583 0.6757813
1.239583 0.6757813
1.260417 0.6757813
1.239583 0.6445313
1.223958 0.3125
1.223958 0.3125
1.265625 0.3125
1.223958 0.2890625
1.229167 0.3398438
1.229167 0.3398438
1.270833 0.3398438
1.229167 0.3085938
1.229167 0.359375
1.229167 0.359375
1.270833 0.359375
1.229167 0.328125
1.229167 0.3984375
1.229167 0.3984375
1.270833 0.3984375
1.229167 0.3671875
1.25 0.5
1.25 0.5
1.270833 0.5
1.25 0.46875
1.229167 0.5351563
1.229167 0.5351563
1.270833 0.5351563
1.229167 0.5039063
1.229167 0.6054688
1.229167 0.6054688
1.270833 0.6054688
1.229167 0.5742188
1.239583 0.28125
1.239583 0.28125
1.276042 0.28125
1.239583 0.25
1.234375 0.4179688
1.234375 0.4179688
1.276042 0.4179688
1.234375 0.3867188
1.234375 0.4375
1.234375 0.4375
1.276042 0.4375
1.234375 0.40625
1.234375 0.5703125
1.234375 0.5703125
1.276042 0.5703125
1.234375 0.5390625
1.239583 0.6953125
1.239583 0.6953125
1.276042 0.6953125
1.239583 0.6640625
1.239583 0.2617188
1.239583 0.2617188
1.270833 0.2617188
1.239583 0.2304688
1.255208 0.4570313
1.255208 0.4570313
1.28125 0.4570313
1.255208 0.4257813
1.239583 0.625
1.239583 0.625
1.28125 0.625
1.239583 0.59375
1.255208 0.7148438
1.255208 0.7148438
1.28125 0.7148438
1.255208 0.6835938
1.244792 0.3789063
1.244792 0.3789063
1.286458 0.3789063
1.244792 0.3476563
1.244792 0.6445313
1.244792 0.6445313
1.286458 0.6445313
1.244792 0.6132813
1.244792 0.6640625
1.244792 0.6640625
1.286458 0.6640625
1.244792 0.6328125
1.255208 0.3007813
1.255208 0.3007813
1.291667 0.3007813
1.255208 0.2695313
1.25 0.3203125
1.25 0.3203125
1.291667 0.3203125
1.25 0.2890625
1.260417 0.734375
1.260417 0.734375
1.291667 0.734375
1.260417 0.7109375
1.255208 0.3398438
1.255208 0.3398438
1.296875 0.3398438
1.255208 0.3085938
1.255208 0.359375
1.255208 0.359375
1.296875 0.359375
1.255208 0.328125
1.255208 0.3984375
1.255208 0.3984375
1.296875 0.3984375
1.255208 0.3671875
1.255208 0.5
1.255208 0.5
1.296875 0.5
1.255208 0.46875
1.255208 0.5195313
1.255208 0.5195313
1.296875 0.5195313
1.255208 0.4882813
1.255208 0.5390625
1.255208 0.5390625
1.296875 0.5390625
1.255208 0.5078125
1.255208 0.5898438
1.255208 0.5898438
1.296875 0.5898438
1.255208 0.5585938
1.260417 0.4179688
1.260417 0.4179688
1.302083 0.4179688
1.260417 0.3867188
1.260417 0.4375
1.260417 0.4375
1.291667 0.4375
1.260417 0.40625
1.260417 0.4765625
1.260417 0.4765625
1.302083 0.4765625
1.260417 0.4453125
1.260417 0.5585938
1.260417 0.5585938
1.302083 0.5585938
1.260417 0.5273438
1.260417 0.6835938
1.260417 0.6835938
1.302083 0.6835938
1.260417 0.6523438
1.265625 0.609375
1.265625 0.609375
1.307292 0.609375
1.265625 0.578125
1.265625 0.703125
1.265625 0.703125
1.307292 0.703125
1.265625 0.671875
1.270833 0.6289063
1.270833 0.6289063
1.3125 0.6289063
1.270833 0.5976563
1.270833 0.6484375
1.270833 0.6484375
1.3125 0.6484375
1.270833 0.6171875
1.276042 0.3007813
1.276042 0.3007813
1.307292 0.3007813
1.276042 0.2695313
1.276042 0.3203125
1.276042 0.3203125
1.317708 0.3203125
1.276042 0.2890625
1.276042 0.3789063
1.276042 0.3789063
1.317708 0.3789063
1.276042 0.3476563
1.276042 0.7226563
1.276042 0.7226563
1.3125 0.7226563
1.276042 0.6914063
1.28125 0.3398438
1.28125 0.3398438
1.317708 0.3398438
1.28125 0.3085938
1.28125 0.359375
1.28125 0.359375
1.317708 0.359375
1.28125 0.328125
1.28125 0.3984375
1.28125 0.3984375
1.3125 0.3984375
1.28125 0.3671875
1.28125 0.4960938
1.28125 0.4960938
1.317708 0.4960938
1.28125 0.4648438
1.28125 0.515625
1.28125 0.515625
1.317708 0.515625
1.28125 0.484375
1.28125 0.5351563
1.28125 0.5351563
1.317708 0.5351563
1.28125 0.5039063
1.28125 0.578125
1.28125 0.578125
1.317708 0.578125
1.28125 0.546875
1.286458 0.5546875
1.286458 0.5546875
1.317708 0.5546875
1.286458 0.5234375
1.286458 0.6679688
1.286458 0.6679688
1.317708 0.6679688
1.286458 0.6367188
1.291667 0.5976563
1.291667 0.5976563
1.317708 0.5976563
1.291667 0.5664063
1.291667 0.6875
1.291667 0.6875
1.317708 0.6875
1.291667 0.65625
1.296875 0.6171875
1.296875 0.6171875
1.317708 0.6171875
1.296875 0.5859375
1.296875 0.6367188
1.296875 0.6367188
1.317708 0.6367188
1.296875 0.6054688
1.317708 0.6054688
