0.3155439 0.34375
0.3155439 0.34375
0.3311708 0.34375
0.3155439 0.328125
0.3311708 0.40625
0.3311708 0.40625
0.3520067 0.40625
0.3311708 0.3828125
0.3207529 0.3632813
0.3207529 0.3632813
0.3415887 0.3632813
0.3207529 0.3515625
0.3520067 0.4335938
0.3520067 0.4335938
0.3728426 0.4335938
0.3520067 0.4140625
0.3363798 0.375
0.3363798 0.375
0.3780515 0.375
0.3363798 0.359375
0.3363798 0.4101563
0.3363798 0.4101563
0.3780515 0.4101563
0.3363798 0.3789063
0.3572156 0.4296875
0.3572156 0.4296875
0.3988874 0.4296875
0.3572156 0.40625
0.3624246 0.3984375
0.3624246 0.3984375
0.4040964 0.3984375
0.3624246 0.3710938
0.3988874 0.53125
0.3988874 0.53125
0.4145143 0.53125
0.3988874 0.5195313
0.3884695 0.3867188
0.3884695 0.3867188
0.4197233 0.3867188
0.3884695 0.3671875
0.4197233 0.4492188
0.4197233 0.4492188
0.4405591 0.4492188
0.4197233 0.4257813
0.4249322 0.4648438
0.4249322 0.4648438
0.4457681 0.4648438
0.4249322 0.4414063
0.461395 0.6953125
0.461395 0.6953125
0.4822309 0.6953125
0.461395 0.6757813
0.466604 0.3320313
0.466604 0.3320313
0.4874399 0.3320313
0.466604 0.3164063
0.466604 0.6914063
0.466604 0.6914063
0.5082757 0.6914063
0.466604 0.6679688
0.466604 0.71875
0.466604 0.71875
0.5082757 0.71875
0.466604 0.6953125
0.4770219 0.3164063
0.4770219 0.3164063
0.5134847 0.3164063
0.4770219 0.2851563
0.5082757 0.2890625
0.5082757 0.2890625
0.5343206 0.2890625
0.5082757 0.2578125
0.4926488 0.6796875
0.4926488 0.6796875
0.5343206 0.6796875
0.4926488 0.65625
0.4926488 0.7070313
0.4926488 0.7070313
0.5343206 0.7070313
0.4926488 0.6757813
0.5291116 0.375
0.5291116 0.375
0.5499475 0.375
0.5291116 0.3515625
0.5186937 0.265625
0.5186937 0.265625
0.5603654 0.265625
0.5186937 0.2382813
0.5186937 0.6679688
0.5186937 0.6679688
0.5603654 0.6679688
0.5186937 0.6484375
0.5186937 0.6992188
0.5186937 0.6992188
0.5603654 0.6992188
0.5186937 0.6679688
0.5499475 0.5117188
0.5499475 0.5117188
0.5603654 0.5117188
0.5499475 0.5
0.5343206 0.3554688
0.5343206 0.3554688
0.5707834 0.3554688
0.5343206 0.3398438
0.5343206 0.3984375
0.5343206 0.3984375
0.5655744 0.3984375
0.5343206 0.3789063
0.5447385 0.2539063
0.5447385 0.2539063
0.5864103 0.2539063
0.5447385 0.2226563
0.5447385 0.6601563
0.5447385 0.6601563
0.5864103 0.6601563
0.5447385 0.6445313
0.5447385 0.6953125
0.5447385 0.6953125
0.5864103 0.6953125
0.5447385 0.671875
0.5707834 0.2304688
0.5707834 0.2304688
0.6124551 0.2304688
0.5707834 0.2070313
0.6020372 0.3554688
0.6020372 0.3554688
0.6228731 0.3554688
0.6020372 0.3476563
0.6020372 0.53125
0.6020372 0.53125
0.6228731 0.53125
0.6020372 0.515625
0.6072462 0.5664063
0.6072462 0.5664063
0.628082 0.5664063
0.6072462 0.5351563
0.5968282 0.21875
0.5968282 0.21875
0.6385 0.21875
0.5968282 0.1992188
0.6124551 0.5859375
0.6124551 0.5859375
0.6437089 0.5859375
0.6124551 0.5546875
0.6228731 0.2109375
0.6228731 0.2109375
0.6489179 0.2109375
0.6228731 0.203125
0.628082 0.5898438
0.628082 0.5898438
0.6697538 0.5898438
0.628082 0.5585938
0.6541269 0.3476563
0.6541269 0.3476563
0.6593359 0.3476563
0.6541269 0.34375
0.6385 0.609375
0.6385 0.609375
0.6801717 0.609375
0.6385 0.5859375
0.6645448 0.3867188
0.6645448 0.3867188
0.6853807 0.3867188
0.6645448 0.3710938
0.6645448 0.6640625
0.6645448 0.6640625
0.6853807 0.6640625
0.6645448 0.6484375
0.6853807 0.5390625
0.6853807 0.5390625
0.7062166 0.5390625
0.6853807 0.5273438
0.6645448 0.578125
0.6645448 0.578125
0.7062166 0.578125
0.6645448 0.5625
0.6645448 0.6132813
0.6645448 0.6132813
0.7062166 0.6132813
0.6645448 0.5898438
0.6697538 0.65625
0.6697538 0.65625
0.7114255 0.65625
0.6697538 0.640625
0.7010076 0.2109375
0.7010076 0.2109375
0.7218435 0.2109375
0.7010076 0.1992188
0.6801717 0.6953125
0.6801717 0.6953125
0.7218435 0.6953125
0.6801717 0.671875
0.6905897 0.5390625
0.6905897 0.5390625
0.7270525 0.5390625
0.6905897 0.5234375
0.6905897 0.5859375
0.6905897 0.5859375
0.7322614 0.5859375
0.6905897 0.5664063
0.6905897 0.6171875
0.6905897 0.6171875
0.7322614 0.6171875
0.6905897 0.5976563
0.6957986 0.6640625
0.6957986 0.6640625
0.7270525 0.6640625
0.6957986 0.6445313
0.7062166 0.203125
0.7062166 0.203125
0.7478883 0.203125
0.7062166 0.1875
0.7166345 0.5976563
0.7166345 0.5976563
0.7583063 0.5976563
0.7166345 0.5703125
0.7166345 0.6210938
0.7166345 0.6210938
0.7583063 0.6210938
0.7166345 0.6054688
0.7218435 0.6679688
0.7218435 0.6679688
0.7635152 0.6679688
0.7218435 0.6484375
0.7270525 0.5546875
0.7270525 0.5546875
0.7687242 0.5546875
0.7270525 0.5390625
0.7322614 0.21875
0.7322614 0.21875
0.7739332 0.21875
0.7322614 0.1992188
0.7426794 0.5820313
0.7426794 0.5820313
0.7843511 0.5820313
0.7426794 0.5585938
0.7426794 0.609375
0.7426794 0.609375
0.7843511 0.609375
0.7426794 0.5820313
0.7478883 0.6601563
0.7478883 0.6601563
0.7895601 0.6601563
0.7478883 0.6445313
0.7530973 0.5390625
0.7530973 0.5390625
0.794769 0.5390625
0.7530973 0.5234375
0.7583063 0.21875
0.7583063 0.21875
0.799978 0.21875
0.7583063 0.2070313
0.7687242 0.5820313
0.7687242 0.5820313
0.810396 0.5820313
0.7687242 0.5507813
0.7687242 0.6015625
0.7687242 0.6015625
0.810396 0.6015625
0.7687242 0.5703125
0.7739332 0.6796875
0.7739332 0.6796875
0.8156049 0.6796875
0.7739332 0.6523438
0.7791421 0.5429688
0.7791421 0.5429688
0.8208139 0.5429688
0.7791421 0.5273438
0.7791421 0.6601563
0.7791421 0.6601563
0.8208139 0.6601563
0.7791421 0.6289063
0.7843511 0.2304688
0.7843511 0.2304688
0.8260229 0.2304688
0.7843511 0.21875
0.8156049 0.4023438
0.8156049 0.4023438
0.8364408 0.4023438
0.8156049 0.3867188
0.794769 0.578125
0.794769 0.578125
0.8208139 0.578125
0.794769 0.546875
0.8208139 0.4921875
0.8208139 0.4921875
0.8416498 0.4921875
0.8208139 0.4726563
0.805187 0.6367188
0.805187 0.6367188
0.8260229 0.6367188
0.805187 0.6171875
0.810396 0.234375
0.810396 0.234375
0.8520677 0.234375
0.810396 0.21875
0.8208139 0.5234375
0.8208139 0.5234375
0.8520677 0.5234375
0.8208139 0.4921875
0.8520677 0.6171875
0.8520677 0.6171875
0.8572767 0.6171875
0.8520677 0.6171875
0.8364408 0.234375
0.8364408 0.234375
0.8781126 0.234375
0.8364408 0.2109375
0.8572767 0.3632813
0.8572767 0.3632813
0.8781126 0.3632813
0.8572767 0.34375
0.8364408 0.515625
0.8364408 0.515625
0.8729036 0.515625
0.8364408 0.484375
0.8364408 0.5351563
0.8364408 0.5351563
0.8781126 0.5351563
0.8364408 0.5039063
0.8676946 0.5976563
0.8676946 0.5976563
0.8885305 0.5976563
0.8676946 0.5820313
0.8520677 0.2617188
0.8520677 0.2617188
0.8937395 0.2617188
0.8520677 0.234375
0.8624856 0.3515625
0.8624856 0.3515625
0.9041574 0.3515625
0.8624856 0.3320313
0.8624856 0.3828125
0.8624856 0.3828125
0.9041574 0.3828125
0.8624856 0.359375
0.8624856 0.5351563
0.8624856 0.5351563
0.9041574 0.5351563
0.8624856 0.5039063
0.8885305 0.6328125
0.8885305 0.6328125
0.9093664 0.6328125
0.8885305 0.6171875
0.8729036 0.5546875
0.8729036 0.5546875
0.9145753 0.5546875
0.8729036 0.5390625
0.8781126 0.265625
0.8781126 0.265625
0.9145753 0.265625
0.8781126 0.234375
0.8833215 0.2851563
0.8833215 0.2851563
0.9249933 0.2851563
0.8833215 0.2539063
0.9041574 0.4179688
0.9041574 0.4179688
0.9145753 0.4179688
0.9041574 0.4179688
0.8885305 0.375
0.8885305 0.375
0.9302022 0.375
0.8885305 0.34375
0.9041574 0.3046875
0.9041574 0.3046875
0.9354112 0.3046875
0.9041574 0.2734375
0.9145753 0.3242188
0.9145753 0.3242188
0.9458292 0.3242188
0.9145753 0.2929688
0.9249933 0.3554688
0.9249933 0.3554688
0.9510381 0.3554688
0.9249933 0.328125
0.9406202 0.546875
0.9406202 0.546875
0.9614561 0.546875
0.9406202 0.5234375
0.9510381 0.4296875
0.9510381 0.4296875
0.971874 0.4296875
0.9510381 0.421875
0.9354112 0.3515625
0.9354112 0.3515625
0.9562471 0.3515625
0.9354112 0.3203125
0.9562471 0.3867188
0.9562471 0.3867188
0.977083 0.3867188
0.9562471 0.3671875
0.9458292 0.5273438
0.9458292 0.5273438
0.9875009 0.5273438
0.9458292 0.5
0.9458292 0.5507813
0.9458292 0.5507813
0.9875009 0.5507813
0.9458292 0.53125
0.9562471 0.4296875
0.9562471 0.4296875
0.9979188 0.4296875
0.9562471 0.4140625
0.9614561 0.3867188
0.9614561 0.3867188
1.003128 0.3867188
0.9614561 0.3671875
0.9614561 0.4179688
0.9614561 0.4179688
1.003128 0.4179688
0.9614561 0.3867188
0.971874 0.5078125
0.971874 0.5078125
1.008337 0.5078125
0.971874 0.4882813
0.9822919 0.4296875
0.9822919 0.4296875
1.013546 0.4296875
0.9822919 0.40625
0.9979188 0.4570313
0.9979188 0.4570313
1.018755 0.4570313
0.9979188 0.4375
1.018755 0.4375
