0.2738721 0.9375
0.2738721 0.9375
0.2738721 0.9375
0.2738721 0.9375
0.2842901 0.8828125
0.2842901 0.8828125
0.2842901 0.8828125
0.2842901 0.8789063
0.294708 0.84375
0.294708 0.84375
0.294708 0.84375
0.294708 0.8398438
0.305126 0.3085938
0.305126 0.3085938
0.305126 0.3085938
0.305126 0.3085938
0.3155439 0.3398438
0.3155439 0.3398438
0.3155439 0.3398438
0.3155439 0.3398438
0.3415887 0.7617188
0.3415887 0.7617188
0.3624246 0.7617188
0.3415887 0.7421875
0.3415887 0.828125
0.3415887 0.828125
0.3624246 0.828125
0.3415887 0.8085938
0.3415887 0.7929688
0.3415887 0.7929688
0.3676336 0.7929688
0.3415887 0.7734375
0.3624246 0.3671875
0.3624246 0.3671875
0.3780515 0.3671875
0.3624246 0.3632813
0.3624246 0.9179688
0.3624246 0.9179688
0.3728426 0.9179688
0.3624246 0.9101563
0.3624246 0.984375
0.3624246 0.984375
0.3624246 0.984375
0.3624246 0.984375
0.3467977 0.8515625
0.3467977 0.8515625
0.3676336 0.8515625
0.3467977 0.8320313
0.3832605 0.8046875
0.3832605 0.8046875
0.3884695 0.8046875
0.3832605 0.796875
0.3988874 0.9140625
0.3988874 0.9140625
0.4197233 0.9140625
0.3988874 0.8867188
0.3988874 0.9375
0.3988874 0.9375
0.4249322 0.9375
0.3988874 0.9140625
0.4145143 0.5117188
0.4145143 0.5117188
0.4145143 0.5117188
0.4145143 0.5117188
0.4145143 0.6445313
0.4145143 0.6445313
0.4301412 0.6445313
0.4145143 0.6367188
0.4040964 0.9101563
0.4040964 0.9101563
0.4457681 0.9101563
0.4040964 0.8789063
0.4093053 0.9296875
0.4093053 0.9296875
0.4509771 0.9296875
0.4093053 0.8984375
0.4353502 0.8359375
0.4353502 0.8359375
0.4509771 0.8359375
0.4353502 0.8242188
0.4457681 0.7304688
0.4457681 0.7304688
0.4509771 0.7304688
0.4457681 0.7304688
0.4301412 0.9101563
0.4301412 0.9101563
0.471813 0.9101563
0.4301412 0.8789063
0.4405591 0.8515625
0.4405591 0.8515625
0.4822309 0.8515625
0.4405591 0.8359375
0.4457681 0.890625
0.4457681 0.890625
0.4874399 0.890625
0.4457681 0.859375
0.4770219 0.8164063
0.4770219 0.8164063
0.4926488 0.8164063
0.4770219 0.8046875
0.4926488 0.8515625
0.4926488 0.8515625
0.5030668 0.8515625
0.4926488 0.8398438
0.4874399 0.8671875
0.4874399 0.8671875
0.5082757 0.8671875
0.4874399 0.8632813
0.5134847 0.1171875
0.5134847 0.1171875
0.5343206 0.1171875
0.5134847 0.109375
0.5291116 0.09765625
0.5291116 0.09765625
0.5499475 0.09765625
0.5291116 0.08984375
0.5864103 0.3828125
0.5864103 0.3828125
0.6072462 0.3828125
0.5864103 0.359375
0.6020372 0.5390625
0.6020372 0.5390625
0.6020372 0.5390625
0.6020372 0.5390625
0.5916193 0.359375
0.5916193 0.359375
0.6124551 0.359375
0.5916193 0.34375
0.6072462 0.3984375
0.6072462 0.3984375
0.628082 0.3984375
0.6072462 0.375
0.628082 0.6953125
0.628082 0.6953125
0.628082 0.6953125
0.628082 0.6875
0.633291 0.75
0.633291 0.75
0.633291 0.75
0.633291 0.75
0.6645448 0.09765625
0.6645448 0.09765625
0.6697538 0.09765625
0.6645448 0.09765625
0.6697538 0.09765625
0.6697538 0.09765625
0.7114255 0.09765625
0.6697538 0.08984375
0.6957986 0.1992188
0.6957986 0.1992188
0.6957986 0.1992188
0.6957986 0.1992188
0.7270525 0.8398438
0.7270525 0.8398438
0.7374704 0.8398438
0.7270525 0.8320313
0.7739332 0.2070313
0.7739332 0.2070313
0.7791421 0.2070313
0.7739332 0.2070313
0.8208139 0.546875
0.8208139 0.546875
0.8364408 0.546875
0.8208139 0.5351563
0.8676946 0.09765625
0.8676946 0.09765625
0.8676946 0.09765625
0.8676946 0.09765625
0.8676946 0.6015625
0.8676946 0.6015625
0.8781126 0.6015625
0.8676946 0.59375
0.8833215 0.3945313
0.8833215 0.3945313
0.8989484 0.3945313
0.8833215 0.375
0.8729036 0.5976563
0.8729036 0.5976563
0.9145753 0.5976563
0.8729036 0.5742188
0.9093664 0.5898438
0.9093664 0.5898438
0.9249933 0.5898438
0.9093664 0.5820313
0.9249933 0.4179688
0.9249933 0.4179688
0.9354112 0.4179688
0.9249933 0.3984375
0.9302022 0.3828125
0.9302022 0.3828125
0.9562471 0.3828125
0.9302022 0.3671875
0.9302022 0.4179688
0.9302022 0.4179688
0.966665 0.4179688
0.9302022 0.3984375
1.003128 0.1640625
1.003128 0.1640625
1.013546 0.1640625
1.003128 0.15625
1.008337 0.390625
1.008337 0.390625
1.013546 0.390625
1.008337 0.3867188
1.023964 0.4726563
1.023964 0.4726563
1.039591 0.4726563
1.023964 0.4726563
1.081262 0.4257813
1.081262 0.4257813
1.081262 0.4257813
1.081262 0.4257813
1.102098 0.3203125
1.102098 0.3203125
1.102098 0.3203125
1.102098 0.3203125
1.102098 0.3203125
